name,districts,zipcodes
0ES/NIKI,,561 23
A ELIOYPOLE TESSALONIKE,,57013
A GLYFADA,,16561
A GLYPHAD,,16561
A GLYPHADA,,16561
A LIOSIA,,13341|13341|13341
ØLEN,,5580
ØLSTYKKE,,3650|3650
ØRBÆK,,5853
ØRJE,,1870
ØRNES,,8150
ØRSKOG,,6249
ØRSTA,,6150
ØSTERÅS,,1361
ØVERBYGD,,9335
ØVRE VATS,,5576
ØYSLEBØ,,4532
ÖREBRO,,703 50|703 63|702 14
ÖREGRUND,,740 71
ÖRNSKÖLDSVIK,,891 33|891 31
ÖSMO,,148 30
ÖSTERSUND,,831 26|831 31
ÖSTERSUNDOM,,1100
ÖSTRA LJUNGBY,,264 71
ÅBYBRO,,9440
ÅKERSBERGA,,184 91|184 40
ÅLESUND,,6014|6012|6008
ÅLGÅRD,,4330
ÅMOT,,3340
ÅMOTFORS,,670 40
ÅNÄSET,,915 34
ÅNDALSNES,,6300
ÅNGE,,841 32
ÅRHUS C,,8000
ÅRHUS N,,8200
ÅRNES,,2150
ÅRSTA,,120 40
ÅRSUNDA,,810 22
ÅRUP,,5560
ÅS,,1430
ÅSA,,430 31
ÅSTORP,,265 39
ÅTVIDABERG,,597 53
ÄÄNEKOSKI,,44100
ÄHTÄRI,,63700
ÄLVSBYN,,942 33
ÄNGELHOLM,,262 71
AABENRAA,,6200
AABYBRO,,9440
AAKIRKEBY,,3720
AALBORG,,9000|9000|9000|9000|9000
AALBORG SØ,,9210|9210
AALBORG SV,,9200|9200
AALESTRUP,,9620
AARS,,9600|9600|9600
ACHAIA,,25200
AFIDNAI,,19014
AG ANARGYROI,,13562|13561
AG APOSTOLOI,,19014
AG ATANASIOS,,66300
AG BARBARA,,12351|12351
AG BASILES PATRON,,26500
AG DEKA ERAKLEIOY,,70400|71201
AG DEMETRIOS,,17236|17343
AG GALENE RETYMNOY,,74056
AG IOANNES RENTES,,18233|18233
AG KON/NOS PHTIOTIDA,,35006
AG LARISES,,40003
AG MAMAS,,63200|63200
AG MYRONAS IRAKLEIOY,,70013
AG NIKOLAOS,,72100|72053|72100
AG PARASKEVI,,15344
AG PARASKEYE,,15341|15341|15343
AG. BARBARA ERAKLEIOY,,70003
AG. PARASKEYE,,15343
AG.DEMETRIOS,,17343
AG.STEFANOS,,14565|14565
Agüimes,,35260
AGRINIO,,30100|30100|30100|30100|30100|30100|30100|30100|30100|30100|30100
AIANTEIO SALAMINAS,,18900
AIGALEO,,12241|12243
AIGINA,,18010|18010
AIGIO,,25100|25100|25100|25100|25100
AIT/NIAS,,30002
AITOLIKO MESOLOGGIOY,,30400
AKSDAL,,5570
ALAJÄRVI,,62900
ALAVUS,,63300
Albelda de Iregua,,26120
ALBERIQUE,,46260
ALBERTSLUND,,2620|2620
ALBOLOTE,,18220
ALCALA DE GUADAIRA,,41500|41500|41500
ALCALA DE HENARES,,28806
ALCANAR,,43530|43530
ALCARRAS,,25180
ALCOBENDAS,,28100|28100
Alcorcón,,28923
ALCORCON,,28925
ALCOY,,3800
ALEX/POLE,,68100|68100|69100|68500|68100|68100|68100|68100
ALEX/POLI,,68100
ALEXANDREIA EMATEIAS,,59300
ALEXANDREIA IMATHEIAS,,59300
ALEXANDRIA IMATHIAS,,59300
ALFARA DEL PATRIARCA,,46115
ALGECIRAS,,11202|11204
ALGUAZAS,,30560
ALHAMA MURCIA,,30840
ALIBERI,,34500|34500
ALICANTE,,3009
ALIMOS,,17455|17455|17455|17562|17456
ALINGSÅS,,441 39
ALJARAQUE,,21110
ALLAGE MESSENIAS,,24002
ALLINGE,,3770
ALMANSA,,2640
ALMARAZ,,10350
ALMENDRALEJO,,6200
ALMYROS,,37100|37100
ALMYROS MAGNESIAS,,37100
ALTA,,9501|9507
ALVDAL,,2560
ALYKES BOLOY,,38500
AMALIADA,,27200|27200|27200|27059|27200|27200
AMARYNTOS EYBOIAS,,34006
AMFILOCHIA,,30500
AMMOYRI PHTHIOTIDAS,,35100
AMPELOKEPOI IOANNINON,,45445
AMPELOKEPOI TESSALONIKE,,56123
AMPHIKLEIA PHTIOTID,,35002
AMPHISS,,33100
AMYNTAIO,,53200
AN ILIOYPOLI,,16345
ANATOLE IOANNINON,,45500
ANDENES,,8480
ANDROS,,84501
ANGERED,,424 65
ANKENESSTRAND,,8520
ANO GLYFADA,,16777
ANO PATESIA,,11141
ANOIXE ATTIKES,,14569
ANTEQUERA,,29200
ANTIKYRRA BOIOTIAS,,32005
ANTIRIO,,30020
ARACHOBA BOIOTIA,,32004
ARANJUEZ,,28300
ARBOGA,,732 30
ARCH OLYMPI,,27065
ARDEN,,9510
AREMARK,,1798
ARENDAL,,4839|4849|4847
ARGOLIDA,,21053
ARGOS,,21200|21200|21200
ARGOS ORESTIKO,,52200
ARGOSTOLI,,28100|28100
ARGYROUPOLI,,16451
ARGYROYPOLE,,16451|16451
ARIDAIA,,58400
Arinaga,,35118
ARISTE IOANNINON,,44016
ARJEPLOG,,930 90
ARKADIKO DRAMAS,,66100
ARKITSA FHTIOTIDOS,,35200
ARLÖV,,232 35
Armeñime,,38648
Arona,,38200
Arrecife,,35500|35500|35500|35500|35500
ARROYOMOLINOS,,28939
ARTA,,47100|47100|47043|47100|47100
ARTEMIS,,19016
Arucas,,35400|35400
ARVIDSJAUR,,933 33|933 33
ARVIKA,,671 33
ASAA,,9340
ASKER,,1383
ASKERSUND,,696 30
ASKIM,,1807|436 33|436 42
ASPROPYRGOS,,19300|19300|19300
ASSEROS TESSALONIKE,,57100
ATALANTE PHTIOTIDO,,35200
ATAMANIO ARTAS,,47045
ATARFE,,18230
ATENA,,10442|11141|11853|10438|11526|11252|10438|11525|11528|11636|11143|11742|11526|11252
AURA,,21380
AURSKOG,,1930
AVALDSNES,,4262
AVERØY,,6530
AVESTA,,774 61
AVILES,,33400|33400|33400
AYLONARI EYBOIAS,,34009|34009
AZUQUECA DE HENARES,,19200
BØNES,,5155
BØSTAD,,8360
BÅLSTA,,746 52
BÅSTAD,,1866
BÆRUMS VERK,,1353
BÆVERFJORD,,6644
BACKARYD,,370 11
BADAJOZ,,6010
BAEZA,,23440
BAGSVÆRD,,2880
BALLERUP,,2750
BALLOBAR,,22234
BANGSUND,,7822
BARCELONA,,8005|8013|8017|8013
BARDU,,9360
BARKÅKER,,3157
Barlovento,,38726
BATNFJORDSØRA,,6631
BATY AYLIDOS,,34100
BAZA,,18800
BEKKESTUA,,1357
BELINCHON,,16471|16471
BENALMADENA (COSTA),,29630
BENALMADENA (PUEBLO),,29639
BENAVENTE,,49600
BENGTSFORS,,666 30
BENIPARRELL,,46469
BERG I ØSTFOLD,,1789|1789|1789
BERGEN,,5035|5093|5067|5073
BEROIA,,59100|59100|59100|59031
BETERA,,46117
BILLUND,,7190|7190
BIRKERØD,,3460
BJÄRNUM,,280 20
BJERKVIK,,8530
BJERRINGBRO,,8850
BJUGN,,7160
BLÅVAND,,6857
BLAKER,,1925
BLOKHUS,,9492
BLOMSTERDALEN,,5258
BODØ,,8022|8006|8008
BODEN,,961 37|961 73
BOGØY,,8288
BOGATZIKO KASTORIA,,52100
BOHUS-MALMÖN,,450 45
BOIOTIA,,32300|32300|32002
BOLLEBYGD,,517 37
BOLLNÄS,,821 00
BOLOS,,38334|38222|38445|38500|38334|37007|38446|38334|38500|38334|37001
BONITSA,,30002
BORÅS,,506 46|504 51|506 30|504 30|504 94
BORGENHAUGEN,,1738
BORJAS BLANCAS,,25400
BORLÄNGE,,784 34|781 70|781 72
Bormujos,,41930
BORRE,,3184
BOSBERG,,7070
BOTTNARYD,,560 25
BOX,,1190
BRØNDBY,,2605|2605
BRØNDERSLEV,,9700|9700
BRØNNØYSUND,,8900
BRØNSHØJ,,2700
BRØTTUM,,2372
BRÄNDÖ,,22920
BRABRAND,,8220
BRACHATI KORINTIA,,20006|20006
BRANDBU,,2760
BRASKEREIDFOSS,,2435
Breña Alta,,38710
BREKKVASSELV,,7896
BRILESIA,,15235
BROMÖLLA,,295 38
BROMMA,,167 31|167 32
BRUMUNDDAL,,2380|2380
BRUNFLO,,834 31
BRYNE,,4340
BRYSES CHANIO,,73007
BURGSVIK,,623 35
BYGLAND,,4745
BYRONAS,,16231
CABO DE PALOS,,30370
CABRILS,,8348
CACERES,,10005
CADIZ,,11011
CADRETE,,50420
CALAFELL,,43820
CALASPARRA,,30420
CALDAS DE MALAVELLA,,17455|17455
CAMARGO,,39609
CAMBADOS,,36330
CAMBRILS,,43850|43850|43850|43850
"CAMPANA, LA",,41429
CANGAS DE MORRAZO,,36940
CAPMANY,,17750|17750
CARMONA,,41410
CARTAGENA,,30205|30205
CARTAYA,,21450
CASARRUBIOS DEL MONTE,,45950|45950
CASAS DE HARO,,16611
CASTILLO DE LAS GUARDAS (EL),,41890
CASTRO URDIALES,,39700
CERCEDA,,15185
Cerceda,,28412
CEUTA,,51700|51700
CHAIDARI,,12462|12462|46100|13451
CHALANDR,,15231|15232|15231
CHALANDRI,,15233|15232|15232
CHALANDRI+M122,,15234
CHALASTR,,57300
CHALKEIO NAXO,,84302
CHALKID,,34100|34100|34100
CHALKIDA,,34100
CHALKIDIK,,63077|63073|63200|63077|63085
CHALKIDIKI,,63077|63200|63077|63077
CHANI,,73100|73001|73100|73131|73005
CHANIA,,73100|73100|73100|73100|73100|73100|73400
CHICLANA DE LA FRONTERA,,11130
CHILIOMODI KORINTIA,,20008
CHRYSOYPOL,,64200|64200
CHURRIANA DE LA VEGA,,18194
ciempozuelos,,28350
CIUDAD REAL,,13004|13003|13197
COIN,,29100
COLLADO VILLALBA,,28400|28400
Corralejo,,35660
Costa del Silencio,,39630
DALBY,,240 10
DALEKVAM,,5722
DEMETSANA ARKADIAS,,22007
DERBENI KORINTIAS,,20009
DIANALUND,,4293
DIDYMOTEICH,,68300
DIDYMOTEICHO,,68300|68300|68300|68010
DIKAIA EBROY,,68007|68007
DIMOS ACHARNON ATTIKIS,,13671
DIODIA PELASGIA,,35013
DOKKA,,2870
DOLIANA IOANNINON,,44004
DOMBÅS,,2660
DOMOKOS,,35010|35010|35010
DOS HERMANAS,,41700
DRAGØR,,2791
DRAMA,,66100|66100|66100|66100|66100|66033|66200|66100|66100|66200|66200|66100|66032|66200|66200|66100|66100
DRAMAS,,66100|66100
DRAMMEN,,3012|3012|3044|3023
DUKEN,,3133
EBELTOFT,,8400
EBROS,,68300|68006|68200|68007
ECIJA,,41400
ED,,668 30
EDESSA,,58200|58200|58200|58200
EGERSUND,,4370
EGGESBØNES,,6092
EGOYMENITSA,,46100
EIDSVÅG I ROMSDAL,,6460
EIDSVOLL,,2080
EIDSVOLL VERK,,2074|2074
EIKELANDSOSEN,,5640
EIKSMARKA,,1359
EINA,,2843
EKENÄS,,10600
EKSJÖ,,575 34
EL CAMPELLO,,3560
El Paso,,38750
El Sobradillo,,38108
EL.BENIZELOS  SPATA,,19004
ELASSONA,,40200
ELCHE,,3205
ELEOYSA IOANNINON,,45500
ELEYSINA,,19200|19200
ELEYTEROYPOLE,,64100
ELIOYPOLE,,16345|16346|16345|16342
ELVERUM,,2408
ENKÍPING,,745 63
ENSKEDE,,122 66
ENVIKEN,,790 26
ERAKLEIO,,71306|71500|81500|71500|71303|70007|71305|71500|71500|70400|81500|71409|71303|70012|70400|70005|71500
ERAKLEIO KRETES,,62400
ERATEINE,,33058
ERETRIA EVIAS,,34008
ERYMANTEIA,,25015
ESBJERG,,6700|6700
ESBJERG Ø,,6705
ESBJERG N,,6715
ESBJERG V,,6710|6710
ESKILSTUNA,,633 45|632 28
ESPA,,2338
ESPARTINAS,,41807
ESPOO,,2780|2740|2170|2650|2210|2270|2650|2970|2380
ESTEPA,,41560
ESTEPONA,,29680|29680
ETNE,,5590
EYAGGELISTRIA PEIRAIAS,,18532
EYBOIA,,34600|34500
EYENOCHORI AIT/NIA,,30014
EYLALO XANTES,,67200
EYOSMOS TESSALONIKE,,57100|54628|56431
FØRDE,,6800
FØRRESFJORDEN,,5563
FÅVANG,,2634
FÆRVIK,,4818
FAABORG,,5600
FAGERNES,,2900
FALKÖPING,,521 41
FALKENBERG,,311 35|311 39|311 97
FALUN,,791 62|791 46|791 35|791 61
FARSØ,,9640
FARSALA,,40300|40300
FARUM,,3520|3520
FAUSKE,,8200
FIGUERAS,,17600
FINNSNES,,9300
FINSPÅNG,,612 41
FJÄLKINGE,,290 34
FJÄRÅS,,430 33
FJÄRDHUNDRA,,740 83
FLEKKEFJORD,,4400
FLORØ,,6900
FLYINGE,,240 32
FOIOS,,46134
FOKIDAS,,33057
FOLDEREID,,7985
FOLLEBU,,2656
"FONT DE LA FIGUERA, LA",,46630|46630
FONTIOSO,,9349
FORSHAGA,,667 31
FORTUN,,6877
FRÄNSTA,,840 12
FRAGA,,22520
FREDERICIA,,7000|7000|7000|7000
FREDERIKSHAVN,,9900|9900|9900
FREDERIKSSUND,,3600
FREDERIKSVÆRK,,3300
FREDRIKSTAD,,1606|1617|1617
FREI,,6520
FRILLESÅS,,430 30
FROLAND,,4820
FTHIOTIDA,,35003|35100
FTHIOTIDOS,,35005
FUENTE EL SAZ,,28140
FUNÄSDALEN,,840 95
FURUSUND,,760 19
FYLLINGSDALEN,,5141
GØRLEV,,4281
GÖTEBORG,,411 39|414 64|414 55|412 63|412 66|411 04|417 49
GÖTENE,,533 30
GÅNGHESTER,,507 71|507 71
GÄLLNÖBY,,130 33
GÄVLE,,802 55|803 09|803 21
Güimar,,38500
GALATAS,,18020
GALATSI,,11147|11141
GALAXEIDI,,33052
Galdar,,35460
GALERA,,18840
GALTEN,,8464
GANDRUP,,9362
GARGALIANOI MESSENIAS,,24400
GAVALOU MAKRYNIAS,,300 15
GELVES,,41120
GERAKAROY,,57012
GERAKAS,,15344
GERAKAS ATTIKIS,,15344
GERONA,,17005
GETAFE,,28904|28909
GIANNITSA PELLES,,58300|58100
GIBOSTAD,,9372
GIJON,,33211|33211
GINES,,41960
GISLAVED,,332 30
GISTRUP,,9260|9260
GJØVIK,,2816
GJERDRUM,,2022
GJERLEV J,,8983
GLAMSBJERG,,5620
GLOMFJORD,,8160
GLUMSØ,,4171
GLYKA NERA,,15344|15344
GLYPHADA,,16675|16674|16675|16674
GNOSJÖ,,335 30
GODBY,,22410
GODELLA,,46110
GOL,,3550|3550
GORNAZO MIENGO,,39310
GORTYNIAS,,22008
GOYBES ERAKLEIOY,,70014
GRÅBO,,443 40
GRÄNGESBERG,,772 01
GRÄNNA,,563 32
GRÄSTORP,,467 40
GRABIA PHOKIDO,,33057
GRAM,,6510
GRAN,,2750|2750
Granadilla,,38600
GRANOLLERS,,8400
GREÅKER,,1719
GREBBESTAD,,457 72
GREBENA,,51100|51100|51100
GRENAA,,8500
GREVE,,2670
GRIMSTAD,,4876
GRINDSTED,,7200|7200
GRUE-FINNSKOG,,2256
GRUMS,,664 33
Guía de Isora,,38680
GUADALAJARA,,19005
GUARROMAN,,23210
GUDVANGEN,,5747
HØJBJERG,,8270
HØJBY,,4573
HØNEFOSS,,3511|3515
HØRNING,,8362
HØRSHOLM,,2970|2970
HØYDALSMO,,3891
HØYLANDET,,7977
HÖGANÄS,,263 39
HÖLÖ,,153 93
HÖRBY,,242 31
HÄGERSTEN,,129 48|126 49
HÄLLEVADSHOLM,,450 53
HÄMEENLINNA,,13100
HÄRNÖSAND,,871 40
HÄSSLEHOLM,,281 36|281 33
HAAPAJÄRVI,,85800
HAAPAVESI,,86600
HAARBY,,5683
HADERSLEV,,6100
HADSTEN,,8370
HADSUND,,9560|9560
HAFRSFJORD,,4048|4042
HAFSLUNDSØY,,1734
HAILUOTO,,90480
HAKADAL,,1488
HALDEN,,1772|1782
HALLSTAVIK,,763 91
HALMSTAD,,302 49|302 41|302 49
HALSA,,8178
HAMAR,,2318|2317
HAMARØY,,8294
HAMARVIK,,7263
HAMMARLAND,,22240
HAMMEL,,8450|8450
HAMMERDAL,,830 70
HAMMERFEST,,9600|9615
HAMRÅNGEFJÄRDEN,,817 93
HANDEN,,136 40
HANESTAD,,2478
HANINGE,,136 50|136 91
HANKO,,10900
HAPARANDA,,953 31
HARESTUA,,2743
HARSTAD,,9403|9409
HARTOLA,,19600
HASLEV,,4690|4690
HASLUM,,1344
HAUGESUND,,5531|5529
HAUHO,,14700
HAUKELAND,,5268
HEDEHUSENE,,2640|2640
HEDEMORA,,776 33
HEGGEDAL,,1389
HEIMDAL,,7072
HEINOLA,,18100
HELLERUP,,2900|2900
HELSINGØR,,3000
HELSINGBORG,,252 30|254 66|254 57|253 61
HELSINGE,,3200
HELSINKI,,400|720|950|750|510|320|810|930|390|170|610|210|920|240|270|270|980
HEMSEDAL,,3560
HENÅN,,473 34
HERFØLGE,,4681
HERLEV,,2730|2730|2730|2730
HERNING,,7400|7400|7400|7400|7400|7400
HERRLJUNGA,,524 30
HILLERØD,,3400|3400|3400
HINNERJOKI,,27600
HINNERUP,,8382
HIRTSHALS,,9850|9850
HISINGS BACKA,,422 46|422 46
HITRA,,7240
HJØRRING,,9800|9800|9800|9800|9800
HJALLERUP,,9320
HOBØL,,1827
HOBRO,,9500|9500
HOFORS,,813 34
HOLBÆK,,4300|4300
HOLMEGAARD,,4684
HOLMESTRAND,,3080|3080|3080|3080
HOLSTEBRO,,7500|7500|7500
HOLTE,,2840
HOLTER,,2034
HOMMELVIK,,7550|7550|7550
HONNINGSVÅG,,9750
HORNBÆK,,3100
HORNSLET,,8543
HORSENS,,8700|8700|8700
HORTEN,,3189|3186|3182
Hospitalet de Llobregat,,8901
HOVDEBYGDA,,6160
HOVDEN I SETESDAL,,4755
HUDDINGE,,141 40|141 47
HUDIKSVALL,,824 34
HUESCAR,,18830
HUITTINEN,,32700
HUMLEBÆK,,3050
HUNNEBOSTRAND,,450 46
HUSKVARNA,,561 43
HVIDOVRE,,2650|2650
HYVINKÄÄ,,5800
Icod de los Vinos,,38430
IDRE,,790 91
IERAPETRA,,72200|72200|72200
II,,91100
IISLM,,74100
IITTALA,,14500
IKAST,,7430
ILEIAS,,27053
ILION,,12136
ILIOUPOLI,,163 41
ILIOUPOLI ATTIKIS,,16341
ILISSIA,,11527
ILSENG,,2344
IMATRA,,55100
INDERØY,,7670
Ingenio,,35250
INNHAVET,,8260
IOANNINA,,455 00|45500|45500|45500|45500|45500|45221|44017|45500|45500|45500|45500|45445|45500
IRAKLEIO,,71303|71409|71500
IRUN,,20303
ISDALSTØ,,5914|5914
ISHØJ,,2635
ISTIAIA EYBOIAS,,34200|34200|34200
ISTMIA KORINTIAS,,20010
ITEA,,33200|33200
IVALO,,99800
JÖNKÖPING,,553 03|553 33|553 05|556 52
JÄÄLI,,90940
JÄMSÄ,,42100
JÄRFÄLLA,,175 61|177 58
JÄRPEN,,830 05
JÄRVENPÄÄ,,4400
JÄVREBYN,,944 94
JAEN,,23009|23002|23007
JAKOBSTAD,,68620
JANDIA,,35625
JARRIO - COAÑA,,33719
JEPUA,,66850
JEREZ DE LA FRA.,,11590
JEREZ DE LA FRONTERA,,11406
JERICA,,12450
JOENSUU,,80100
JOHANNESHOV,,121 38|121 77
JOKINIEMI,,12640
JORVAS,,2420
JOUTSA,,19650
JOUTSENO,,54100
JUMILLA,,30520
JUUKA,,83900
JUVA,,51900
JYDERUP,,4450
JYVÄSKYLÄ,,40400|40500|40100|40100
KØBENHAVN Ø,,2100
KØBENHAVN N,,2200
KØBENHAVN NV,,2400|2400
KØBENHAVN S,,2300|2300|2300
KØBENHAVN SV,,2450|2450
KØBENHAVN V,,1604
KØGE,,4600|4600
KÄVLINGE,,244 38
KAARINA,,20780
KAAVI,,73600
KABALA,,64006|65201|65500|65201|65500
KABOYRI,,16673
KAJAANI,,87100
KAKAVIA IOANNINVN,,44004
KALAJOKI,,85100
KALAMARIA TESSALONIKE,,55133|55133
KALAMATA,,24100|24100|24100|
KALAMIA ARTAS,,47100
KALAMPAKA,,42200|42200
KALIX,,952 51
KALLITEA,,17676|17671
KALLITHEA,,17671|17674|17671
KALMAR,,392 38|392 38
KALOGREZA,,14234
KALUNDBORG,,4400
KALYBES CHANION,,73003
KALYBIA ATTIKES,,19010
KAMATERO,,13451|13451
KANALAKI PREBEZES,,48062|48062
KANGASHÄKKI,,41290
KANGASNIEMI,,51200
KANKAANPÄÄ,,38700
KARASJOK,,9730
KARDITSA,,43100|43100|43100|43300|43062|43100|43100|43100|43300|43060|43100|43300|43100
KAREAS,,16233
KARIGASNIEMI,,99950
KARJAA,,10320
KARKKILA,,3600
KARLSKOGA,,691 52
KARLSKRONA,,371 49
KARLSLUNDE,,2690
KARLSTAD,,653 41|653 50|654 61
KARPENISI,,36100
KARTEROS ERAKLEIO,,71500
KARTTULA,,72100
KARYSTOS,,34001|34001
KASKINEN,,64260
KASNÄS,,25930
KASTELI ERAKLEIO,,70006
KASTELLI PEDIADOS,,70006
KASTORIA,,52100|52100|52100|52100|52100|52200|52100
KASTRO,,32200
KASTRUP,,2770
KATERINE,,60100|60100
KATERINI,,60100
KATO ACHAI,,25200
KATRINEHOLM,,641 31
KAUHAJÄRVI,,62295
KAUNIAINEN,,2700
KAUPANGER,,6854
KELLOKSK,,4500
KEMIÍ,,25700
KEMPELE,,90440|90450
KEPHALLONI,,28081|28100
KEPHISI,,14564|14564
KERATEA,,19001|19001|19001
KERATSINI,,18546|18755|18758
KERKYRA,,49080|49100|49100|49084|49100|49100|49083|49100|49100|49100|49083|49100|49083|49081|49100|49080|49084|49100|49100|49081|49100|49100|49083|49100
KERKYRAS,,49100
KIATO,,20200|20200|20200
KIBÆK,,6933
KIL,,665 30
KILKIS,,61200|61200|61100|61300
KINETTA,,19100
KIRKE SÅBY,,4060
KIRKENÆR,,2260
KIRKENES,,9900
KIRKKONUMMI,,2400
KISA,,590 40
KISSAMOS,,73400|73400
KISTA,,164 40
KITSI KOROPIOY,,19400
KITTILÄ,,99100
KJELLERUP,,8620
KLØFTA,,2040|2040
KLARUP,,9270
KLAUKKALA,,1800
KLEPPE,,4352
KLEPPESTØ,,5300
KLOKKARSTUA,,3490
KNÄRED,,310 20
KODAL,,3243
KOINOTITA PEFKON - SALONICA,,57010
KOKKOLA,,67100|67400|67100
KOKSTAD,,5257
KOLBOTN,,1410
KOLDING,,6000|6000|6000|6000
KOLINDROS PIERIAS,,60061
KOLVEREID,,7970
KOLYMVARI CHANION,,73006
KOMOTENE,,69100|69100|69100
KOMOTINI,,69300
KONGERSLEV,,9293
KONGSBERG,,3612|3617|3617|3616
KONGSVINGER,,2212|2211|2212
KONITSA,,44100|44100
KONTIOLAHTI,,81100
KONTIOMÄKI,,88470
KOPERVIK,,4250|4250
KOPPANG,,2480
KORINOS PIERIAS,,60062|60062
KORINTHIA,,20004
KORINTIA,,20002
KORINTOS,,20100|20100|20100|20009
KORONE,,24004
KOROPI,,19400
KORSNÄS,,66200
KORTELA,,26840|26840
KORYDALLOS,,18122|18120
KOSKENKORVA,,61330
KOTKA,,48100|48300|48600|48100
KOUVOLA,,45130
KOYRTESI,,27052
KOZANE,,50100|50400|50400|50004|50100|50100|50100|50300|50100
KRÅKERØY,,1671|1671
KRANIDI,,21300
KRETE,,72300|70200|70200|73005|73100|70400|73003|70300|73007|70010|70005|70010|72052|73100|73006|74051
KRISTIANSAND S,,4636|4614|4628|4628|4612|4638|4631
KRISTIANSTAD,,291 59|291 54
KRISTIANSUND N,,6509
KRISTINEHAMN,,681 30
KRITI,,72400|73006
KRUSÅ,,6340
KTIRIO - SPATA,,19004
KUHMO,,88900
KUMLA,,692 33
KUNGÄLV,,442 90
KUNGSÄNGEN,,196 92
KUNGSGÅRDEN,,812 40
KUOPIO,,70300|70600|70420|70780
KUUSANKOSKI,,45700|45740
KVELDE,,3282
KYLLENE,,27068
KYNOYRIAS,,22001
KYPSELI IMATHIAS,,59031
KYRÍSKSK,,39200
KYRKSÆTERØRA,,7200
KYTERA,,80100
KYYJÄRVI,,43700
LA CANONJA,,43110
La Junquera,,17600
La Laguna,,38205|38205
LA LINEA DE LA CONCEPCION,,11300
LA MOJONERA,,4745|4745
LA MUELA,,50196
La Orotava,,38311|38315
LA PALMA,,30593
LA POBLA LLARGA,,46670
LA RINCONADA,,41309
LA ROCA DEL VALLES,,8430
LA RODA DE ANDALUCIA,,41590
LA SERNA DEL MONTE,,28737
LA VEGUILLA-REOCIN,,39538
La Victoria,,38380
LØGSTØR,,9670
LØRENSKOG,,1473
LÖDDEKÖPINGE,,246 42
LÖTTORP,,380 74
LAGANAS ZAKYNTOY,,29092
LAGINA THESSALONIKIS,,54500
LAGKADAS,,57200
LAGUNA DE DUERO,,47140
LAGYNA,,54500
LAHNAJÄRVI,,25420
LAHOLM,,312 34
LAHTI,,15320|15700|15300|15100|15210
LAIHIA,,66400
LAITILA,,23800
LAKONIA,,23100|23052|23064|23051
LAKSELV,,9700
LAKSEVÅG,,5164
LAMIA,,35100|35100|35100|35100|35100|35100|35100|35100|35100|35100
LANDSKRONA,,261 51|261 35
LANDVETTER,,438 35
LANGÅ,,8870
LANGREO,,33920|33900
LAPPEENRANTA,,53300|53850|53100|53100|53900
LAPUA,,62100|62100
LARACHA,,15145
LARISA,,41500|41500|41500|40006|41001|41500|41500|41500|41500|41500|41500|40007|41500|41334|41500|41500|41500|41500|41500|41334|41110
LARVIK,,3268|3260|3256
LAS CABEZAS DE SAN JUAN,,41730
Las Galletas,,38631
Las Palmas de Gran Canaria,,35001|35004|35013|35012|35013|35010|35007|35013
LASETI KRETES,,72055
LAYRIO,,19500|19500
LECHAINA ILEIAS,,27053|27053
LEIBADIA,,32100|32100|32100
LEINESFJORD,,8283
LEIVADIA,,32100
LEKSAND,,793 33
LEMNOS,,81400|81400|81400|81400|81400
LEMVIG,,7620
LEON,,24009
LEONIDION,,22029
LEPE,,21440
LEPPÄJÄRVI,,99440
LER,,7234
LERUM,,443 51
LESBOS,,81300|81102|81102
LEXOYRI KEPHALLONI,,28200
LEYKADA,,31100|31100|31100|31100
LIBANATES,,35007
LICHADA EVVOIAS,,34300
LIDINGÖ,,181 60
LIDKÖPING,,531 34|531 54
LIDORIKI PHOKIDO,,33053
LIER,,3400|3400
LIETO,,21420
LIEVESTUORE,,41400
LILJENDAL,,7880
LILLEHAMMER,,2619|2613|2611
LILLESTRØM,,2004|2000
LIMENAS CHERSONESO,,70014|70014
LIMHAMN,,216 13|216 16
LIMINGEN,,7898
LIMINKA,,91900
LINDÅS,,5955
LINDOME,,437 21|437 21
LINGHEM,,590 62|590 62
LINKÖPING,,582 54|582 31|587 23|582 46|582 73
LISTERBY,,372 74
LITI THESSALONIKI,,54500
LIVADIA,,32100
LJUNG,,524 42
LJUNGBY,,341 32|341 35
LJUNGBYHOLM,,388 30
LJUNGSKILE,,459 30
LOFTAHAMMAR,,590 95
LOHJA,,8500
LOIMAA,,32200
LOKRIDA,,35015
LORCA,,30800|30812|30813
Los Llanos de Aridane,,38760
LOS PALACIOS,,41720
Los Realejos,,38410
LOVIISA,,7900
LOYROS PREBEZES,,48061
LOYTRAKI,,20300
LUCENA,,14900
LUIKONLH,,73670
LULEÅ,,976 31|973 46|974 35
LUND,,224 60|227 61|227 31
LUNDERSKOV,,6640
LYCKSELE,,921 31
LYKOBRYSE,,14123
LYNGBY,,2800
LYNGDAL,,4580
MØRSVIKBOTN,,8266
MÖLNDAL,,431 33|431 62
MÖLNLYCKE,,435 33
MÅLØY,,6700
MÄNTSÄLÄ,,4600
MADRID,,28031|28021|28021|28016
MAGNESIA,,37010
MAKRAKOME,,35011
MAKRYS GIALOS MYTILENE,,81100
MALAGA,,29006|29006|29004|29004
MALMÖ,,216 20|214 55|212 39|214 48|212 24|212 16|215 26|213 69
MALUNG,,782 33
MANDAL,,4515|4514
MANDRA ATTIKIS,,19600
MANSTAD,,1626
MANTORP,,590 20
MANZANAL DEL PUERTO,,24369
MARANTOCHORI LEYKAD,,31082
Marbella,,29600
MARIBO,,4930
MARIEHAMN,,22100
MARIESTAD,,542 92|542 33
MARKARYD,,285 33
MARKOPOYLO,,19003|19003
MARMARI,,34013
MAROYSI,,15124|15126
MARTIN DE JARA,,41658
MASALFASAR,,46560
Maspalomas,,35100
MEG KALYBIA TRIKALON,,42030
MEGALOCHORI TRIKALO,,42100
MEGALOPOLE,,22200|22200
MEGALOPOLI,,
MEGARA,,19100|19100|19100|19100
MELIES MAGNESIAS,,37010
MELILLA,,52004|52005|52001|52005|52006|52005|52005
MELISIA,,15127
MELLBYSTRAND,,312 60
MELLERUD,,464 31
MELSOMVIK,,3159
MENIDI,,13671|13671
MERÅKER,,7530
MESOLOGGI,,30200|30015|30001
MESSENIA,,24013|24100|24200|24400
MESSINIA,,24500|24300
MESSINIAS,,24500
METAMORFOSI,,14452
METROPOLE KARDITSES,,43100
METSOBO,,44200|44200
MIDDELFART,,5500
MIERES,,33600
MIETOINEN,,23120
MIKKELI,,50180|50100
MISVÆR,,8100
MJØLKERÅEN,,5136
MJØNDALEN,,3050
MJÖLBY,,595 40
MO I RANA,,8624|8622
MOELV,,2390
MOI,,4460
MOIRES ERAKLEIOY,,70400|70400
MOIRES IRAKLEIOY,,70400
MOLAOI LAKONIAS,,23052
MOLDE,,6415|6416
MOLINS DE REY,,8750
MOLOS PHTIOTIDO,,35009
MONTESA,,46692
MONTOLA,,77350
MORA,,792 32
MORUD,,5462
MOS,,36415|36415
MOSBY,,4619
MOSCHAT,,18346|18345
MOSJØEN,,8663
MOSS,,1538|1523
MOSTERØY,,4156
MOTALA,,591 37
Moya,,35420
MOYRNIES,,73300
MOYSTENE KABALAS,,64008
MUGUIRO,,31878
MULLSJÖ,,565 91
MUNKEBO,,5330
MUNKEDAL,,455 35
MUONIO,,99300
MURCIA,,30007|30010|30001|30011
Mutilva Alta,,31192|31192
MUURAME,,40950
MYKONOS,,84600
MYRTIOS RETYMNOY,,74060
MYSEN,,1850|1850
MYTIKAS AITOL/NIAS,,30019
MYTILENE,,81100|81100|81100
N. ERAKLEIO,,14122|14122
N. ERYTRAIA,,14671
N. EYKARPIA SALONICA,,56429
N. IONIA,,14234|14231
N. KEPHISI,,14561
N. KEPHISSI,,14565
N. KORDELIO TESSALONIKE,,56334|56334
N. LASITIOY,,72059|72300
N. LIOSIA,,13121|13122|13121
N. MAKRE,,19005
N. MANOLADA ELEIAS,,27052
N. ORESTIADA,,68200|68200|68200|68200|68200|68007
N. PALATIA OROPOY,,19015|19015
N. PELLA,,58100
N. PERIVOLI ASPROPYRGOS,,19300
N. PHALER,,18547
N. PSYCHICO,,11528
N. SEPOLIA,,12133
N. SMYRNE,,17123|17123
N. STYRA,,34015
N. STYRA EYBOIAS,,34015
N.KALLIKRATEIA CHALKIDIKIS,,63080
NØRAGER,,9610
NØRRESUNDBY,,9400|9400
NØTTERØY,,3120
NÅS,,780 53
NÄMDÖ,,130 36
NÄRPES,,64200
NÄSSJÖ,,571 38
NÆRUM,,2850
NÆSTVED,,4700|4700|4700
NAARAJÄRVI,,76850
NAKKILA,,29250
NAKSKOV,,4900
NAMDALSEID,,7750
NAMNÅ,,2265
NAMSOS,,7800|7800
NANNESTAD,,2030
NAOYSA,,59200|59200
NARVIK,,8514
NAVATEJERA,,24008
NAXOS,,84300|84300
NAYPAKTOS,,30300|30300|30300
NAYPLIO,,21100
NAYPLIOO,,21100
NEAPOLE KOZANES,,50001
NEAPOLI LAKONIAS,,23053
NESBRU,,1394
NESBYEN,,3540
NESTTUN,,5221
NIBE,,9240
NIKAIA,,18534
NILSIÄ,,73300
NODELAND,,4645
NOKIA,,37120
NOL,,449 44
NORA,,713 31
NORD-STATLAND,,7777
NORDBORG,,6430
NORDKJOSBOTN,,9040
NORESUND,,3536
NORRKÖPING,,602 18|602 36|602 23|602 15|602 28
NORRTÄLJE,,761 43
NORSBORG,,145 53|145 64
NOTODDEN,,3676|3674
NUEVA ANDALUCIA -PUERTO BANUS - MARBELLA,,29660
NUMMELA,,3100
NYBORG,,5131
NYBRO,,382 34
NYKØBING F,,4800
NYKØBING M,,7900
NYKØBING SJ,,4500
NYKÖPING,,611 38|611 95|611 95
NYNÄSHAMN,,149 30|149 40
OCAÑA,,45300
ODDA,,5750
ODDER,,8300
ODENA,,8711
ODENSE C,,5000
ODENSE M,,5230
ODENSE NV,,5210|5210
ODENSE S,,5260|5260
ODENSE SØ,,5220|5220
ODENSE SV,,5250
ODNES,,2879
OINOE ORESTIADA,,68200
OINOI,,32009
OIXALIA MESSINIAS,,24002
OKSBØL,,6840
OLOFSTRÖM,,293 33
OPPDAL,,7340|7340
OPPHAUG,,7140
ORAVAINEN,,66800
ORCHOMENO,,32300|32300
ORCHOMENOS,,32300
ORIHUELA,,3300
ORIPÄÄ,,32500
ORIVESI,,35300
ORKANGER,,7300|7300
ORXOMENOS,,32100
OSBY,,283 41
OSKARSHAMN,,572 36
OSLO,,1081|663|977|1263|872|663|264|963|576|1065|1176|491|196|612|361|1285|988|570|980|284|855|373
OSTEREIDET,,5993
OSUNA,,41640
OTTA,,2670
OULU,,90240|90400|90530|90650|90140|90800|90310
OULUNSALO,,90460
OVIEDO,,33011
OVTRUP,,6855
OXELÖSUND,,613 35
OXIE,,238 41
P. FALIRO,,17564|17563|175 64|175 64
P. PHALER,,17564|17563
P.FALIRO,,17564|17564
PAGOS SYROY,,84100
PAIANIA,,19002|19002
PAJALA,,984 31
Pajara,,35628
PAJULH,,73360
PALAIA EPIDAVROS,,21059
PALLENE,,15344
PALLINI,,15344
PANDRUP,,9490
PARADAS,,41610|41610
PARALABE PELATE,,35100
PARAMYTIA,,46200
PARETS DEL VALLES,,8150
PARKANO,,39700
PARLA,,28980
PARTILLE,,433 33
PATERNA,,46980
PATRA,,26500|26500|26441|26441|26500|26500|26226|26500|26500|26221|26332|26441|26500|26500|26334|26331|26222|26500|26442|26500|25005|26442|26333|26332|26500
PATTIJOKI,,92140
PAXOI,,49100
PEDREGUER,,3750|3750
PEIRAIAS,,18536|18545|18543|18539|18536|18536|18543|18536|18541
PELKOSENNM,,98500
PELLA,,58500|58200
PERAIA,,57019
PERAIA TES/NIKES,,57019
PERAMA RETHYMNOY,,74052
PERIOCHE BOYRLIA TRAGANO,,27057
PERISTASE KATERINES,,60100
PERISTERI,,12136|12131|12133|12133|12131|12136
PEYKE,,15121
PHANAR,,43064
PHARKADONA TRIKALO,,42031
PHARSAL,,40300
PHERRES ALEX/POL,,68500
PHILLIPIAD,,48200
PHODELE ERAKLEIO,,71500
PHTIOTID,,35200
PHTIOTIDA,,35200
PHYL,,13341
PIETARSAARI,,68600
PIHTIPUDAS,,44800
PIIKKIÍ,,21500
PIIPPOLA,,92620
PIKERMI,,19009
PIKERMI ATTIKIS,,19009
PITEÅ,,941 37
PLATAMONAS PIERIAS,,60065
PLATANOS KALYBION,,30100
Platja d'aro,,17820
POHJANKURU,,10420
POLYDROSO AMAROYSIOY,,15125
POLYGYROS,,63100|63078
POLYSTELO KABALAS,,64003
POMARKKU,,29630
PORI,,28100|28130|28120
PORSGRUNN,,3916
PORTARIA BOLOY,,37011
PORVOO,,6150|6150
POZUELO DE ALARCON,,28223|28223|28223
PRÆSTØ,,4720
PREBEZA,,48100|48100|48300|48100|48061
PREVEZA,,481 00
PsACHNA EYBOI,,34400
PTOLEMAIDA,,50200|50200
Puerto de la Cruz,,38400|38400
PUERTO DE SANTA MARIA,,11500
PUERTO LUMBRERAS,,30890
Puerto Rico,,35130
PUNKAHARJU,,58500
Puntallana,,38715
PUOLANKA,,89200
PYHÄJOKI,,86100
PYHÄNTÄ,,92930
PYLAIA TESSALONIKE,,54250|55535
PYLOS,,24001|24001|24001
PYRGOS,,27100|27100|27100|27100
PYRGOS ILEIAS,,271 00
QUINTANAPALLA,,9290
RØDOVRE,,2610|2610
RØKLAND,,8255
RØLDAL,,5760
RØN,,2960
RØNNE,,3700
RØNNEDE,,4683
RØROS,,7374
RØRVIK,,7900
RØYSE,,3530
RÅDAL,,5239
RÅDE,,1640
RÄTTVIK,,795 32
RAFINA,,19009|19009
RAISIO,,21200
RAJAMÄKI,,5200
RAKKESTAD,,1890
RANDERS,,8900|8900|8900|8900|8900|8900
RANTASALMI,,58900
RAUMA,,26100
REINSVOLL,,2840
RENDALEN,,2485
REPLOT,,65800
RETHYMNO,,74100
RETYMNO,,74100|74100|74100|74100|74100|74052
RIBE,,6760
RIDABU,,2322
RIIHIMÄKI,,11100
RIMBO,,762 51
RINCON DE LA VICTORIA,,29730
RINGKØBING,,6950
RINGSTED,,4100
RIO PATRON,,26500|26500
RISSKOV,,8240
RISTIINA,,52300
RIUDOMS,,43330
RIVABELLOSA,,1213
RJUKAN,,3660|3660
ROA,,2713
RODODAPHN,,25100
RODOPE,,69200
RODOS,,85100|85103|85100|85101|85102|85104|85104|85104|85100|85100|85100|85100|85100
ROGNAN,,8250
ROLVSØY,,1664
ROMEDAL,,2334
ROQUETAS DE MAR,,4740
ROSKILDE,,4000|4000|4000|4000|4000
ROVANIEMI,,96100|96100|96300
RUDKØBING,,5900
RUUTANA,,36110
RYDEBÄCK,,257 30
SØNDERBORG,,6400
SØRREISA,,9310
SØRVIK,,9419
SÖDERHAMN,,826 30
SÖDERKÖPING,,614 32
SÖDERTÄLJE,,152 42|151 59|151 53
SÖLVESBORG,,294 31
SÖRBERGE,,860 30
SÄFFLE,,661 30
SÄLEN,,780 67
SÄRÖ,,429 41
SÄVSJÖ,,576 32
SÆBY,,9300
SÆVELANDSVIK,,4275
Sabadell,,8206
SABADELL,,8205
SADA,,15168|15160
SAKSKØBING,,4990
SALA,,733 32
SALAMINA,,18900|18900|18900
SALO,,24240
SALONICA,,51017
SALOU,,43840
SALT,,17190
SALTSJÖBADEN,,133 36|133 43
SALTSTRAUMEN,,8056
San Bartolome de Tirajana,,35107
SAN JOSE RINCONADA,,41300
SAN JUAN DE AZNALFARACHE,,41920
SAN MILLAN DE CABALLEROS,,24237
SAN ROQUE,,11360
SAN SEBASTIAN REYES,,28700
SANCIBRIAN-SANTA CRUZ DE BEZANA,,39110
SANCTI SPIRITUS,,37470
SAND,,4230
SANDE I VESTFOLD,,3070
SANDEFJORD,,3241|3235|3217
SANDEID,,5585
SANDHAMN,,130 39
SANDNES,,4313|4327|4321
SANDNESSJØEN,,8800
SANDVIKA,,1338|1337
SANDVIKEN,,811 40
SANGONERA LA VERDE,,30833
SANKT ANNA,,614 98
SANLUCAR DE BARRAMEDA,,11540
SANT CUGAT SESGARRIGUES,,8798|8798
SANT JOAN DESPI,,8970
Santa Brigida,,35300
Santa Cruz de Tenerife,,38108|38009|38009|38005
Santa Elena,,23213
SANTA MARTA DE TORMES,,37900
Santa Ursula,,38390
Santiago de Compostela,,15820
SAPPES (ALEX),,69300
SARONIDA ATTIKES,,19013
SARRACIN,,9620
SAULAND,,3692
SAVONLINNA,,57200
SEINÄJOKI,,60120|60100|60100
SELJE,,6740
SELJORD,,3840
SEM,,3170
SERBIA,,50500|50500
SERRES,,62123|62100|62100|62100|62048|62047|62300|62041|62400
SETEIA KRETES,,72300|72300|72059|72300
SEVILLA,,41005|41020|41007|41006|41020
SIATISTA KOZANES,,50300
SIILINJÄRVI,,71800
SILKEBORG,,8600|8600|8600|8600|8600
SILSAND,,9303
SILTAKYLÄ,,49220
SIMRISHAMN,,272 33
SJÖBO,,275 33
SKÖVDE,,541 45|541 52
SKÄRBLACKA,,617 30
SKÄRHOLMEN,,127 48
SKÆLSKØR,,4230
SKAGEN,,9990
SKANDERBORG,,8660|8660
SKARNES,,2100
SKEDSMOKORSET,,2020|2020|2020
SKELLEFTEÅ,,931 61|931 61|931 70|931 36
SKENE,,511 62
SKI,,1400
SKIBOTN,,9143
SKIEN,,3713|3726|3730|3729|3736
SKINNSKATTEBERG,,739 21
SKIVE,,7800|7800
SKJERN,,6900
SKJERVØY,,9180
SKJETTEN,,2013
SKODJE,,6260
SKOGHALL,,663 32
SKOLLENBORG,,3618|3618
SKUDENESHAVN,,4280
SKYDRA PELLES,,58500
SLAGELSE,,4200|4200|4200
SLATTUM,,1480
SLETTA,,5939
SLITE,,624 48
SMØLA,,6570
SMEDJEBACKEN,,777 32
SNERTINGDAL,,2838
SODANKYLÄ,,99600
SOGNDAL,,6856
SOKNA,,3534|3534
SOLA,,4050
SOLLEBRUNN,,466 31
SOLLEFTEÅ,,881 30|881 50
SOLLENTUNA,,192 51|191 34
SOLNA,,170 78|171 73|169 61
SOLUMSMOEN,,3355
SON,,1555
SORTLAND,,8400
SORUNDA,,148 70
SOTKAMO,,88600
SOUFLI EVROU,,68400
SOYDA CHANIO,,73200
SOYNIO,,19500
SPØTTRUP,,7860
SPÅNGA,,163 55|163 62
SPARBU,,7710
SPARTE,,23100
SPARTI,,23100|23100
SPATA,,19004
SPELI RETYMNOY,,74053
SPHAGEIA TESSALONIK,,54627
SPYDEBERG,,1820
STØVRING,,9530
STA.EUGENIA DE LA RIBERA,,15960
STABEKK,,1368
STADIO TEGEAS-TRIPOLES,,22012
STADLANDET,,6750
STAFFANSTORP,,245 38
STAMSUND,,8340
STATHELLE,,3960|3960|3960
STAVANGER,,4064|4033|4016|4008|4017|4025|4029
STAVSJØ,,2353
STAYROYPOLE TESSALONIKE,,56430
STEGE,,4780
STEINKJER,,7712|7725
STENEMACHOS EMATIA,,59200
STENUNGSUND,,444 48|444 32
STJØRDAL,,7500|7500
STOCKHOLM,,102 64|100 05|116 30|112 43|115 42
STOHOLM JYLL,,7850
STORD,,5402|5406
STORDAL,,6250
STORE HEDDINGE,,4660
STOREBØ,,5392
STORMI,,38220
STRØMMEN,,2010
STRÖMSNÄSBRUK,,287 34
STRÖMSUND,,833 33
STRÄNGNÄS,,645 34|645 34
STRAUME,,5343
STRAUMEN,,8226
STRAUMSJØEN,,8465
STRUER,,7600|7600
STYLIDA PHTIOTIDA,,35300
SUNDBYBERG,,172 37
SUNDLANDET,,7255
SUNDSVALL,,853 50|856 44|852 29
SUNNDALSØRA,,6600
SUNNE,,686 25
SUONENJK,,77600|77600
SVEIO,,5550
SVELVIK,,3060
SVENDBORG,,5700|5700
SVINNINGE,,4520
SVOLVÆR,,8300
SYMVOLI SERRON,,62047
SYROS,,84100|84100
TØNSBERG,,3125
TÖCKSFORS,,670 10
TÖRE,,950 40
TÄBY,,183 66|183 64|183 30|183 30
TÄRNABY,,920 64
TAASTRUP,,2630
Taco,,38108
TAIVALKOSKI,,93400
TALAVERA LA REAL,,6140
TAMPERE,,33400|33420|33540|33720|33820|33100|33560|33310
TANA,,9845
TANANGER,,4056|4056
TARRAGONA,,43006|43005
TASOS,,64004|64002
TAXI THIVON,,32200
TAYROS,,17778|17778|17778
Tazacorte,,38770
TEBA,,32200
Tejina de Guía,,38685
Telde,,35200
TENOS,,84200|84200
TERIAKISE IOANNINON,,45500
TERJÄRV,,68700
TERME TESSALONIKE,,57001
TERVO,,72210
TESE DOYROYTE - IOANNINA,,17456
TESE PHLAMPOYRA PREBEZ,,48100
TESPROTIA,,46100
TESSALONIKE,,56429|55134|56626|54453|63080|54627|54627|54500|57008|55236|57500|54636|55134|54351|57019|54645|56123|54248|54627|54621|54628|56430|57001|57100|57003|54644|54641|57010|54638|57008|54628|54644|54638|56122|55134|57010|57100|56625|57012|57013
TEUVA,,64700
THEM,,8653
THES/NIKI,,54453
THESSALONIKI,,57500|57300|54500|54250|55134
THISTED,,7700
THIVA,,32200|32200
TIDAHOLM,,522 34
TIERP,,815 91
TILLER,,7075
TILST,,8381
TIM,,6980
TJODALYNG,,3280
TOIJALA,,37800
TOLLARP,,290 10
TOLVSRØD,,3150
TORNIO,,95420|95420
TORREDELCAMPO,,23640
TORREJON DE ARDOZ,,28850|28850
TORRELAVEGA,,39300
TORREMOLINOS,,29620
TORRES DE LA ALAMEDA,,28813
TORREVIEJA,,3180|3180
TORRON-TOMIÑO,,36791|36791
TORSBY,,685 30
TORSHÄLLA,,644 32
TORSLANDA,,423 34|423 34
TRØGSTAD,,1860
TRABADELO,,24523
TRANÅS,,573 40
TREIS GEPHYRES,,11145
TRELLEBORG,,231 66|231 42
TREUNGEN,,3855
TRIKALA,,42100|42100|42100|42100|42100|42100|42032|42031|42100
TRIPOLE,,22100|22100
TRIPOLI,,22100
TROIZINIA,,18020
TROLLÅSEN,,1414
TROLLHÄTTAN,,461 38|461 63|461 32
TROMSØ,,9008
TROMSDALEN,,9020
TRONDHEIM,,7037|7030|7026|7010|7048
TROSA,,619 30
TRYSIL,,2420
TUDDAL,,3697
Tuineje,,35628
TUMBA,,147 21
TURKU,,20360|20810|20810|20300|20100|20380|20900
TUUSNIEMI,,71200
TUUSULA,,4300
TVEDESTRAND,,4900
TYCHERO EVROU,,68003
TYINKRYSSET,,2985
TYMPAKI ERAKLEIOY,,70200
TYRESÖ,,135 40|135 53
TYRINGE,,282 34
TYRINTA,,21100
TYRISTRAND,,3533
TYRNABOS,,40100|40100
TYSSEDAL,,5770
UCIEDA-RUENTE,,39513
UDDEVALLA,,451 50|451 34|451 55
ULFBORG,,6990
ULLARED,,310 60
ULRICEHAMN,,523 37
ULSTEINVIK,,6065
UMEÅ,,906 21|903 54|904 32
UPPLANDS VÄSBY,,194 54|194 91|194 91
UPPSALA,,756 53|752 37|753 23|755 92|753 31
URO,,54510
USTAOSET,,3593
UTSJOKI,,99980
UURAINEN,,41230
UUSIKAUPUNKI,,23500
V-SKERNINGE,,5762
VÅGÅ,,2680
VÅLE,,3178
VÅLER I SOLØR,,2436
VÄLLINGBY,,162 68|162 60
VÄNERSBORG,,462 56
VÄNNÄS,,911 33
VÄRÍBACKA,,430 22
VÄRMDÖ,,139 60|139 35
VÄRNAMO,,331 50|331 34
VÄSTERÅS,,724 72|721 30|722 17
VÄSTERVIK,,593 35
VÄSTRA FRÖLUNDA,,421 50
VÄSTRA FRÍLUNDA,,421 30|421 39
VÄXJÖ,,352 45|352 34|352 37
VAASA,,65100|65350|65170|65100
VADSØ,,9800
VAGGERYD,,567 32
VAKSDAL,,5726
VALBY,,2500|2500|2500
VALDEMORILLO,,28210
VALDEMORO,,28340
VALDEPEñAS,,13300
VALENCIA,,46022|46014
VALKEAKOSKI,,37630
VALLADOLID,,47014|47009
VALLDAL,,6210
VALLENSBÆK,,2625
VALLENTUNA,,186 21
VALSØYFJORD,,6687
VAMDRUP,,6580
VANSBRO,,780 50
VANTAA,,1400|1530|1200|1610|1480|1650|1390|1230
VARBERG,,432 51|432 40
VARDØ,,9950
VARDE,,6800|6800
VARKAUS,,78250
VARTDAL,,6170
VATNE,,6265
VAXHOLM,,185 31
Vecindario,,35110
VEJEN,,6600
VEJLE,,7100|7100|7100|7100
VELEZ MALAGA,,29700
VENNESLA,,4700
VERDAL,,7650
VESANTO,,72300
VESTFOSSEN,,3321
VESTNES,,6390
VETELI,,69700
VETLANDA,,574 33
VETTRE,,1392
VIBORG,,8800|8800|8800|8800|8800
VIBY J,,8260|8260
VIDEBÆK,,6920
VIG,,4560
VIGO,,36214|36203|36209
VIGRESTAD,,4362
VIITASAARI,,44500
VIK I SOGN,,6891
VIKERSUND,,3370
Vilanova i la Geltrú,,8800
VILASECA,,43480|43480
VILDBJERG,,7480
VILLAGONZALO PEDERNALES,,9195
VILLALPANDO,,49630
VILLANOVIÑA DO MEIS,,36637|36637
VILLANUEVA DE LA CAÑADA,,28691|28691
VILLARRAMIEL,,34340
VILLARROBLEDO,,2600
VILLAVIEJA DEL CERRO,,47113
VIMMERBY,,598 40
VINTROSA,,719 91
VINYOLS I ELS ARCS,,43391|43391
VIRKKALA,,8700
VIRSERUM,,570 80
VISBY,,621 58|621 41|621 22
VISSENBJERG,,5492
VITORIA,,1013
VITORIA-Gasteiz,,1013
VOJENS,,6500
VOLDA,,6100
VOLL,,4354
VORDINGBORG,,4760|4760
VORMSUND,,2160
VOSS,,5700
VRILISIA,,15235
VRILISSIA,,15235
VRK,,78200
VRYSAKI IMATHEIAS,,59300
XANTE,,67100|67100|67100|67100|67100
XANTHI,,67100
XEROKAMPI LAKONIAS,,23054
XEROKRENE TESSALONIKE,,54629
YLÄMYLLY,,80400
YLÍJÄRVI,,33470
YLIVIESKA,,84100
YSTAD,,271 54
YTRE ENEBAKK,,1914
ZACHARO,,27054
ZAKYNTHOS,,29100
ZAKYNTOS,,29100|29100|29100|29092|29100
ZARAGOZA,,50014
ZAROS ERAKLEIOY,,70002|70002
ZOFRIA ATTIKIS,,13341
ZOGRAPHO,,15771
