﻿name	districts	zipcodes
Ādaži,LV007
Aglona,LV005
Aizkraukle,LV009
Aizpute,LV003
Aknīste,LV009
Aloja,LV007
Alsunga,LV003
Alūksne,LV008
Amata,LV008
Ape,LV008
Auce,LV009
Babīte,LV007
Baldone,LV007
Baltinava,LV005
Balvi,LV005
Bauska,LV009
Beverīna,LV008
Brocēni,LV003
Burtnieki,LV008
Carnikava,LV007
Cēsis,LV008
Cesvaine,LV008
Cibla,LV005
Dagda,LV005
Daugavpils,LV005
Daugavpils,LV005
Dobele,LV009
Dundaga,LV003
Durbe,LV003
Engure,LV007
Ērgļi,LV008
Garkalne,LV007
Grobiņa,LV003
Gulbene,LV008
Iecava,LV009
Ikšķile,LV007
Ilūkste,LV005
Inčukalns,LV007
Jaunjelgava,LV009
Jaunpiebalga,LV008
Jaunpils,LV007
Jēkabpils,LV009
Jēkabpils,LV009
Jelgava,LV009
Jelgava,LV009
Jūrmala,LV007
Kandava,LV007
Kārsava,LV005
Ķegums,LV007
Ķekava,LV007
Kocēnu,LV008
Koknese,LV009
Krāslava,LV005
Krimulda,LV007
Krustpils,LV009
Kuldīga,LV003
Lielvārde,LV007
Liepāja,LV003
Līgatne,LV008
Limbaži,LV007
Līvāni,LV005
Lubāna,LV008
Ludza,LV005
Madona,LV008
Mālpils,LV007
Mārupe,LV007
Mazsalaca,LV008
Mērsraga,LV003
Naukšēni,LV008
Nereta,LV009
Nīca,LV003
Ogre,LV007
Olaine,LV007
Ozolnieki,LV009
Pārgauja,LV008
Pāvilosta,LV003
Pļaviņas,LV009
Preiļi,LV005
Priekule,LV003
Priekuļi,LV008
Rauna,LV008
Rēzekne,LV005
Rēzekne,LV005
Riebiņi,LV005
Rīga,LV006
Roja,LV003
Ropaži,LV007
Rucava,LV003
Rugāji,LV005
Rūjiena,LV008
Rundāle,LV009
Sala,LV009
Salacgrīva,LV007
Salaspils,LV007
Saldus,LV003
Saulkrasti,LV007
Sēja,LV007
Sigulda,LV007
Skrīveri,LV009
Skrunda,LV003
Smiltene,LV008
Stopiņi,LV007
Strenči,LV008
Talsi,LV003
Tērvete,LV009
Tukums,LV007
Vaiņode,LV003
Valka,LV008
Valmiera,LV008
Varakļāni,LV008
Vārkava,LV005
Vecpiebalga,LV008
Vecumnieki,LV009
Ventspils,LV003
Ventspils,LV003
Viesīte,LV009
Viļaka,LV005
Viļāni,LV005
Zilupe,LV005
