name	districts	zipcodes
Ábelová		985 13
Abovce		980 44
Abrahám		925 45
Abrahámovce		086 41|059 72
Abramová		038 22
Abranovce		082 52
Adamovské Kochanovce		913 05
Adidovce		067 32
Albínov		078 01
Alekšince		951 22
Alexandrov Dvor		951 34
Alžbetin Dvor		900 42
Amadeho Kračany		930 03
Aňala		946 51
Aňalské Záhrady		946 51
Andač		951 42
Andice		031 01
Andovce		941 23
Andrejová		086 37
Andrejovka		065 43
Arad		943 41
Ardanovce		956 06
Ardovo		049 55
Arma		935 41
Arnutovce		053 13
Báb		951 34
Babie		094 31
Babín		029 52
Babin Potok		082 67
Babiná		962 61
Babindol		951 53
Babinec		980 26
Babiše		013 54
Babkov		013 11
Babulicov Vrch		916 13
Báč		930 30
Bačala		951 15
Bačka		076 84
Bačkov		076 61
Bačkovík		044 45
Báčovce		962 68
Bacúch		976 64
Bacúrov		962 61
Baďan		969 75
Bádice		951 46
Badín		976 32
Báhoň		900 84
Bajany		072 54
Bajč		946 54
Bajerov		082 41
Bajerovce		082 73
Bajka		935 51
Bajtava		943 65
Baka		930 04
Bakta		979 01
Baláže		976 11
Baldovce		053 04
Balog nad Ipľom		991 11
Baloň		930 08
Balvany		946 01
Baňa		091 01
Baňa Lucia		044 25
Banka		921 01
Banky		969 01|972 25
Bánov		941 01
Bánová		010 04
Bánovce nad Ondavou		072 04
Banská		972 48
Banská Belá		966 15
Banská Hodruša		966 63
Banské		094 12
Banský Studenec		969 01
Bara		076 32
Barca		982 51
Bardejov		085 01
Bardejovská Nová Ves		085 01
Bardejovská Zábava		085 01
Bardejovské Kúpele		086 31
Bardoňovo		941 49
Bartošova Lehôtka		967 01
Bartošovce		086 42
Baška		044 20
Baškovce		073 01|067 23
Bašovce		922 01
Baštín		956 18
Batizovce		059 35
Bátka		980 21
Bátorová		991 26
Bátorove Kosihy		946 34
Bátovce		935 03
Becherov		086 35
Beckov		916 38
Beckovská Vieska		916 31
Bečov		974 01
Beharovce		053 05
Behynce		982 01|956 07
Beketfa		930 34
Belá		943 53|013 05
Belá - Dulice		038 11
Belá nad Cirochou		067 81
Beladice		951 75
Belejov		018 03
Belejovce		089 01
Belek		941 48
Belín		980 01
Belina		986 01
Belince		956 12
Bellova Ves		930 52
Beloveža		086 14
Beluj		969 01
Beluša		018 61
Belža		044 58
Beňadiková		032 04
Beňadikovce		090 42
Beňadovo		029 63
Beňatina		072 64
Beniakovce		044 42
Benice		031 01|038 42
Benkova Potôň		930 36
Benkovce		094 02
Beňov		014 01
Beňova Lehota		026 01
Beňuš		976 64
Beňušovce		032 22
Bernátovce		044 13
Bernolákovo		900 27
Bertotovce		082 35
Beša		076 72|935 36
Bešeňov		941 41
Bešeňová		034 83
Besné		018 02
Betlanovce		053 15
Betlenovce		071 01
Betliar		049 21
Bezdedov - Vieska		020 01
Bežovce		072 53
Bidovce		044 45
Biel		076 41
Biela		027 05
Biela Voda		972 29
Biele Vody		976 53|053 76
Bielovce		935 74
Biely Kostol		919 34
Biely Potok		034 03
Bijacovce		053 06
Bílkove Humence		908 77
Bíňa		943 56
Bindt		053 32
Bíňovce		919 07
Biskupice		986 01|957 01|911 04
Biskupová		956 07
Bitarová		010 04
Blahová		930 52
Blatná na Ostrove		930 32
Blatná Polianka		072 44
Blatné		900 82
Blatné Remety		072 44
Blatné Revištia		072 43
Blatnica		038 15
Blažice		044 16
Blažkov		023 02
Blažková		023 11
Blažovce		038 44
Blesovce		956 01
Blhovce		980 32
Bobot		913 25
Bobotská Lehota		913 25
Bobrov		029 42
Bobrovček		032 21
Bobrovec		032 21
Bobrovník		032 23
Bočiar		044 56
Bodice		031 01
Bodíky		930 31
Bodiná		018 15
Bodok		956 08
Bodorová		038 45
Bodovce		082 66
Bodovka - Krivosúd		913 11
Bodružal		090 05
Bodza		946 16
Bodzianske Lúky		946 14
Bogliarka		086 04
Bohatá		947 03
Bohdanovce		044 16
Bohdanovce nad Trnavou		919 09
Boheľov		929 01
Bohunice		935 05|919 30|018 52
Bohúňovo		049 12
Bojná		956 01
Bojnice		972 01
Bojnice - kúpele		972 01
Bojničky		920 55
Bokroš		946 39
Bokša		091 01
Boľ		076 53
Boldog		925 26
Boleráz		919 08
Bolešov		018 53
Boliarov		044 47
Boľkovce		984 01
Borčany		956 36
Borčice		018 53
Borcová		038 44
Borda		044 45
Borinka		900 32
Bôrka		049 42
Borov		068 01
Borová		919 61
Borovce		922 09
Borša		076 32
Borský Mikuláš		908 77
Borský Peter		908 77
Borský Svätý Jur		908 79
Bory		935 87
Bošáca		913 07
Bošany		956 18
Bošianska Neporadza		913 26
Boťany		076 43
Bottovo		980 41
Božčice		076 62
Bracovce		072 05
Brádno		982 67
Branč		951 13
Branovo		941 31
Bratislava - Čunovo		851 10
Bratislava - Devín		841 10
Bratislava - Jarovce		851 10
Bratislava - Lamač		841 03
Bratislava - Podunajské Biskupice		821 06
Bratislava - Rusovce		851 10
Bratislava - Vajnory		831 07
Bratislava - Vrakuňa		821 07
Bratislava - Záhorská Bystrica		841 06
Bratkovica		962 06
Braväcovo		976 64
Brdárka		049 34
Brehov		076 05
Brehy		968 01
Brekov		066 01
Brestina		985 53
Brestov		066 01|082 05
Brestov nad Laborcom		067 01
Brestovany		919 27
Brestové		916 42
Brestovec		946 17|907 01
Bretejovce		082 03
Bretka		980 46
Breza		029 53
Brezany		972 12|010 04
Brežany		082 41
Brezina		076 12
Breziny		962 61
Breznica		091 01
Breznička		985 02|091 01
Brezolupy		957 01
Brezov		087 01
Brezová pod Bradlom		906 13
Brezovec		067 73
Brezovica		082 74|028 01
Brezovička		082 74
Brezovka		086 11
Brhlovce		935 02
Briestenné		018 22
Brieštie		038 22
Brišovka		029 57
Brnice		032 23
Brodno		010 14
Brodské		908 85
Brodzany		958 42
Bršlica		013 54
Bruchačka		976 51
Brunovce		916 25
Brusnica		090 31
Brusník		982 64|991 01
Brusno		976 62|972 32
Brusno - kúpele		976 62
Brutovce		053 73
Bruty		943 55
Brvnište		018 12
Brzotín		049 51
Búč		946 35
Bučany		919 28
Bučina		029 57
Bučkovec		916 42
Buclovany		086 43
Bučuháza		931 01
Budatín		010 03
Budatínska Lehota		023 36
Budča		962 33
Budička		962 34
Budikovany		980 23
Budimír		044 43
Budiná		985 12
Budince		076 77
Budiš		038 23
Budkovce		072 15
Budmerice		900 86
Budulov		045 01
Budzín		082 71
Buglovce		053 04
Bujakovo		977 01
Buková		919 10|013 61
Bukovce		090 22
Bukovec		991 02|044 20|906 14
Bukovina		968 01|966 01|032 23
Bukovinka		985 51|053 14
Bulhary		986 01
Bunde		082 33
Bunetice		044 47
Bunkovce		072 44
Bušince		991 22
Bušovce		059 93
Búštelek		930 39
Butty		022 04
Buzica		044 73
Buzice		044 13
Buzitka		985 41
Byšta		076 13
Byster		044 41
Bystrá		977 01|090 23
Bystrany		053 62
Bystré		094 34
Bystričany		972 45
Bystrička		985 24|946 38|038 04
Bytča		014 01
Bytčica		010 09
Bžany		090 33
Bzenica		966 01
Bzenov		082 42
Bzince		956 05
Bzince pod Javorinou		916 11
Bziny		026 01
Bzovík		962 41
Bzovská Lehôtka		962 62
Čab		951 24
Cabaj		951 17
Čabalovce		067 16
Čabiny		067 02
Cabov		094 14
Čabradský Vrbovok		962 51
Čachtice		916 21
Čačín		974 01
Čáčov		905 01
Čadca - Kyčerka		022 04
Čadečka		022 01
Čajakovo		935 61
Čajkov		935 24
Čaka		935 68
Čakajovce		951 43
Čakanovce		985 58|044 45
Čakany		930 40
Čaklov		094 35
Cakov		980 42
Čalovec		946 02
Čamovce		986 01
Čaňa		044 14
Čankov		934 01
Čápor		951 17
Čaradice		953 01
Čáry		908 43
Častá		900 89
Částa		946 03
Častkov		906 04
Častkovce		916 27
Čata		935 63
Čataj		900 83
Čavoj		972 29
Čebovce		991 25
Čečehov		072 11
Čečejovce		044 71
Čechánky		985 45
Čechová		930 34
Čechy		941 32
Čechynce		951 07
Čečínska Potôň		930 36
Cejkov		076 05
Čekovce		962 41
Čeľadice		951 03
Čeľadince		956 16
Čeláre		991 22
Čelkova Lehota		018 16
Čelovce		991 41|082 14
Čeľovce		076 17
Celulózka		010 01
Čemerné		093 03
Cemjata		080 01
Čenkesfa		929 01
Čenkov		943 52
Čenkovce		930 39
Čereňany		972 46
Čerenčany		979 01
Čergov		946 65
Čerhát		945 04
Čerhov		076 81
Čerín		974 01
Čermáň		949 01
Čermany		956 08
Černík		941 05
Cernina		090 16
Černina		067 23
Černochov		076 32
Černochov Vrch		916 01
Černová		034 06
Cerová		906 33|972 48
Ceroviny		951 24
Cerovo		962 52
Čertižné		067 52
Červeň		985 02
Červená Skala		976 71
Červená Voda		083 01
Červeňany		049 64|991 01
Červenica		082 07
Červenica pri Sabinove		082 56
Červeník		920 42
Červený Hrádok		951 82
Červený Kameň		900 89|018 56
Červený Kláštor		059 06
Červený Kláštor - kúpele		059 06
České Brezovo		985 03
Cestice		044 71
Cetuna		916 11
Chalmová		972 45
Chanava		980 44
Chľaba		943 66
Chladná Studňa		985 26
Chlebnice		027 55
Chlmec		067 41
Chmeľnica		064 01
Chmeľov		082 15
Chmeľová		086 35
Chmeľovec		082 12
Chmiňany		082 33
Chminianska Nová Ves		082 33
Chminianske Jakubovany		082 33
Choča		951 76
Chocholná		913 04
Choňkovce		072 63
Chorvatice		935 84
Chorvátsky Grob		900 25
Chorváty		044 02
Chotár		968 01
Chotča		090 21
Chotín		946 31
Chrabrany		955 01
Chrámec		980 42
Chrasť		946 54
Chrasť nad Hornádom		053 63
Chrašťany		951 75
Chrastince		991 08
Chrastné		044 44
Chrenová		949 01
Chrenovec - Brusno		972 32
Chropov		908 64
Chrťany		991 21
Chtelnica		922 05
Chudá Lehota		956 38
Chvalová		982 63
Chvatimech		976 81
Chvojnica		906 06|972 13
Chym		044 74
Chynorany		956 33
Chyzerovce		953 01
Chyžné		049 18
Čiakov		013 54
Čičarovce		076 71
Čičava		093 01
Čičmany		013 15
Číčov		946 19
Čierna		076 43
Čierna Hora		053 33
Čierna Lehota		049 36|956 53
Čierna nad Tisou		076 43
Čierna Voda		925 06
Čierne		013 55|023 13|023 56
Čierne Kľačany		953 05
Čierne nad Topľou		094 34
Čierne Pole		079 01
Čierny Balog		976 52
Čierny Brod		925 08
Čierny Chrbát		946 03
Čierny Potok		980 31
Čierny Váh		032 33
Čifáre		951 61
Cífer		919 43
Cigeľ		971 01
Cigeľka		086 02
Cigla		086 37
Čiky		941 11
Čilistov		931 01
Čiližská Radvaň		930 08
Cimenná		956 37
Čimhová		027 12
Cinobaňa		985 22
Čirč		065 42
Číž		980 43
Číž - kúpele		980 43
Čižatice		044 47
Čoltovo		049 12
Čremošné		039 01
Čučma		048 01
Čukalovce		067 35
Čukárska Paka		930 51
Čuklasovce		956 54
Cunín		908 48
Ďačov		082 71
Dačov Lom		991 35
Daletice		082 63
Dancov Potok		076 12
Danišovce		053 22
Ďanová		038 42
Ďapalovce		094 05
Dargov		076 61
Davidov		093 03
Debraď		045 01
Dechtice		919 53
Dedačov		067 12
Dedina Mládeže		946 03
Dedinka		941 50
Dedinka pri Dunaji		900 29
Dedinky		049 73
Dekýš		969 01
Delava		053 75
Demandice		935 85
Demänová		031 01|029 57
Demänovská Dolina		032 51
Demjata		082 13
Demkovská		027 05
Dešná		020 54
Detrík		094 31
Detva		962 12
Detva - sídlisko		962 12
Detvianska Huta		962 06
Devičany		935 04
Devičie		962 65
Dežerice		957 03
Diaková		038 02
Diakovce		925 81
Didka		022 01
Diel		985 53
Diva		943 42
Diviacka Nová Ves		972 24
Diviaky		039 01
Diviaky nad Nitricou		972 25
Divín		985 52
Divina		013 31
Divinka		013 31
Divínske Lazy		985 52
Dlhá		919 01
Dlhá Lúka		085 01|032 24
Dlhá nad Kysucou		023 54
Dlhá nad Oravou		027 55
Dlhá nad Váhom		927 05
Dlhá Ves		049 55
Dlhé Klčovo		094 13
Dlhé nad Cirochou		067 82
Dlhé Pole		013 32
Dlhé Stráže		054 01
Dlhoňa		090 02
Dlžín		972 26
Dobogov		935 56
Dobrá		076 41|914 01
Dobrá Niva		962 61
Dobrá Voda		919 54
Dobrá Voľa		053 61
Dobrianky		094 23
Dobroč		976 52|985 53
Dobročná		972 27
Dobrohošť		930 31
Dobroslava		090 01
Dobrý Potok		985 26
Dobšiná		049 25
Dobšinská Ľadová Jaskyňa		049 71
Dobšinská Maša		049 73
Dohňany		020 51
Dojč		906 02
Doľany		900 88|053 02
Dolina		082 38|027 05
Dolinka		991 28
Dolinky		962 63|020 53|013 62
Dolná Breznica		020 61
Dolná Bzová		985 51
Dolná Krupá		919 65
Dolná Lehota		976 98|027 41
Dolná Mariková		018 02
Dolná Mičiná		974 01
Dolná Môlča		974 01
Dolná Poruba		914 43
Dolná Potôň		930 02
Dolná Seč		935 31
Dolná Streda		925 63
Dolná Strehová		991 02
Dolná Štubňa		039 01
Dolná Súča		913 32
Dolná Tižina		013 04
Dolná Trnávka		966 21
Dolná Ves		967 01
Dolná Závrská		913 33
Dolná Ždaňa		966 01
Dolné Breziny		962 61
Dolné Chlebany		956 31
Dolné Držkovce		956 54
Dolné Dubové		919 52
Dolné Hámre		966 61
Dolné Janíky		930 39
Dolné Jaseno		038 02
Dolné Kočkovce		020 01
Dolné Košariská		906 15
Dolné Krškany		949 05
Dolné Lefantovce		951 45
Dolné Lelovce		972 43
Dolné Lovčice		919 27
Dolné Mladonice		962 41
Dolné Motešice		913 26
Dolné Naštice		957 01
Dolné Obdokovce		951 02
Dolné Orešany		919 02
Dolné Otrokovce		920 61
Dolné Ozorovce		957 01
Dolné Plachtince		991 24
Dolné Príbelce		991 25
Dolné Rykynčice		962 55
Dolné Saliby		925 02
Dolné Semerovce		935 85
Dolné Sľažany		951 71
Dolné Srnie		916 41
Dolné Strháre		991 03
Dolné Trhovište		920 61
Dolné Turovce		935 81
Dolné Vestenice		972 23
Dolné Zahorany		985 42
Dolné Zelenice		920 52
Dolný Badín		962 51
Dolný Bar		930 14
Dolný Chotár		925 41
Dolný Ďur		935 34
Dolný Harmanec		976 03
Dolný Hričov		013 41
Dolný Jalšovík		962 41
Dolný Jatov		941 09
Dolný Jelenec		976 02
Dolný Kalník		038 02
Dolný Kubín		026 01
Dolný Les		072 13
Dolný Lieskov		018 21
Dolný Lopašov		922 04
Dolný Moštenec		017 01
Dolný Ohaj		941 43
Dolný Pial		935 37
Dolný Smokovec		059 81
Dolný Štál		930 10
Dolný Štefanov		027 44
Dolný Tisovník		962 75
Dolný Turček		038 48
Dolný Vadičov		023 45
Dolný Vinodol		951 06
Doma		900 44
Domadice		935 87
Domaníky		962 65
Domaniža		018 16
Domaňovce		053 02
Domaša		935 61
Donovaly		976 39
Dora		985 41
Dovalovo		033 01
Drábsko		976 53
Drahňov		076 74
Drahošanka		022 01
Drahovce		922 41
Dravce		053 14
Dražice		980 23
Dražkovce		038 02
Dražovce		949 01
Drážovce		962 68
Driečna		090 23
Drienčany		980 23
Drienica		083 01
Drienov		082 04
Drienovec		044 01
Drienovo		962 51
Drienovská Nová Ves		082 01
Drietoma		913 03
Drňa		980 03
Drnava		991 02|049 42
Družstevná pri Hornáde		044 31
Drženice		935 03
Držkovce		982 62
Ďubákovo		985 07
Dubie		086 45|024 01
Dubinné		086 12
Dubková		020 55
Dubnica		972 01
Dubnica nad Váhom		018 41
Dubnička		957 03
Dubník		941 35|082 07
Dubno		980 35
Dubodiel		913 23
Dubová		976 97|900 90|090 11
Dubovany		922 08
Dubovce		908 62
Dubové		962 61|038 23
Dubovec		980 41
Dubovica		082 71
Dúbrava		991 02|053 05|082 06|067 73|913 33|032 12
Dúbravica		976 33
Dúbravka		072 15
Dúbravy		962 12
Duchenec		962 52
Ducové		922 21
Dudince		962 71
Dukovce		086 44
Dulice		038 11
Dulov		018 52
Duľov		029 63
Ďulov Dvor		945 01
Dulova Ves		082 52
Dulovce		946 56
Dulovo		980 21
Dunajov		023 02
Dunajská Lužná		900 42
Dunajská Streda		929 01
Dunajský Klátov		930 21
Duplín		091 01
Ďurčiná		015 01
Ďurďoš		094 31
Ďurďošík		044 45
Ďurďové		018 22
Ďurkov		044 19
Ďurková		065 41
Ďurkovce		991 27
Dúžava		979 01
Dvor Mikuláš		946 55
Dvorany nad Nitrou		956 11
Dvorec		956 55|038 45
Dvorianky		076 62
Dvorníky		962 68|044 02|920 56
Dvorníky - Včeláre		044 02
Dvorníky nad Nitricou		972 22
Dvory nad Žitavou		941 31
Dyčka		952 01
Egreš		076 11
Eliášovce		930 38
Etreho Kračany		930 03
Fačkov		013 15
Fajtov		976 52
Falkušovce		072 05
Fančová		972 46
Farná		935 66
Fejséš		077 01
Fekišovce		072 33
Fiačice		032 14
Figa		982 51
Fijaš		090 42
Fiľakovo		986 01
Fiľakovské Kľačany		986 01
Fiľakovské Kováče		986 01
Filice		058 01
Filier		982 66
Filipovo		976 64
Fintice		082 16
Flajšová		029 57
Folkušová		038 42
Forbaky - Klukany		013 32
Forbasy		065 01
Francovce		087 01
Frička		086 02
Fričkovce		086 42
Fričovce		082 37
Fulianka		082 12
Furmanec		082 67
Gabčíkovo		930 05
Gaboltov		086 02
Gajary		900 61
Gajdoš		072 43
Galanta		924 01
Galovany		032 11
Gáň		924 01
Gánovce		058 01
Gápel		972 28
Gaškovce		020 53
Gašparovo		976 64
Gbeľany		013 02
Gbelce		943 42
Gbely		908 45
Geča		044 10
Gelnica		056 01
Gemer		982 01
Gemerček		980 31
Gemerská Hôrka		049 12
Gemerská Panica		980 46
Gemerská Poloma		049 22
Gemerská Ves		982 62
Gemerské Dechtáre		980 04
Gemerské Michalovce		982 52
Gemerské Teplice		049 16
Gemerský Jablonec		980 35
Gemerský Milhosť		049 16
Gemerský Sad		049 13
Géňa		934 01
Geraltov		082 67
Gerlachov		086 04|059 42
Giglovce		094 05
Giraltovce		087 01
Girovce		094 06
Glabušovce		991 22
Gočaltovo		049 32
Gočovo		049 24
Golianovo		951 08
Gomboš		044 55
Gondovo		935 25
Gorazdov		951 17
Gortva		980 02
Gôtovany		032 14
Grajciar		044 57
Granč - Petrovce		053 05
Gregorova Vieska		985 56
Gregorovce		982 52|082 66
Gribov		090 22
Grodzin		094 31
Grúne		027 05
Gruzovce		067 22
Gúg		941 23
Gyňov		044 14
Habovka		027 32
Habura		067 52
Hačava		981 01|044 02
Hadoše		018 02
Hadovce		945 01
Hadušovce		053 13
Hadviga		038 22
Hágy		059 04
Háj		044 02|039 01
Hájiky - Maky		987 01
Hajná Nová Ves		956 03
Hajnáčka		980 33
Hájniky		962 31
Hájske		951 33
Hajtovka		065 45
Haláčovce		956 55
Halič		985 11
Haligovce		065 34
Haluzice		913 07
Hámor		976 66
Hámre		053 33|913 21
Hámre - Dolné Hámre		966 61
Hámre - Horné Hámre		966 71
Hamuliakovo		900 43
Handlová		972 51
Hanigovce		082 56
Haniska		044 57|080 01
Hanková		049 34
Hankovce		086 46|067 12
Hanušovce nad Topľou		094 31
Harakovce		053 05
Harhaj		086 45
Harichovce		053 01
Harmanec		976 03
Harmónia		900 01
Harvelka		023 05
Hatalov		072 16
Hatné		018 02
Havaj		090 23
Havka		061 01
Havran		906 04
Havranec		090 02
Havrania		027 05
Havrania Dolina		053 76
Hažín		072 34
Hažín nad Cirochou		067 83
Hažlín		086 14
Heďbeneéte		929 01
Helcmanovce		055 63
Heľpa		976 68
Henckovce		049 23
Henclová		053 33
Hencovce		093 02
Hendrichovce		082 35
Herľany		044 46
Herman		985 53
Hermanovce		082 35
Hermanovce nad Topľou		094 34
Hertník		086 42
Hervartov		086 22
Hetméň		927 01
Hiadeľ		976 61
Hincovce		053 63
Hladovka		027 13
Hlavice		023 22
Hlboké		906 31|018 03
Hlboké nad Váhom		014 01
Hlinené		023 54
Hliník		946 65|032 23
Hliník nad Hronom		966 01
Hliník nad Váhom		014 01
Hlinné		094 35
Hlivištia		073 01
Hloža		018 61
Hniezdne		065 01
Hnilčík		053 32
Hnilec		053 75
Hnojné		072 33
Hnúšťa		981 01
Hodejov		980 31
Hodejovec		980 02
Hodkovce		044 21|053 61
Hodruša - Hámre		966 63
Hodulov Vrch		916 14
Hokovce		935 84
Holanovo		947 01
Holčíkovce		094 05
Holiare		946 16
Holíč		908 51
Holice		930 34
Holiša		985 57
Holotka		951 42
Holumnica		059 94
Honce		049 32
Hontianska Vrbica		935 55
Hontianske Moravce		962 71
Hontianske Nemce		962 65
Hontianske Tesáre		962 68
Hontianske Trsťany		935 86
Horelica		022 01
Horenická Hôrka		020 61
Hôrka		059 12
Hôrka nad Váhom		916 32
Hôrky		010 04
Horňa		073 01
Horná Breznica		020 61
Horná Dolina		906 05
Horná Hriňová		962 05
Horná Kráľová		951 32
Horná Krupá		919 65
Horná Lehota		976 81|027 41
Horná Mariková		018 03
Horná Mičiná		974 01
Horná Môlča		974 01
Horná Poruba		018 35
Horná Potôň		930 36
Horná Potôň - Lúky		930 52
Horná Seč		935 31
Horná Streda		916 24
Horná Strehová		991 02
Horná Štubňa		038 46
Horná Súča		913 33
Horná Tižina		013 06
Horná Trnávka		966 01
Horná Ves		967 01|972 48
Horná Závrská		913 33
Horná Ždaňa		966 04
Horná Zlatná		946 12
Horňany		913 24
Horné Breziny		962 61
Horné Chlebany		956 31
Horné Držkovce		956 54
Horné Dubové		919 06
Horné Hámre		966 71
Horné Janíky		930 39
Horné Jaseno		038 02
Horné Kočkovce		020 01
Horné Košariská		906 15
Horné Krškany		949 05
Horné Lefantovce		951 45
Horné Lelovce		972 71
Horné Lovčice		919 27
Horné Mladonice		962 43
Horné Motešice		913 26
Horné Mýto		930 13
Horné Naštice		956 41
Horné Obdokovce		956 08
Horné Orešany		919 03
Horné Otrokovce		920 62
Horné Ozorovce		957 03
Horné Plachtince		991 24
Horné Príbelce		991 25
Horné Pršany		974 05
Horné Rykynčice		962 55
Horné Saliby		925 03
Horné Semerovce		935 84
Horné Sľažany		951 71
Horné Srnie		914 42
Horné Štitáre		956 03
Horné Strháre		991 03
Horné Trhovište		920 66
Horné Turovce		935 81
Horné Vestenice		972 22
Horné Zahorany		980 26
Horné Zelenice		920 52
Horný Badín		962 51
Horný Bar		930 33
Horný Čepeň		926 01
Horný Ďur		935 34
Horný Hričov		013 42
Horný Jalšovík		962 41
Horný Jatov		925 71
Horný Jelenec		976 02
Horný Kalník		038 02
Horný Lieskov		018 21
Horný Moštenec		017 01
Horný Ohaj		952 01
Horný Pial		935 37
Horný Smokovec		062 01
Horný Štefanov		027 44
Horný Tisovník		962 75
Horný Turček		038 48
Horný Vadičov		023 45
Horný Vinodol		951 06
Horovce		072 02|020 62
Horša		934 01
Hoste		925 45
Hostice		980 04
Hostie		951 94
Hoštiná		020 01
Hostišovce		980 23
Hosťová		951 02
Hosťovce		044 02|951 91
Hostovice		067 35
Hozelec		059 11
Hrabičov		966 78
Hrabkov		082 33
Hrabová Roztoka		067 74
Hrabovčík		090 41
Hrabové		014 01
Hrabovec		086 11
Hrabovec nad Laborcom		067 01
Hrabovka		020 01|913 32
Hrabovo		985 01
Hrabské		086 06
Hrabušice		053 15
Hrachovište		916 15
Hrachovo		980 52
Hradisko		059 71|082 67|090 42
Hradište		985 25|958 54
Hradište pod Vrátnom		906 12
Hradištská Moľva		072 06
Hradná		013 52
Hrádok		916 33
Hraň		076 03
Hraničné		065 21
Hranovnica		059 16
Hrašné		916 14
Hrašovík		044 42
Hrboltová		034 05
Hrčeľ		076 15
Hrhov		049 44
Hriadky		076 22
Hričovské Podhradie		013 41
Hriňová		962 05
Hrišovce		053 51
Hrkáč		982 62
Hrkovce		936 01
Hrlica		982 66
Hrnčiarky		985 23
Hrnčiarovce nad Parnou		919 35
Hrnčiarové		916 12
Hrnčiarska Ves		980 13
Hrnčiarske Zalužany		980 12
Hrochoť		976 37
Hromoš		065 45
Hronec		976 45
Hronovce		935 61
Hronsek		976 31
Hronská Breznica		966 12
Hronská Dúbrava		966 12
Hronské Kľačany		935 29
Hronské Kosihy		935 27
Hronský Beňadik		966 53
Hrubá Borša		925 23
Hrubá Strana		916 11
Hruboňovo		951 25
Hrubov		067 23
Hrubý Buk		023 52
Hrubý Šúr		903 01
Hrušov		991 42|049 43|076 37
Hrušovany		956 13
Hrušové		916 11
Hrušovo		980 25
Hruštín		029 52
Hubice		930 39
Hubina		922 21
Hubošovce		082 66
Hubová		034 93
Hubovo		980 50
Hucín		049 13
Hudcovce		067 45
Hul		941 44
Humenné		066 01
Huncovce		059 92
Hunkovce		076 62|090 03
Hurbanova Dolina		906 13
Hurbanova Ves		903 01
Hurbanovce		941 50
Husák		072 51
Husarik		022 04
Husiná		985 42
Hutka		086 36
Huty		027 32
Hviezdoslavov		930 41
Hvozdnica		013 56
Hybe		032 31
Hýľov		044 12
Igram		900 84
Ihľany		059 94
Ihráč		967 01
Ihrište		020 01
Iľanovo		031 01
Ilava		019 01
Iliaš		974 05
Iliašov		991 07
Iliašovce		053 11
Iliavka		019 01
Ilija		969 01
Imeľ		946 52
Imrov Kopec		991 21
Iňa		935 35
Iňačovce		072 11
Inovce		072 64
Ipeľ		985 26
Ipeľka		985 41
Ipeľské Predmostie		991 10
Ipeľské Úľany		935 82
Ipeľský Sokolec		935 75
Istebné		027 53
Istebník		911 05
Ivachnová		034 83
Ivančiná		038 45
Ivanice		980 42
Ivanišovo		985 51
Ivanka pri Dunaji		900 28
Ivanka pri Nitre		951 12
Ivanovce		913 05
Iviny		962 12
Iža		946 39
Ižipovce		032 23
Ižkovce		076 72
Ižop		932 01
Jabloň		067 13
Jablonec		900 86
Jablonica		906 32
Jablonka		906 21
Jablonov		053 03
Jablonov nad Turňou		049 43
Jabloňovce		935 06
Jablonové		900 54|013 52
Jabriková		976 34
Jacovce		956 21
Jahodná		930 21
Jahodníky		036 01
Jaklovce		055 61
Jakovany		083 01
Jakub		974 01
Jakubany		065 12
Jakubov		900 63
Jakubova Voľa		082 56
Jakubovany		083 01|032 04
Jakušovce		090 31
Jalakšová		935 03
Jalná		966 11
Jalová		067 61
Jalovec		972 31|032 21
Jalšové		922 31
Jalšovík		962 41
Jamník		053 22|033 01
Janice		980 42
Janík		044 05
Janíkovce		949 07
Janíky		930 39
Jankovce		067 24
Jánošíková		900 42
Jánošíkovo na Ostrove		930 10
Jánošovka		976 52
Janov		082 42
Janova Lehota		966 24
Janova Ves		958 44
Janovce		086 41
Jánovce		059 13|925 22
Janovík		082 03
Jarabá		977 01
Jarabina		065 31
Jarná		919 43
Jarok		937 01|951 48
Jarovnice		082 63
Jasenica		018 17
Jasenie		976 75
Jasenov		072 42|066 01
Jasenová		026 01
Jasenovce		094 05
Jasenové		013 19
Jasenovo		962 05|038 22
Jasenovská		029 57
Jaslovce		919 30
Jaslovské Bohunice		919 30
Jasov		044 23
Jašov Vrch		962 25
Jasová		941 34
Jastrabá		966 32
Jastrabie Kračany		930 03
Jastrabie nad Topľou		094 35
Jastrabie pri Michalovciach		072 11
Jatov		941 09
Javorec		906 05
Javorina		976 53|059 56
Javorinka		925 01
Javorová		023 22
Jazernica		038 44
Jazviny		916 01
Jedlinka		086 36
Jedľové Kostoľany		951 96
Jedľovník		023 55
Jelenec		951 73
Jelka		925 23
Jelšava		049 16
Jelšavská Teplica		049 16
Jelšovce		951 43
Jelšovec		985 32
Jenkovce		072 52
Jergaly		976 02
Jesenské		980 02|935 36
Ješkova Ves		958 45
Jestice		980 04
Jezersko		059 04
Ježkova Ves nad Nitricou		972 25
Jovice		049 45
Jovsa		072 32
Jur nad Hronom		935 57
Jurkova Voľa		089 01
Jurová		930 04
Jurské		059 94
Jurský Chlm		943 52
Juskova Voľa		094 12
Kačanov		072 05
Kače		065 22
Kajal		925 92
Kaľamenová		038 22
Kalameny		034 82
Kaľava		053 42
Kalinčiakovo		934 01
Kalinka		962 25
Kalinkovo		900 43
Kalinov		068 01|023 02
Kalinovo		985 01
Kalná		935 32
Kalná nad Hronom		935 32
Kalná Roztoka		067 72
Kalnica		935 32|916 37
Kalnište		087 01
Kalonda		985 31
Kaloša		982 52
Kalša		044 18
Kaluža		072 36
Kamanová		956 12
Kameňany		049 62
Kamenec		934 01
Kamenec pod Vtáčnikom		972 44
Kamenica		082 71
Kamenica nad Cirochou		067 83
Kamenica nad Hronom		943 65
Kameničany		018 54
Kameničná		946 01
Kamenín		943 57
Kamenná Poruba		093 03|013 14
Kamenné Kosihy		991 27
Kamenný Chotár		935 02
Kamenný Most		943 58
Kamenný Vrch		992 01
Kamienka		067 83|065 32
Kanaš		082 21
Kanianka		972 17
Kapince		951 24
Kapišová		090 01
Kaplna		900 84
Kapoňa		076 84
Kapušany		082 12
Kapušianske Kľačany		079 01
Kapušianske Vojkovce		079 01
Kardošova Vieska		018 16
Karlov Dvor		076 33
Karlová		038 15
Karná		067 45
Karolína		937 01
Kašov		076 02
Kašova Lehôtka		962 34
Katarínska Huta		985 23
Kátlina		018 02
Kátlovce		919 55
Kátov		908 49
Katúň		053 04
Kava		946 65
Kazimír		076 13
Keblov - Zárieč		013 32
Kéč		946 19
Kecerovce		044 47
Kecerovské Kostoľany		044 47
Kecerovské Pekľany		044 47
Kecerovský Lipovec		044 47
Kechnec		044 58
Kečkovce		090 11
Kečovo		049 55
Kendereš		941 09
Kendice		082 01
Kesovce		980 45
Keť		935 64
Kevice		038 45
Kežmarok		060 01
Kežmarské Žľaby		059 53
Kiarov		991 06
Kinčeš		076 62
Kírť		991 22
Kišovce		059 12
Kľačany		966 11|956 02|920 64
Kľače		013 19
Kľačno		972 15|034 01
Kladzany		094 21
Kľak		966 77
Klasov		951 53
Klastava		969 75
Kláštor pod Znievom		038 43
Klátova Nová Ves		958 44
Klčov		053 02
Klčovany		919 08
Kleňany		991 10
Klenov		082 44
Klenová		067 72
Klenovec		980 55
Klieština		018 02
Klin		023 22|029 41
Klin nad Bodrogom		076 31
Klíž		958 45
Klížska Nemá		946 19
Klížske Hradište		958 45
Klobušice		019 01
Klokoč		962 25
Klokočina		949 11
Klokočov		072 36|023 22
Klubina		023 04
Kľučiareň		925 71
Kľúčiarove Kračany		930 03
Kľúčové		914 41
Kľúčovec		930 07
Kluknava		053 51
Kľušov		086 22
Kľušovská Zábava		086 22
Kmeťovce		935 03
Kmeťovo		941 62
Kňažia		026 01
Kobeliarovo		049 23
Kobylnice		087 01
Kobyly		086 22
Koceľovce		049 35
Kochanovce		086 46|066 01|913 05
Kochnáč		956 54
Kociha		980 52
Kočín		922 04
Kočovce		916 31
Kocurany		972 02
Kocurice		921 01
Kojatice		082 32
Kojatická Dolina		082 32
Kojšov		055 52
Kokava nad Rimavicou		985 05
Kokošovce		082 52
Kokšov - Bakša		044 13
Kolačkov		065 11
Kolačno		958 41
Koláre		991 09
Kolárovice		013 54
Kolárovo		946 03
Kolbasov		067 66
Kolbovce		090 31
Kolibabovce		072 61
Kolíňany		951 78
Kolinovce		053 42
Kolónia		076 41|076 42|943 56|929 01|930 35
Kolonica		067 61
Kolta		941 33
Komanica		072 15
Komárany		093 01
Komárno		962 06
Komárov		086 11
Komárovce		044 55|073 01
Komjatice		941 06
Komjatná		034 96
Komoča		941 21
Komov		976 52
Končitá		027 05
Koniarovce		956 13
Konkoľ		947 01
Konrádovce		980 32
Konská		032 04|013 13
Konské		038 52
Koňuš		072 63
Kopanice		966 61|023 56
Kopčany		908 48
Kopec		018 31
Kopernica		967 01
Koplotovce		920 01
Kopráš		049 16
Koprivnica		086 43
Kordíky		976 34
Korejovce		090 05
Korňa		023 21
Kornica		023 22
Koromľa		072 62
Korunková		090 31
Korytárky		962 04
Korytné		053 05|013 54
Korytnica - kúpele		034 75
Koš		972 41
Košariská		906 15
Košarovce		094 06
Košeca		018 64
Košecké Podhradie		018 31
Košecké Rovné		018 32
Košice - Barca		040 17
Košice - Kavečany		040 01
Košice - Košická Nová Ves		040 14
Košice - Krásna		040 18
Košice - Lorinčík		040 11
Košice - Myslava		040 16
Košice - Pereš		040 11
Košice - Poľov		040 15
Košice - Šaca		040 15
Košice - Šebastovce		040 17
Košice - Staré Mesto		040 01
Košice - Ťahanovce		040 13
Košice - Vyšné Opátske		040 01
Košice - Západ		040 11
Košice - Železiarne		044 54
Košická Belá		044 65
Košická Polianka		044 41
Košické Oľšany		044 42
Košický Klečenov		044 45
Kosihovce		991 25
Kosihy nad Ipľom		991 11
Koškovce		067 12
Košolná		919 01
Kosorín		966 24
Košťany		044 13
Košťany nad Turcom		038 41
Kostiviarska		974 01
Kostivrch		966 71
Kostoľany nad Hornádom		044 31
Kostoľany pod Tribečom		951 77
Kostolec		017 05
Kostolište		900 62
Kostolná		962 12
Kostolná - Záriečie		913 04
Kostolná Gala		930 34
Kostolná pri Dunaji		903 01
Kostolná Ves		972 26
Kostolné		916 13
Kostolné Kračany		930 03
Kostolné Mitice		913 22
Kostolné Moravce		962 71
Kostolný Sek		942 01
Košúty		925 09|036 01
Kotelnica		946 54
Kotešová		013 61
Kotmanová		985 53
Kotrčiná Lúčka		013 02
Kováčov		943 66
Kováčová		962 37|049 42
Kováčovce		991 06
Koválov		906 03
Koválovec		908 63
Kovarce		956 15
Kožany		086 12
Kozárovce		935 22
Kozelec		065 45
Kozelník		966 15
Kozí Vrbovok		962 41
Kozinská		027 05
Kožuchov		076 01
Kožuchovce		090 22
Kračúnovce		087 01
Krahule		967 01
Krajná Bystrá		090 05
Krajná Poľana		090 05
Krajná Porúbka		090 05
Krajné		916 16
Krajné Čierno		090 03
Krakovany		922 02
Kráľ		980 45
Králik		982 01
Králiky		976 34
Kráľka		946 03
Kráľov Brod		925 41
Kráľová		974 05|960 01
Kráľova Lehota		032 33
Kráľová nad Váhom		925 91
Kráľová pri Senci		900 50
Kraľovany		027 51
Kráľovce		962 65|044 44
Kráľovce - Krnišov		962 65
Kráľovianky		931 01
Kráľovičová		935 84
Kráľovičove Kračany		930 03
Kráľovský Chlmec		077 01
Krám		976 52
Kraskovo		980 26
Krásna		985 41|980 51
Krásna Hôrka		027 44
Krásna Lúka		082 73
Krásna Ves		956 53
Krasňany		013 03
Krásno		958 43
Krásno nad Kysucou		023 02
Krásnohorská Dlhá Lúka		049 45
Krásnohorské Podhradie		049 41
Krásnovce		072 01
Krásny Brod		068 01
Krásny Dub		913 33
Krátke Kesy		946 32
Kravany		076 61|059 18
Kravany nad Dunajom		946 36
Kravárska		013 32
Krčava		072 51
Kremná		065 21
Kremnica		967 01
Kremnička		974 05
Kremnické Bane		967 01
Krišľovce		090 31
Krišovská Liesková		079 01
Kristy		072 55
Krivá		027 55
Krivá Oľka		067 04
Kriváň		962 04
Krivany		082 71
Krivé		086 04
Krivec I		962 05
Krivec II		962 05
Krivoklát		018 52
Krivošťany		072 22
Krivosúd - Bodovka		913 11
Kríž nad Váhom		916 26
Krížany		079 01
Kríže		086 04
Krížny Vrch		934 01
Krížová Ves		059 01
Krížovany		082 33
Križovany nad Dudváhom		919 24
Krížový Dvor		946 19
Krkošky		022 04
Krmeš		032 13
Krná		985 25
Krnča		956 19
Krné		962 12
Krnišov		962 65
Krokava		982 67
Krompachy		053 42
Krpeľany		038 54
Krškany		934 01
Krtovce		956 03
Kručov		090 32
Krupina		963 01
Krušetnica		029 54
Krušinec		091 01
Krušovce		956 31
Kružlov		086 04
Kružlová		090 02
Kružlovská Huta		086 04
Kružná		049 51
Kružno		979 01
Kšinná		956 43
Kubáňovo		935 75
Kubíková		013 05
Kubínska		029 57
Kubrá		911 01
Kubrica		911 01
Kucany		076 75
Kuchyňa		900 52
Kučín		086 12|094 21
Kuklov		908 78
Kuková		086 44
Kukučínov		937 01
Kunerad		013 13
Kunešov		967 01
Kunov		905 01
Kunova Teplica		049 32
Kuraľany		935 64
Kurima		086 12
Kurimany		054 01
Kurimka		090 16
Kurinec		979 01
Kurov		086 04
Kurtáň		986 01
Kusín		072 32
Kútniky		929 01
Kúty		908 01|971 01
Kuzmice		076 12|956 21
Kvačany		082 41|032 24
Kvakovce		094 02
Kvašov		020 62
Kvetnica		058 01
Kvetoslavov		930 41
Kýčerka		022 04
Kyjatice		980 54
Kyjov		065 48
Kykula		913 04
Kynceľová		974 01
Kynceľove Kračany		930 03
Kynek		949 01
Kysak		044 81
Kyselica		930 30
Kysta		076 02
Kysuca		976 53
Kysucký Lieskovec		023 34
Kyzka		022 04
Láb		900 67
Lackov		962 44
Lacková		065 01
Lackovce		066 01
Laclavá		038 22
Lačnov		082 36
Lada		082 12
Ladce		018 63
Ladice		951 77
Ladislavov Dvor		934 01
Ladmovce		076 34
Ladomerská Vieska		965 01
Ladomirov		067 71
Ladomirová		090 03
Ladunkov		022 04
Ladzany		962 67
Lakšárska Nová Ves		908 76
Lalinok		013 31
Lančár		922 04
Lándor		945 01
Lány		023 04
Lascov		086 45
Laskár		972 71|038 43
Laškovce		072 01
Lastomír		072 37
Lastovce		076 14
Látkovce		957 01
Látky		985 45
Lazany		972 11|038 43
Lažany		082 32
Lazisko		032 11
Lažteky		962 63
Lazy pod Makytou		020 55
Lechnica		059 06
Lednica		020 63
Lednické Rovne		020 61
Lefantovce		951 45
Legnava		065 46
Lehnice		930 37
Lehota		951 36
Lehota nad Rimavicou		980 53
Lehota pod Vtáčnikom		972 42
Lehôtka		985 11
Lehôtka pod Brehmi		966 01
Lehotská		029 57
Lekárovce		072 54
Leľa		943 65
Leles		076 84
Lemešany		082 03
Lenartov		086 06
Lenartovce		980 44
Lendak		059 07
Lenka		980 50
Lentvora		985 13
Leopoldov		920 41
Lesenice		991 08
Lesíček		082 07
Lesné		071 01
Lesné Kračany		930 03
Lesnica		065 33
Lešť		962 63
Leštiny		026 01
Letanovce		053 13
Letničie		908 44
Leváre		982 62
Levkuška		982 62
Levoča		054 01
Levočská Dolina		054 01
Levočské Lúky		054 01
Ležiachov		038 42
Libichava		956 38
Ličartovce		082 03
Licince		049 14
Lidér Tejed		929 01
Liesek		027 12
Lieskov - Dolný Lieskov		018 21
Lieskov - Horný Lieskov		018 21
Lieskov - Podskalie		018 22
Lieskov - Tŕstie		018 22
Liesková		079 01
Lieskovany		053 21
Lieskové		906 33
Lieskové - Zemianske Lieskové		913 05
Lieskovec		962 21|067 45
Liešno		038 22
Liešťany		972 27
Lietava		013 18
Lietavská Lúčka		013 11
Lietavská Svinná		013 11
Lietavská Závadka		013 18
Likavka		034 95
Likier		981 01
Limbach		900 91
Lipany		082 71
Lipník		935 21|972 32
Lipníky		082 12
Lipová		941 02|086 12
Lipovany		985 31
Lipovce		082 36
Lipovce - chaty		082 36
Lipové		946 14
Lipovec		980 23|038 61
Lipovník		049 42|956 01
Liptovská Anna		032 23
Liptovská Kokava		032 44
Liptovská Lúžna		034 72
Liptovská Ondrašová		031 05
Liptovská Osada		034 73
Liptovská Porúbka		033 01
Liptovská Sielnica		032 23
Liptovská Štiavnica		034 01
Liptovská Teplá		034 83
Liptovská Teplička		059 40
Liptovské Beharovce		032 21
Liptovské Kľačany		032 14
Liptovské Matiašovce		032 23
Liptovské Revúce		034 74
Liptovské Sliače		034 84
Liptovský Hrádok		033 01
Liptovský Ján		032 03
Liptovský Michal		034 83
Liptovský Ondrej		032 04
Liptovský Peter		033 01
Liptovský Trnovec		032 22
Lisková		034 81
Lišov		962 71
Litava		962 44
Litmanová		065 31
Livina		956 32
Livinské Opatovce		956 32
Livov		086 05
Livovská Huta		086 05
Lodno		023 34
Lok		935 38
Lokca		029 51
Lom nad Rimavicou		976 53
Lomná		029 54
Lomné		090 33
Lomnica		972 27
Lomnička		065 03
Lonec		962 63
Lontov		935 75
Lopašov		908 63
Lopej		976 98
Lopúchov		086 41
Lopušná		023 36
Lopušné Pažite - Lopušná		023 36
Lopušné Pažite - Pažite		023 36
Lošonec		919 04
Lovča		966 21
Lovce		951 92
Lovčica		966 23
Lovčica - Trubín		966 23
Lovinobaňa		985 54
Ložín		072 05
Lozorno		900 55
Ľubá		943 53
Ľubeľa		032 14
Lubeník		049 18
Ľubianka		972 47
Ľubica		059 71
Ľubienka		985 07
Ľubietová		976 55
Lubina		916 12
Ľubiša		067 11
Ľubochňa		034 91
Ľuborča		914 41
Ľuboreč		985 11
Ľuboriečka		991 02
Ľubotice		080 06
Ľubotín		065 41
Ľubovec		082 42
Lúč na Ostrove		930 03
Lučatín		976 61
Lúčina		082 07
Lučivná		059 31
Lúčka		049 42|053 03|082 71|087 01
Lučkovce		072 03
Lúčky		967 01|072 34|034 82
Lúčky - kúpele		034 82
Lúčnica nad Žitavou		951 88
Ludanice		956 11
Ľudovítov		941 11
Ľudovítová		951 44
Ludrová		034 71
Luhyňa		076 14
Lúka		916 33
Lukačovce		067 24
Lukáčovce		951 23
Lukavica		962 31|966 81|086 21
Lukov		086 05
Lukové		962 21
Lukovištia		980 26
Lúky		946 14|020 53|013 31
Lula		935 35
Lupoč		985 11
Luskovica		916 16
Lutila		966 22
Ľutina		082 57
Lutiše		013 05
Ľutov		957 03
Lužany		956 07
Lužany pri Topli		087 01
Lužianky		951 41
Lysá nad Dunajcom		061 01
Lysá pod Makytou		020 54
Lysica		013 05
Machalovce		059 13
Machulince		951 93
Mačonáš		925 41
Macov		930 32
Mačov		972 25
Mad		930 14
Madačka		985 13
Madérét		930 28
Madočany		034 83
Madunice		922 42
Madzín		013 62
Magnezitovce		049 16
Magurka		032 15
Majcichov		919 22
Majdan		082 57
Majer		974 01|094 31
Majere		935 05|061 01
Majeríčky		906 05
Majerka		059 94
Majerovce		094 09
Makov		023 56
Makovce		090 23
Malá Bara		076 32
Malá Baračka		935 36
Malá Budafa		930 34
Malá Bytča		014 01
Malá Čalomija		991 08
Malá Čausa		971 01
Malá Čierna		015 01
Malá Dolina		985 53
Malá Domaša		094 02
Malá Franková		059 78
Malá Hradná		956 54
Malá Ida		044 20
Malá Iža		945 01
Malá Lehota		966 42|972 42
Malá Lodina		044 32
Malá Lúč		930 03
Malá Mača		925 21
Malá Maňa		941 45
Malá Mužla		943 52
Malá nad Hronom		943 65
Malá Paka		930 51
Malá Poľana		090 24
Malá Tŕňa		076 82
Malá Ves		984 01
Malá Vieska		044 31
Malachov		974 05
Malacky		901 01
Málaš		935 67
Malatiná		026 01
Malatíny		032 15
Malčice		072 06
Malcov		086 06
Malé Bedzany		955 01
Malé Bielice		958 04
Malé Bierovce		913 05
Malé Blahovo		929 01
Malé Borové		027 32
Malé Chlievany		957 01
Malé Chyndice		951 54
Malé Dvorany		956 01
Malé Dvorníky		929 01
Malé Hoste		956 37
Malé Košecké Podhradie		018 31
Malé Kosihy		943 61
Malé Kozmálovce		935 21
Malé Krškany		934 01
Malé Kršteňany		958 03
Malé Lednice		018 16
Malé Leváre		908 74
Malé Ludince		937 01
Malé Orvište		922 01
Malé Ostratice		956 34
Malé Ozorovce		076 63
Malé Raškovce		072 17
Malé Ripňany		956 07
Malé Stankovce		913 11
Malé Straciny		990 01
Malé Teriakovce		980 51
Malé Trakany		076 42
Malé Uherce		958 03
Malé Vozokany		951 82
Malé Zalužice		072 34
Malé Zálužie		951 24
Malé Zlievce		991 22
Málinec		985 26
Malinô Brdo		034 01
Malinová		972 13
Malinovec		935 87
Malinovo		900 45
Malužiná		032 34
Malý Báb		951 34
Malý Biel		900 24
Malý Bysterec		026 01
Malý Čepčín		038 45
Malý Cetín		951 07
Malý Horeš		076 52
Malý Jatov		941 09
Malý Kamenec		076 36
Malý Kiar		934 01
Malý Kolačín		018 51
Malý Krtíš		990 01
Malý Lapáš		951 04
Malý Lég		930 37
Malý Lipník		065 46
Malý Madaras		900 44
Malý Ostrov		946 03
Malý Pesek		937 01
Malý Ruskov		075 01
Malý Šariš		080 01
Malý Slavkov		060 01
Malý Slivník		082 67
Malženice		919 29
Maňa		941 45
Mangútovo		962 06
Mankovce		951 91
Marček		013 32
Marcelová		946 32
Margecany		055 01
Marhaň		086 45
Marianka		900 33
Markovce		072 06
Markuška		049 34
Markušovce		053 21
Maršová		013 51
Martin		903 01|036 01
Martin nad Žitavou		953 01
Martinček		034 95
Martinová		980 41|951 88
Martovce		947 01
Marušová		935 33
Maša		985 22
Mašková		985 11
Maškovce		067 32
Maslovce		930 39
Masníkovo		930 36
Maštinec		987 01
Matejovce		053 21|059 51
Matejovec		916 16
Matiaška		094 31
Matiašovce		059 04
Matovce		090 42
Maťovce		079 01
Maťovské Vojkovce		079 01
Matušíková		972 28
Matúškovo		925 01
Matysová		065 46
Mazorníkovo		977 03
Mečedelovce		053 14
Mechenice		951 46
Medné		020 61
Meďov		071 01
Medovarce		962 65
Medvecké		935 41
Medvedie		090 05
Medveďov		930 07
Medveďovo		976 52
Medvedzie		027 44
Medzany		082 21
Medzev		044 25
Medzianky		094 31
Medzibrod		976 96
Medzibrodie		065 22
Medzibrodie nad Oravou		026 01
Medzihradné		026 01
Medzilaborce		068 01
Melčice		913 05
Melek		952 01
Meliata		049 12
Mengusovce		059 36
Merašice		920 61
Merník		094 23
Merovce		962 71
Mestečko		020 52
Mestisko		090 41
Mičakovce		087 01
Michajlov		067 73
Michal na Ostrove		930 35
Michal nad Žitavou		941 61
Michaľany		076 14
Michalková		962 61
Michalok		094 23
Michalová		976 57
Michalovce		071 01
Mierovo		930 41
Miezgovce		957 01
Miháľov		085 01
Miklušovce		082 44
Mikolčany		049 13
Miková		090 24
Mikšová		014 01
Mikula		937 01
Mikulášov		908 76
Mikulášov Sad		946 34
Mikulášová		086 36
Mikušovce		984 01|018 57
Milhosť		044 58
Milhostov		075 01
Milinovice		929 01
Milochov		017 06
Miloslavov		900 42
Milošová		022 01
Milovaná		071 01
Milpoš		082 71
Miňovce		090 32
Mirkovce		082 06
Miroľa		090 05
Miškech Dedinka		916 12
Mládzovo		985 02
Mláky		985 45
Mliečany		929 01
Mliečno		931 01
Mlyňany		951 76
Mlynárce		949 01
Mlynárovce		090 16
Mlynčeky		059 76
Mlynica		059 91
Mlynky		053 76
Mlynský Sek		941 02
Mníchova Lehota		913 21
Mníšany		049 16
Mníšek nad Hnilcom		055 64
Mníšek nad Popradom		065 22
Moča		946 37
Močarany		071 01
Močarmany		082 53
Močenok		951 31
Mochovce		935 39
Močiar		969 82
Močiare		020 62
Močidlá		072 51
Močidľany		082 63
Modlatín		018 03
Modra		900 01
Modra nad Cirochou		067 82
Modranka		917 05
Modrany		946 33
Modrová		916 35
Modrovka		916 35
Modrý Kameň		992 01
Mojín		979 01
Mojmírovce		951 15
Mojš		010 01
Mojšová Lúčka		010 01
Mojtín		020 72
Mojzesovo		941 04
Mokrá Lúka		050 01
Mokraď		026 01
Mokrance		045 01
Mokroluh		086 01
Mokrý Háj		908 65
Môlča		974 01
Moldava nad Bodvou		045 01
Moravany		072 03
Moravany nad Váhom		922 21
Moravské Kračany		930 03
Moravské Lieskové		916 42
Moravský Svätý Ján		908 71
Morovno		972 31
Moškovec		038 44
Mošovce		916 26|038 21
Most pri Bratislave		900 46
Moštenica		976 13
Mostište		020 51
Mostová		925 07
Mošurov		082 67
Motešice		913 26
Môťová		960 01
Motyčky		976 02
Mrázovce		090 34
Mrzáčka		029 57
Mučín		985 31
Mudroňovo		946 32
Mudrovce		044 47
Muľa		991 22
Muľka		985 31
Muráň		049 01
Muránska Dlhá Lúka		050 01
Muránska Huta		049 01
Muránska Lehota		049 01
Muránska Zdychava		050 01
Mútňanská Píla		029 63
Mútne		029 63
Mužla		943 52
Myslenice		902 03
Myslina		066 01
Mýtna		985 53
Mýtna Nová Ves		956 11
Mýtne Ludany		935 56
Mýto pod Ďumbierom		976 44
Nacina Ves		072 21
Nadabula		048 01
Nadlice		956 32
Ňagov		068 01
Naháč		919 06
Nálepkovo		053 33
Námestovo		029 01
Nána		943 60
Nandraž		049 61
Ňárad		930 06
Návojovce		958 04
Nebojsa		924 01
Nechválova Polianka		067 33
Necpaly		038 12
Nedanovce		958 43
Nedašovce		956 35
Neded		925 85
Nededza		013 02
Nedelište		985 13
Nedožery		972 12
Nedožery - Brezany		972 12
Nekyje na Ostrove		930 25
Nemce		974 01
Nemčice		955 01
Nemčiňany		951 81
Nemcovce		086 12|082 12
Nemecká		976 97
Nemečky		956 22
Nemešany		053 02
Nemšová		914 41
Nenince		991 26
Neporadza		980 45|913 26
Neresnica		960 01
Nesluša		023 41
Nesvady		946 51
Neverice		951 72
Nevidzany		951 62|972 27
Nevoľné		967 01
Nezbudská Lúčka		013 24
Niereše		082 06
Nimnica		020 71
Nitra - Staré Mesto		949 01
Nitra nad Ipľom		985 57
Nitrianska Blatnica		956 05
Nitrianska Streda		956 16
Nitrianske Hrnčiarovce		951 01
Nitrianske Pravno		972 13
Nitrianske Rudno		972 26
Nitrianske Sučany		972 21
Nitriansky Hrádok		942 01
Nitrica		972 22
Nixbrod		934 01
Nižná		922 06|027 43
Nižná Boca		032 34
Nižná Hutka		040 18
Nižná Jablonka		067 34
Nižná Jedľová		089 01
Nižná Kaloša		982 52
Nižná Kamenica		044 45
Nižná Korňa		023 21
Nižná Myšľa		044 15
Nižná Olšava		090 32
Nižná Pisaná		090 01
Nižná Pokoradz		979 01
Nižná Polianka		086 36
Nižná Revúca		034 74
Nižná Rybnica		073 01
Nižná Šebastová		080 06
Nižná Sitnica		094 07
Nižná Slaná		049 23
Nižná Šuňava		059 39
Nižná Vladiča		090 23
Nižná Voľa		086 21
Nižné Ladičkovce		067 11
Nižné Matiašovce		032 23
Nižné Nemecké		072 52
Nižné Raslavice		086 41
Nižné Repaše		053 71
Nižné Ružbachy		065 02
Nižné Valice		982 52
Nižnoslanská Baňa		049 23
Nižný Čaj		044 16
Nižný Hrabovec		094 21
Nižný Hrušov		094 22
Nižný Kelčov		023 55
Nižný Klátov		044 12
Nižný Komárnik		090 05
Nižný Kručov		093 01
Nižný Lánec		044 73
Nižný Medzev		044 25
Nižný Mirošov		090 11
Nižný Orlík		090 11
Nižný Skálnik		980 52
Nižný Slavkov		082 75
Nižný Sliač		034 84
Nižný Tvarožec		086 02
Nižný Žipov		076 17
Nolčovo		038 54
Norovce		956 38
Nosice		020 01
Nová Baňa		968 01
Nová Bašta		980 34
Nová Bošáca		913 08
Nová Bystrica		023 05
Nová Dedina		935 25
Nová Dedinka		900 29
Nová Dubnica		018 51
Nová Kelča		094 04
Nová Lehota		916 35|972 51
Nová Lesná		059 86
Nová Lipnica		900 42
Nová Ľubovňa		065 11
Nová Maša		976 69
Nová Osada		945 01|943 42
Nová Polhora		044 44
Nová Polianka		059 83|089 01
Nová Sedlica		067 68
Nová Stráž		945 04
Nová Trstená		947 03
Nová Ves		991 05
Nová Ves nad Váhom		916 31
Nová Ves nad Žitavou		951 51
Nová Ves pri Dunaji		900 29
Nová Vieska		943 41
Nová Vieska pri Bodrogu		076 35
Nováčany		049 13|044 21
Nováky		972 71
Nové Hony		985 42
Nové Košariská		900 42
Nové Mesto nad Váhom		915 01
Nové Osady		925 22
Nové Sady		951 24
Novosad		076 02
Novoť		029 55
Novotský Duľov		029 63
Novoveská Huta		053 31
Nový Diel		946 54
Nový Dvor		935 77
Nový Gúg		940 01
Nový Majer		075 01
Nový Ruskov		075 01
Nový Sad		985 41
Nový Salaš		044 17
Nový Smokovec		062 01
Nový Svet		985 45|903 01
Nový Tekov		935 33
Nový Život		930 38
Nozdrovice		018 64
Nýrovce		935 67
Obeckov		991 05
Obid		943 04
Obišovce		044 81
Oblazov		013 61
Oborín		076 75
Obručná		985 58
Obručné		065 42
Obsolovce		956 08
Obyce		951 95
Ochodnica		023 35
Ochtiná		049 35
Očkov		916 22
Očová		962 23
Odorín		053 22
Ohrady		930 12
Ohradzany		067 22
Okánikovo		946 21
Okoč		930 28
Okoličná na Ostrove		946 13
Okoličné		031 04
Okrúhle		090 42
Okružná		082 12
Olcnava		053 61
Oľdza		930 39
Olejníkov		082 57
Olešná		023 52
Olichov		951 87
Oľka		067 04
Olováry		991 22
Oľšavce		086 46
Oľšavica		053 73
Oľšavka		053 61|090 22
Olšina		075 01
Oľšinkov		067 16
Oľšov		082 76
Olšovany		044 19
Omastiná		956 42
Omšenie		914 43
Onča		076 52
Ondavka		086 36
Ondavské Matiašovce		094 01
Ondrašová		038 22
Ondrašovce		082 33
Ondrej		059 12
Ondrej nad Hronom		976 62
Ondrejovce		935 51
Ondrochov		941 02
Opátka		044 65
Opatová		984 01|935 25|911 01
Opatovce		913 11
Opatovce - Výčapy		951 44
Opatovce nad Nitrou		972 02
Opatové Moravce		962 71
Opatovská Nová Ves		991 07
Opatovský Sokolec		930 28
Opava		991 25
Opiná		044 47
Opoj		919 32
Oponice		956 14
Oravce		976 33
Orávka		980 42
Oravská Jasenica		029 64
Oravská Lesná		029 57
Oravská Polhora		029 47
Oravská Poruba		027 54
Oravské Veselé		029 62
Oravský Biely Potok		027 42
Oravský Podzámok		027 41
Ordzovany		053 06
Orechová		072 51
Orechová Potôň		930 02
Orechová Potôň - Lúky		930 52
Orechové		911 05
Orešany		956 06
Oreské		072 23|908 63
Orkucany		083 01
Orlov		065 43
Orlové		017 01
Orovnica		966 52
Ortáše		044 44
Ortov		072 14
Ortuťová		086 12
Osádka		026 01
Osadné		067 34
Oščadnica		023 01
Osikov		086 42
Oškerda		023 32
Oslany		972 47
Osrblie		976 45
Ostrá Lúka		962 61
Ostrany		980 26
Ostratice		956 34
Ostrov		072 55|922 01
Ostrovany		082 22
Ostrý Grúň		966 77
Osturňa		059 79
Osušie		991 02
Osuské		906 12
Otrhánky		956 55
Otročok		982 62
Ovčiarsko		010 04
Ovčie		082 38
Ožďany		980 11
Ozdín		985 24
Pác		919 43
Pača		049 41
Pačérok		946 03
Padáň		929 01
Padarovce		980 23
Paderovce		919 30
Pagaňov		018 03
Pakostov		094 07
Palárikovo		941 11
Palcmanská Maša		053 76
Palín		072 13
Palota		068 01
Paľovce		925 92
Palúdzka		031 01
Paňa		951 05
Panické Dravce		985 32
Paňovce		044 71
Papča		980 23
Papín		067 33
Paprad		916 01
Papradno		018 13
Parchovany		076 62
Parihuzovce		067 35
Párnica		027 52
Párovské Háje		949 01
Partizánska Ľupča		032 15
Paseky		985 45
Pasiečka		020 53
Pašková		049 32
Paština Závada		013 41
Pastovce		935 74
Pastovník		065 44
Pastuchov		920 63
Pata		925 53
Pataš		929 01
Patince		946 39
Pavčina Lehota		031 01
Pavel		945 04
Pavľany		053 71
Pavlice		919 42
Pavlová		943 59
Pavlova Ves		032 21
Pavlovce		980 01|094 31
Pavlovce nad Uhom		072 14
Pavlovo		076 35
Pažiť		958 03
Pažite		023 36
Pčoliné		067 35
Pečeňady		922 07
Pečeňany		956 36
Pečenice		935 03
Pečovská Nová Ves		082 56
Peder		044 05
Peklina		013 41
Perín		044 74
Perín - Chym		044 74
Perkovce		951 26
Pernek		900 53
Petkovce		094 33
Peťov		991 06
Peťovka		913 26
Petrikovce		072 06
Petrová		086 02|027 05
Petrova Lehota		913 26
Petrova Ves		908 44
Petrovany		082 53
Petrovce		980 35|072 62|094 31
Petrovce nad Laborcom		072 21
Petrovec		985 01
Petrovice		013 53
Petrovo		049 35
Pežerňa		935 55
Pichne		069 01
Piesky		072 04
Piesok		976 43|900 01
Piešť I		962 12
Piešť II		962 12
Piešťany		921 01
Pikovce		059 72
Píla		985 53|966 81|900 89
Pilhov		065 22
Pilhovčík		065 22
Pinciná		984 01
Pinkovce		072 54
Pinkove Kračany		930 03
Piskorovce		094 05
Pitelová		966 11
Pláne		072 22|013 53
Plášťovce		935 82
Plavé Vozokany		935 69
Plaveč		065 44
Plavecké Podhradie		906 36
Plavecký Mikuláš		906 35
Plavecký Peter		906 35
Plavecký Štvrtok		900 68
Plavnica		065 45
Plechotice		076 11
Pleš		985 31
Plešivá		027 05
Plešivec		049 11
Plevník - Drienové		018 26
Pliešovce		962 63
Ploské		982 65|044 44
Ploštín		031 01
Pobedim		916 23
Pôbišovo		976 64
Počarová		018 15
Pochabany		956 38
Počúvadlianske Jazero		969 01
Počúvadlo		969 01
Pod Braniskom		082 37
Pódafa		929 01
Podbanské		032 42
Podbiel		027 42
Podbranč		906 05
Podbrezová		976 81
Podčičva		094 09
Podháj		036 01
Podhájska		941 48
Podholie		976 64
Podhorany		951 46|059 93|082 12
Podhorie		969 82|906 11|018 54|018 61|013 18
Podhoroď		072 64
Podhrabina		082 15
Podhradie		955 01|972 42|038 52
Podhradík		080 06
Podjavorie (pri Lešti)		962 63
Podjavorie (pri Pliešovci)		962 63
Podjavorník		018 13
Podkonice		976 13
Podkriváň		985 51
Podkylava		916 16
Podlavice		974 01
Podlipníky		094 31
Podlužany		935 27|956 52
Podmanín		017 01
Podolie		916 22
Podolínec		065 03
Podpílie		065 41
Podproč		053 73
Podrečany		985 55
Podsadek		064 01
Podskalie		018 22
Podspády		059 56
Podtureň		033 01
Podvažie		018 52|017 04
Podvrch		916 16
Podvysoká		023 57
Podzámčok		962 61
Podzámok		065 44|906 05
Podzávoz		022 01
Pohorelá		976 69
Pohorelská Maša		976 69
Pohranice		951 02
Pohronská Polhora		976 56
Pohronský Bukovec		976 62
Pohronský Ruskov		935 62
Pokryváč		026 01
Poľanovce		053 05
Poľany		076 84
Polerieka		038 22
Poliakovce		086 11
Polianka		907 01
Polianky		985 45
Polichno		985 13
Polina		982 63
Polkanová (č.d.1		976 03
Polkanová (ostatné čísla)		976 02
Polníky		913 32
Poľný Kesov		951 15
Polom		981 01
Poloma		082 73
Polomka		976 66
Polomy		962 63
Poltár		987 01
Poluvsie		972 16|013 13
Pondelok		980 13
Pongrácovce		053 05
Ponická Huta		976 33
Ponická Lehôtka		976 33
Poniky		976 33
Poprad		058 01
Poproč		982 67|044 24
Popudinské Močidľany		908 61
Poráč		053 23
Poriadie		906 22
Porostov		072 55
Poruba		972 11
Poruba pod Vihorlatom		072 32
Porúbka		072 61|086 46|067 41|013 11
Poša		094 21
Posádka		920 56
Póšfa		930 34
Potôčky		091 01
Potočok		991 22
Potok		982 67|023 56|034 83
Potoky		082 71|091 01|013 62
Potônské Lúky		930 36
Pôtor		991 03
Potvorice		916 25
Považany		916 26
Považská Teplá		017 05
Považské Podhradie		017 04
Považský Chlmec		010 03
Povina		023 33
Povoda		929 01
Povrazník		976 55
Pozba		941 51
Pozdišovce		072 01
Praha		985 11
Prakovce		055 62
Prašice		956 22
Prašník		922 11
Pravenec		972 16
Pravica		991 21
Pravotice		956 35
Praznov		017 01
Práznovce		955 01
Prečín		018 15
Predajná		976 63
Predjastrabie		013 55
Predmier		013 51|023 54
Predná Hora		049 01
Predné Halny		977 01
Prejta		018 41
Prenčov		969 73
Preseľany		956 12
Preseľany nad Ipľom		936 01
Prestavlky		966 01
Príbelce		991 25
Pribeník		076 51
Pribeta		946 55
Pribiš		027 41
Pribišská		029 57
Príboj		991 01
Príbovce		038 42
Pribylina		032 42
Priechod		976 11
Priekopa		072 61|038 61
Prieloh		991 02
Priepasné		906 15
Prietrž		906 11
Prietržka		908 49
Prievaly		906 34
Prievidza		971 01
Prievidza - Kopanice		971 01
Prievidza - Necpaly		971 01
Prievidza - Píly		971 01
Prievidza - Staré Mesto		971 01
Prievidza - Štvrte		971 01
Prievrana		987 01
Prihradzany		049 14
Príkra		090 05
Prílepy		953 05
Primovce		059 12
Príslop		067 66
Prituľany		094 08
Proč		082 14
Prochot		966 04
Prosačov		094 31
Prosiek		032 23
Prosné		018 01
Prostredná Môlča		974 01
Prostredný Hámor		053 76
Prša		985 41
Pruské		018 52
Prusy		957 03
Pružina		018 22
Psiare		966 53
Pstriná		090 05
Pstruša		962 12
Pšurnovice		014 01
Ptičie		067 41
Ptrukša		076 77
Púchov		020 01
Pucov		026 01
Pukanec		935 05
Pušovce		082 14
Pustá Ves		922 11
Pusté		976 52
Pusté Čemerné		072 22
Pusté Pole		065 41
Pusté Sady		925 54
Pusté Úľany		925 28
Pustý Chotár		951 75
Rabča		029 44
Rabčice		029 45
Račice		972 22
Rad		076 37
Radatice		082 42
Radava		941 47
Radimov		908 47
Radiša		956 42
Radnovce		980 42
Radobica		972 48
Radoľa		023 36
Radoma		090 42
Radošina		956 05
Radošovce		908 63|919 30
Radôstka		023 04
Radvaň		974 05
Radvaň nad Dunajom		946 38
Radvaň nad Laborcom		067 01
Radvanovce		094 31
Radzovce		985 58
Rafajovce		094 05
Rajčany		956 32
Rajec		015 01
Rajecká Lesná		013 15
Rajecké Teplice		013 13
Rakoľuby		916 31
Rákoš		049 61|044 16
Rákošská Baňa		049 61
Raková		023 51
Rakovčík		090 41
Rakovec		962 65|053 76|956 43
Rakovec nad Ondavou		072 03
Rakovice		922 08
Rakovnica		049 31
Rakovo		038 42
Rakša		039 01
Rakúsy		059 76
Rakytník		980 21
Rakytovce		974 05
Rankovce		044 46
Rapovce		985 31
Rašice		982 62
Raslavice		086 41
Rasochov		919 05
Rašov		013 51
Rastice		930 39
Rastislavice		941 08
Ratka		986 01
Ratková		982 65
Ratkovce		920 42
Ratkovo		038 54
Ratkovská Lehota		982 64
Ratkovská Suchá		982 67
Ratkovská Zdychava		982 67
Ratkovské Bystré		982 66
Ratnovce		922 31
Ratvaj		082 66
Ražňany		082 61
Ráztočno		972 31
Ráztoka		976 97|018 03
Ráztoky		053 32|013 62|027 05
Reca		925 26
Regetovka		086 35
Rejdová		049 26
Reľov		059 04
Remata		972 51
Remeniny		094 31
Remetské Hámre		072 41
Renčišov		082 62
Repákovci		913 33
Repejov		067 04
Repište		966 03
Repištia		982 65
Rešica		044 73
Rešov		086 21
Revišné		027 54
Revištské Podzámčie		966 81
Revúca		050 01
Revúčka		050 01
Revúcka Lehota		049 18
Richnava		053 51
Richvald		085 01
Ridzina		072 16
Riečka		974 01|980 45
Riečky		023 22
Riečnica		023 05
Rieka		022 01
Rimavská Baňa		980 53
Rimavská Píla		980 61
Rimavská Seč		980 42
Rimavská Sobota		979 01
Rimavské Brezovo		980 54
Rimavské Janovce		980 01
Rimavské Zalužany		980 53
Rišňovce		951 21
Rochovce		049 36
Rohov		906 04
Rohovce		930 30
Rohožnica		935 34
Rohožník		906 38|094 07
Rojkov		034 92
Rokycany		082 41
Rokytov		086 01
Rokytov pri Humennom		067 13
Rokytovce		068 01
Rosina		013 22
Roškovce		053 02|067 02
Roštár		049 35
Rovensko		905 01
Rovinka		900 41
Rovňany		985 24
Rovné		982 67|067 32|090 16|018 03
Rozbehy		906 33
Rozhanovce		044 42
Rozina		937 01
Rožkovany		082 71
Rozložná		049 32
Rožňava		048 01
Rožňavská Baňa		048 01
Rožňavské Bystré		049 31
Rožňová Neporadza		913 26
Rožňové Mitice		913 22
Roztoky		090 11
Rozvadze		913 11
Rúbaň		941 36
Rudica		972 48
Rudina		023 31
Rudinka		023 31
Rudinská		023 31
Rudlov		094 35
Rudlová		974 11
Rudná		048 01
Rudňany		053 23
Rudnianska Lehota		972 26
Rudník		044 23|906 23
Rudno		038 22
Rudno nad Hronom		966 51
Rumanová		951 37
Rumince		980 50
Runina		067 65
Ruská		076 77
Ruská Bystrá		072 64
Ruská Kajňa		094 07
Ruská Nová Ves		080 05
Ruská Poruba		094 08
Ruská Voľa		094 31
Ruská Voľa nad Popradom		065 42
Ruská Volová		067 72
Ruské Pekľany		082 42
Ruskov		044 19
Ruskovce		072 42|956 54
Ruský Hrabovec		072 64
Ruský Potok		067 66
Ružbachy - kúpele		065 02
Ružiná		985 52
Ružindol		919 61
Ružová dolina		919 01
Ružová Osada		985 42
Rybany		956 36
Rybáre		962 31
Rybárie		023 22
Rybárpole		034 05
Rybky		906 04
Rybník		982 64|935 23
Rybníky		916 11
Rychňava		969 01
Rykynčice		962 55
Sabinov		083 01
Sabová		979 01
Sačurov		094 13
Sádočné		018 16
Sádok		958 44
Sady nad Torysou		044 41
Šahy		936 01
Šajby		972 41
Šajdíkove Humence		906 07
Salajka		985 04
Šalgočka		925 54
Šalgovce		956 06
Šalgovík		080 01
Salka		943 61
Šalková		974 01
Šalov		935 71
Salvátor		082 36
Šamaja		022 01
Šambron		065 45
Šamorín		931 01
Sampor		962 31
Šamudovce		072 01
Šance		916 42
Šandal		091 01
Šándorhalma		935 33
Šankovce		982 62
Santovka		935 87
Sap		930 06
Šapinec		090 42
Šára		985 32
Šarbov		090 05
Šarišská Poruba		082 12
Šarišská Trstená		082 14
Šarišské Bohdanovce		082 05
Šarišské Čierne		086 37
Šarišské Dravce		082 73
Šarišské Jastrabie		065 48
Šarišské Lúky		080 06
Šarišské Lužianky		082 32
Šarišské Michaľany		082 22
Šarišské Sokolovce		082 66
Šarišský Štiavnik		090 42
Šarkan		943 42
Šarovce		935 52
Sása		982 64|962 62|930 37
Sasinkovo		920 65
Sásová		974 11
Šašová		086 12
Šášovské Podhradie		965 01
Šaštín		908 41
Šaštín - Stráže		908 41
Savčina		018 52
Šávoľ		985 41
Sazdice		935 85
Sebechleby		962 66
Sebedín		974 01
Sebedín - Bečov		974 01
Sebedražie		972 05
Šebešťanová		017 04
Seč		972 26
Sečianky		991 10
Sečovce		078 01
Sečovská Polianka		094 14
Sedliacka Dubová		027 55
Sedlice		082 43
Sedličná		913 11
Sedliská		094 09
Sedmerovec		018 54
Sejkov		072 51
Sekule		908 80
Seľany		991 27
Selce		976 11|962 51|980 13
Selec		913 36
Seleška		044 71
Selešťany		991 06
Selice		925 72
Šelpice		919 09
Semerovo		941 32
Semeteš		023 55
Šemetkovce		090 03
Šemša		044 21
Seňa		044 58
Senec		903 01
Seniakovce		082 03
Senica		974 01|905 01
Šenkvice		900 81
Senné		991 01|072 13
Senohrad		962 43
Sereď		926 01
SET Jaslovské Bohunice-Atómová elektráreň		919 31
Setechov		013 53
SETJaslovské Bohunice - Atómová elektráreň		919 31
Severná		080 06
Šiatorská Bukovinka		985 58
Šiba		086 22
Šíd		986 01
Sielnica		962 31
Sigord		082 52
Sihelné		029 46
Sihelník		022 04
Sihla		976 53
Sikenica		937 01
Sikenička		943 59
Sila		951 24
Siladice		920 52
Silica		049 52
Silická Brezová		049 11
Silická Jablonica		049 43
Šimonovce		980 03
Šindliar		082 36
Šintava		925 51
Šipice		962 68
Šípkov		956 53
Šípkové		922 03
Šipošovské Kračany		930 03
Širákov		991 27
Sirk		049 64
Širkovce		980 02
Sirník		076 03
Široká		027 41
Široké		082 37
Šišov		956 38
Sitnianska		969 01
Sitnianska Lehôtka		962 65
Sitník		091 01
Šivetice		049 14
Skačany		958 53
Skala		913 31
Skalica		976 81|909 01
Skalité		023 14
Skalka nad Váhom		913 31
Skalská Nová Ves		913 31
Skároš		044 11
Skerešovo		982 62
Sklabiná		991 05
Sklabiňa		038 03
Sklabinský Podzámok		038 03
Sklené		038 47
Sklené Teplice		966 03
Skliarovo		962 12
Škoruby		013 54
Škrabáka		022 04
Skrabské		094 33
Škriavnik		991 25
Škrípov		972 28
Skubín		974 01
Skýcov		951 85
Sládkovičovo		925 21
Slaná Lehota		987 01
Slančík		044 17
Slanec		962 05|044 17
Slanická Osada		029 01
Slanská Huta		044 17
Slanské Nové Mesto		044 18
Slaská		966 22
Slatina		935 84
Slatina nad Bebravou		956 53
Slatinka		962 01
Slatinka nad Bebravou		956 53
Slatinské Lazy		962 25
Slatvina		053 61
Slavec		049 11
Slavkovce		072 17
Slavnica		018 54
Slavoška		049 34
Slavošovce		049 36
Sľažany		951 71
Slepčany		951 52
Sliač		962 31
Sliač - kúpele		962 32
Sliačska Podpoľana		962 25
Sliepkovce		072 37
Slivník		076 12
Slizké		980 23
Slopkov		013 54
Slopná		018 21
Slovany		038 43
Slovenská Kajňa		094 02
Slovenská Ľupča		976 13
Slovenská Nová Ves		919 42
Slovenská Ves		059 02
Slovenská Volová		067 22
Slovenské Ďarmoty		991 07
Slovenské Kľačany		991 02
Slovenské Krivé		067 13
Slovenské Nové Mesto		076 33
Slovenské Pole		925 41
Slovenské Pravno		038 22
Slovenský Grob		900 26
Slovinky		053 40
Šmigovec		067 74
Smilno		086 33
Smižany		053 11
Smolenice		919 04
Smolenická Nová Ves		919 04
Smolinské		908 42
Smolnícka Huta		055 65
Smolník		055 66
Smrdáky		906 03
Smrečany		032 05
Snakov		086 06
Snežnica		023 32
Snina		069 01
Snohy		962 05
Soblahov		913 38
Soboš		090 42
Sobotište		906 05
Sobôtka		979 01
Sobrance		073 01
Sobranecké Kúpele		073 01
Socovce		038 43
Sokoľ		044 31
Sokoľany		044 56
Sokolce		946 17
Sokolce - lúky		946 14
Sokolníky		951 46
Sokolovce		922 31
Soľ		094 35
Solčany		956 17
Solčianky		956 38
Solivar		080 05
Solka		972 13
Soľné		013 62
Soľnička		076 53
Soľník		090 31
Sološnica		906 37
Šoltýska		985 07
Somorova Ves		972 25
Somotor		076 35
Sopkovce		067 22
Šopora		022 01
Šoporňa		925 52
Sotina		905 01
Špačince		919 51
Špania Dolina		974 01
Španie Pole		980 23
Spišská Belá		059 01
Spišská Sobota		058 01
Spišská Stará Ves		061 01
Spišská Teplica		059 34
Spišské Bystré		059 18
Spišské Hanušovce		059 04
Spišské Podhradie		053 04
Spišské Tomášovce		052 01
Spišské Vlachy		053 61
Spišský Hrhov		053 02
Spišský Hrušov		053 63
Spišský Štiavnik		059 14
Spišský Štvrtok		053 14
Srňacie		026 01
Šrobárová		946 32
Stakčín		067 61
Stakčínska Roztoka		067 61
Štále		968 01
Stanáková		972 28
Stanča		076 16
Stankovany		034 92
Stankovce		072 21|076 61
Stará Bašta		980 34
Stará Bystrica		023 04
Stará Gala		930 34
Stará Halič		985 11
Stará Huta		962 25|968 01
Stará Kremnička		965 01
Stará Lehota		916 35
Stará Lesná		059 52
Stará Ľubovňa		064 01
Stará Myjava		907 01
Stará Turá		916 01
Stará Voda		053 34
Staré		072 23
Staré Hory		976 02
Starina		065 46
Starňa		982 01
Starý Hrádok		935 56
Starý Smokovec		062 01
Starý Tekov		935 26
Staškov		023 53
Staškovce		090 23
Stebnícka Huta		086 33
Stebník		086 33
Štefan		941 37
Štefanov		906 45
Štefanov nad Oravou		027 44
Štefanová		900 86
Štefanovce		082 35|094 01
Štefanovičová		951 15
Štefanská Huta		053 51
Štefultov		969 01
Štefurov		090 42
Šterusy		922 03
Štiavnička		976 81|034 01
Štiavnické Bane		969 81
Štiavnik		013 55
Štiefleje		972 48
Štitáre		951 01
Štítnik		049 32
Štôla		059 37
Stolečné		018 03|013 32
Štoliansko		962 06
Štós		044 26
Štós - kúpele		044 26
Stošice		031 04
Stotince		059 94
Stožok		962 12
Stráňany		065 33
Stráňavy		013 25
Stráne pod Tatrami		059 76
Stránska		982 51
Stránske		013 13
Stratená		049 71
Stráža		013 04
Stráže nad Myjavou		908 41
Stráže pod Tatrami		058 01
Strážky		059 01
Strážne		076 52
Strážov		010 01
Strážske		072 22
Štrba		059 38
Štrbské Pleso		059 85
Strečno		013 24
Streda nad Bodrogom		076 31
Stredná Revúca		034 74
Stredné Plachtince		991 24
Stredné Turovce		935 81
Stredný Sliač		034 84
Strekov		941 37
Strelenka		020 54
Strelnice		982 62
Strelníky		976 55
Stretava		072 13
Stretavka		072 13
Streženice		020 01
Striežovce		980 25
Strihovce		067 74
Štrkovec		980 45|925 52
Stročín		089 01
Stropkov		091 01
Štubne		976 02
Studená		980 34
Studené		900 46
Studenec		053 04|972 28
Studienka		908 75
Studničná		034 96
Stuľany		086 43
Stupava		900 31
Stupné		018 12
Štúrová		946 13
Štvrtok		913 05
Štvrtok na Ostrove		930 40
Sučany		038 52
Suchá		090 23
Suchá Dolina		082 43
Suchá Hora		027 13
Suchá nad Parnou		919 01
Sucháň		991 35
Suché		071 01
Suché Brezovo		991 03
Suchohrad		900 64
Sudince		962 71
Súdovce		962 71
Šuja		015 01
Sukov		067 02
Šuľa		991 01
Suľany		951 25
Šuľany		930 33
Šulekovo		920 03
Sulín		065 46
Súľov		013 52
Súlovce		956 14
Šumiac		976 71
Šuňava		059 39
Šurany		942 01
Šurianky		951 26
Šurice		980 33
Šúrovce		919 25
Súš		916 01
Sušany		980 12
Sútor		980 01
Šutovce		972 01
Šútovo		038 54
Švábolka		976 69
Švábovce		059 12
Svarín		032 33
Svätá Mária		076 35
Svätoplukovo		951 16
Svätuš		072 55
Svätuša		941 48
Svätuše		076 83
Svätý Anton		969 72
Svätý Jur		900 21
Svätý Kríž		935 25|032 11
Svätý Peter		946 57
Svederník		013 32
Švedlár		053 34
Sverepec		017 01
Sveržov		086 02
Svetlá		980 52
Svetlice		067 16
Svidnička		090 02
Svidník		089 01
Svinia		082 32
Svinica		044 45
Svinice		076 37
Svinná		913 24
Svit		059 21
Svodín		943 54
Svodov		937 01
Švošov		034 91
Svrbice		956 06
Svrčinovec		023 12
Švrčkov Jarok		906 05
Sykavka		053 76
Tachty		980 34
Ťahyňa		072 14
Tajná		952 01
Tajov		976 34
Taľka		082 12
Tanečník		029 57
Ťapešovo		029 51
Ťapkové		922 08
Tarnov		086 01
Tašuľa		072 52
Tatranská Javorina		059 56
Tatranská Kotlina		059 54
Tatranská Lesná		059 60
Tatranská Lomnica		059 60
Tatranská Polianka		062 01
Tatranská Štrba		059 41
Tatranské Matliare		059 53
Tatranské Zruby		062 01
Tehla		935 35
Tekolďany		920 62
Tekovská Breznica		966 52
Tekovská Nová Ves		935 25
Tekovské Lužany		935 41
Tekovské Nemce		966 54
Tekovský Hrádok		935 51
Telgárt		976 73
Telince		951 61
Temeš		972 29
Teplá		969 82
Tepličany		044 31
Teplička		052 01
Teplička nad Váhom		013 01
Tepličky		920 66
Teplý Vrch		980 23
Terany		962 68
Terchová		013 06
Teriakovce		080 05
Terňa		082 67
Tesáre		956 21
Tesáre nad Žitavou		951 76
Tesárske Mlyňany		951 76
Tešedíkovo		925 82
Tešmák		936 01
Tiba		049 12
Tibava		073 01
Tichá Voda		053 33
Tichý Potok		082 74
Timoradza		956 52
Tisinec		091 01
Tisovec		980 61
Tlmače		935 21
Tlstá Hora		018 54
Töböréte		929 01
Točnica		985 22
Tokajík		090 34
Tomášikovo		925 04
Tomášov		900 44
Tomášovce		985 56|980 21
Tomčany		036 01
Tôň		946 15
Tonkovce		930 38
Topoľa		067 65
Topoľany		071 01
Topoľčianky		951 93
Topolecká		916 01
Topoľnica		925 92
Topoľníky		930 11
Topoľovka		067 45
Toporec		059 95
Tornaľa		982 01
Torysa		082 76
Torysky		053 72
Tovarné		094 01
Tovarnianska Polianka		094 01
Tovarníky		955 01
Trakovice		919 33
Trávnica		941 46
Trávnik		946 19
Trebatice		922 10
Trebejov		044 81
Trebeľovce		985 31
Trebichava		956 53
Trebišov		075 01
Trebostovo		038 41
Trebušovce		991 27
Trenč		985 32
Trenčianska Teplá		914 01
Trenčianska Turná		913 21
Trenčianska Závada		914 41
Trenčianske Bohuslavice		913 06
Trenčianske Jastrabie		913 22
Trenčianske Mitice		913 22
Trenčianske Stankovce		913 11
Trenčianske Teplice		914 51
Trhová Hradská		930 13
Trhovište		072 04
Trhyňa		937 01
Trnavá Hora		966 11
Trnava pri Laborci		072 31
Trnávka		078 01|930 32|913 33
Tŕnie		962 34
Trnkov		082 12
Trnové		010 01
Trnovec		908 51
Trnovec nad Váhom		925 71
Trnovo		038 41
Tročany		086 41
Trojačka		023 56
Trpín		962 44
Trsťany		044 45|053 63
Trstená		028 01
Trstená na Ostrove		930 04
Trstené		032 21
Trstené pri Hornáde		044 11
Trstice		925 42
Tŕstie		018 22
Trstín		919 05
Trubín		966 23
Tuchyňa		018 55
Tuhár		985 12
Tuhrina		082 07
Tulčík		082 13
Tunežice		018 63
Tupá		935 84
Turá		935 51
Turá Lúka		907 03
Turany		038 53
Turany nad Ondavou		090 33
Turček		038 48
Turčianky		958 44
Turčianska Štiavnička		038 51
Turčianske Jaseno		038 02
Turčianske Kľačany		038 61
Turčianske Teplice		039 01
Turčiansky Ďur		038 43
Turčiansky Michal		039 01
Turčiansky Peter		038 41
Turčok		049 18
Turcovce		067 23
Turecká		976 02
Tureň		903 01
Turíčky		985 22
Turie		013 12
Turík		034 83
Turkov		023 54
Turňa nad Bodvou		044 02
Turnianska Nová Ves		044 02
Turová		962 34
Turzovka		023 54
Tušice		072 02
Tušická Nová Ves		072 02
Tužina		972 14
Tvarožná		059 71|032 23
Tvrdomestice		956 22
Tvrdošín		027 44
Tvrdošovce		941 10
U Hluška		022 01
U Holých		023 11
U Kľukov		023 11
U Kordišov		023 11
U Polievkov		023 11
U Rulcov		023 11
U Siheľnika		022 01
Ubľa		067 73
Úbrež		072 42
Udavské		067 31
Uderiná		985 55
Udiča		018 01
Udička		018 03
Údol		065 45
Uhliská		935 05
Úhorná		055 66
Uhorská Ves		032 03
Uhorské		985 25
Uhrovec		956 41
Uhrovské Podhradie		956 42
Újazd		913 31
Uľanka		976 03
Úľany nad Žitavou		941 03
Ulič		067 67
Uličské Krivé		067 67
Uloža		053 71
Uňatín		962 41
Unín		908 46
Upohlav		018 01
Úpor		076 16
Urmince		956 02
Ústie nad Priehradou		028 01
Úsvit		059 11
Utekáč		985 06
Uzovce		082 66
Uzovská Panica		980 22
Uzovské Pekľany		082 62
Uzovský Šalgov		082 61
Vaďovce		916 13
Vagrinec		090 03
Váhovce		925 62
Vajka nad Žitavou		951 88
Vajkovce		044 43
Vajsková		976 98
Valaliky		044 13
Valaská		976 46
Valaská Belá		972 28
Valaská Dubová		034 96
Valaškovce		066 01
Valča		038 35
Valentová		976 02|038 43
Valentovce		067 01
Valice		982 52
Valkovce		090 42
Vaľkovňa		976 69
Vaľkovo		985 03
Vaniškovce		086 41
Vaňovka		029 52
Vápeník		090 02
Varadka		086 36
Varechovce		090 23
Varhaňovce		082 05
Varín		013 03
Varov Šúr		919 25
Vasiľov		029 51
Vavrečka		029 01
Vavrinec		094 31
Vavrišovo		032 42
Važec		032 61
Včeláre		044 02
Včelince		980 50
Včelinec		979 01
Véč		076 35
Večelkov		980 34
Vechec		094 12
Vék		947 01
Veľaty		076 15
Velčice		951 71|913 04
Veličná		027 54
Veľká		058 01
Veľká Bara		076 32
Veľká Budafa		930 34
Veľká Bytča		014 01
Veľká Čalomija		991 09
Veľká Čausa		971 01
Veľká Čierna		015 01
Veľká Dolina		985 53|951 15
Veľká Franková		059 78
Veľká Gúta		946 03
Veľká Hradná		913 24
Veľká Ida		044 55
Veľká Lehota		966 41|972 42
Veľká Lesná		065 34
Veľká Lodina		044 81
Veľká Lomnica		059 52
Veľká Lúč		930 03
Veľká Lúka		962 31
Veľká Mača		925 32
Veľká Maňa		941 45
Veľká nad Ipľom		985 32
Veľká Paka		930 51
Veľká Suchá		980 13
Veľká Tŕňa		076 82
Veľká Ves		985 01|951 13
Veľká Ves nad Ipľom		991 10
Veľké Bedzany		955 01
Veľké Bielice		958 04
Veľké Bierovce		913 11
Veľké Blahovo		930 01
Veľké Borové		027 32
Veľké Chlievany		956 55
Veľké Chyndice		951 54
Veľké Dálovce		985 32
Veľké Dravce		985 42
Veľké Držkovce		956 54
Veľké Dvorany		956 01
Veľké Dvorníky		929 01
Veľké Hoste		956 38
Veľké Kapušany		079 01
Veľké Košecké Podhradie		018 31
Veľké Kosihy		946 21
Veľké Kostoľany		922 07
Veľké Kozmálovce		935 21
Veľké Krškany		934 01
Veľké Kršteňany		958 03
Veľké Leváre		908 73
Veľké Lovce		941 42
Veľké Ludince		935 65
Veľké Orvište		922 01
Veľké Ostratice		956 34
Veľké Ozorovce		076 63
Veľké Pole		966 74
Veľké Raškovce		076 75
Veľké Revištia		072 43
Veľké Ripňany		956 07
Veľké Rovné		013 62
Veľké Slemence		076 77
Veľké Stankovce		913 11
Veľké Straciny		990 01
Veľké Teriakovce		980 51
Veľké Trakany		076 42
Veľké Turovce		935 81
Veľké Uherce		958 41
Veľké Úľany		925 22
Veľké Vozokany		951 82
Veľké Zalužice		072 34
Veľké Zálužie		951 35
Veľké Zlievce		991 23
Veľkrop		091 01
Veľký Báb		951 34
Veľký Biel		900 24
Veľký Blh		980 22
Veľký Bysterec		026 01
Veľký Čepčín		038 45
Veľký Cetín		951 05
Veľký Ďur		935 34
Veľký Dvor		937 01
Veľký Folkmar		055 51
Veľký Grob		925 27
Veľký Harčáš		945 01
Veľký Horeš		076 52
Veľký Kamenec		076 36
Veľký Klíž		958 45
Veľký Kolačín		018 51
Veľký Krtíš		990 01
Veľký Kýr		941 07
Veľký Lapáš		951 04
Veľký Lég		930 37
Veľký Lél		946 12
Veľký Lipník		065 33
Veľký Lom		991 03
Veľký Meder		932 01
Veľký Ostrov		946 03
Veľký Pesek		937 01
Veľký Ruskov		075 01
Veľký Šariš		082 21
Veľký Slavkov		059 91
Veľký Slivník		082 67
Veľopolie		067 31
Velušovce		955 01
Vernár		059 17
Veselá		935 52
Veselé		922 08
Veškovce		079 01
Veterná Poruba		031 04
Vidiná		985 59
Vidov Vrch		962 63
Vidová		049 11
Vidovany		908 62
Vieska		991 02|965 01|930 02|908 63|916 26|972 45
Vieska - Bezdedov		020 01
Vieska nad Blhom		980 21
Vieska nad Žitavou		951 52
Vígľaš		962 02
Vígľašská Huta		962 25
Vikartovce		059 19
Vinica		991 28
Vinice		979 01
Viničky		076 31
Viničné		900 23
Vinné		072 31
Vinodol		951 06
Vinohrádok		901 01
Vinohrady nad Váhom		925 55
Vinosady		902 01
Violín		946 02
Virt		946 38
Vislanka		065 41
Vislava		090 21
Višňov		076 61
Višňové		982 63|916 15|013 55|013 23
Visolaje		018 61
Vištuk		900 85
Vitálišovce		031 04
Vitanová		027 12
Víťaz		082 38
Víťazovce		067 24
Vítkovce		053 63
Vlača		094 31
Vlachovo		049 24
Vlachy		032 13
Vladiča		090 23
Vlašky		032 13
Vlčany		925 84
Vlčí Vrch		913 33
Vlčkovany		908 62
Vlčkovce		919 23
Vlčkovo		957 03
Vlčovo		985 26
Vlkanová		976 31
Vlkanovo		946 54
Vlkas		941 44
Vlkolínec		034 03
Vlkov		018 03
Vlková		059 72
Vlkovce		059 71
Vlky		900 44
Vlkyňa		980 44
Voderady		919 42
Vojany		076 72
Vojčice		076 22
Vojka		076 83
Vojka nad Dunajom		930 31
Vojkovce		053 61
Vojňany		059 02
Vojnatina		072 61
Vojtechovce		930 38
Vojtovce		091 01
Vojty		022 01
Voľa		072 21
Volica		067 01
Volkovce		951 87
Voznica		966 81
Vozokany		956 05|925 05
Vozokany nad Hronom		935 61
Vráble		952 01
Vrádište		908 49
Vrakúň		930 25
Vranie		010 14
Vranov		093 01
Vrbany		972 24
Vrbina		930 08
Vrbnica		072 16
Vrbov		059 72
Vrbová nad Váhom		946 65
Vrbovce		906 06
Vrbovce nad Rimavou		980 52
Vrbové		922 03
Vŕbovec		071 01
Vrbovka		991 06
Vrchdobroč		962 06
Vrchpredmier		023 22
Vrchrieka		023 55
Vrchslatina		976 53
Vrchteplá		017 05
Vrícko		038 31
Vršatské Podhradie		018 52
Vrtižer		017 05
Vrútky		038 61
Všechsvätých		044 13
Vtáčkovce		044 47
Výborná		059 02
Vybúchanec		071 01
Výčapky		951 25
Výčapy - Opatovce		951 44
Východná		032 32
Vychylovka		023 05
Vydraň		068 01
Vydrany		930 16
Vydrná		020 53
Vydrník		059 14
Vydrovo		976 52
Vydumanec		080 01
Vyhne		966 02
Výrava		067 16
Vyšehradné		972 13
Vysielač		080 01
Vyškovce		090 21
Vyškovce nad Ipľom		935 77
Vyšná Boca		032 34
Vyšná Hutka		040 18
Vyšná Jablonka		067 34
Vyšná Jedľová		089 01
Vyšná Kaloša		982 52
Vyšná Kamenica		044 46
Vyšná Korňa		023 21
Vyšná Myšľa		044 15
Vyšná Olšava		090 32
Vyšná Pisaná		090 01
Vyšná Pokoradz		979 01
Vyšná Polianka		086 36
Vyšná Revúca		034 74
Vyšná Rybnica		072 41
Vyšná Šebastová		080 06
Vyšná Sitnica		094 07
Vyšná Slaná		049 26
Vyšná Vladiča		090 23
Vyšná Voľa		086 21
Vyšné Hágy		059 84
Vyšné Ladičkovce		067 11
Vyšné Matiašovce		032 23
Vyšné nad Hronom		935 31
Vyšné Nemecké		072 51
Vyšné Raslavice		086 41
Vyšné Remety		072 41
Vyšné Repaše		053 71
Vyšné Revištia		072 43
Vyšné Ružbachy		065 02
Vyšné Valice		982 52
Vyšný Čaj		044 16
Vyšný Hrabovec		090 34
Vyšný Hrušov		067 32
Vyšný Kazimír		094 09
Vyšný Kelčov		023 55
Vyšný Klátov		044 12
Vyšný Komárnik		090 05
Vyšný Koniec		023 54
Vyšný Kručov		086 45
Vyšný Kubín		026 01
Vyšný Lánec		044 74
Vyšný Medzev		044 25
Vyšný Mirošov		090 11
Vyšný Orlík		090 11
Vyšný Skálnik		980 52
Vyšný Slavkov		053 74
Vyšný Sliač		034 84
Vyšný Tvarožec		086 02
Vyšný Žipov		094 33
Vysočany		956 35
Vysocký Dvor		072 14
Vysoká		969 01|082 74
Vysoká nad Kysucou		023 55
Vysoká nad Uhom		072 14
Vysoká pri Morave		900 66
Vysoké Tatry		062 01
Žabany		071 01
Žabica		962 06
Zábiedovo		028 01
Záblatie		911 06
Žabokreky		038 40
Žabokreky nad Nitrou		958 52
Záborie		038 03
Záborské		082 53
Zábrež		027 54
Zabudišová		913 07
Zacharovce		979 01
Zádiel		044 02|032 23
Zadné Halny		977 01
Zádor		980 42
Žadovica		916 16
Zádubnie		010 03
Zahájnica		053 33
Záhor		072 53
Záhorce		991 06
Záhorčie		966 81
Záhorie		901 01
Záhorská Ves		900 65
Záhrada		955 01
Záhradné		082 16
Záhrb		968 01
Zaježová		962 63
Zákamenné		029 56
Žakarovce		055 71
Zákopčie		023 11
Žakovce		059 73
Žakýl		969 82
Zákysučie		023 02
Zalaba		937 01
Zálesie		900 28|059 04
Žalobín		094 03
Zalužice		072 34
Zamarovce		911 05
Zámostie		976 97
Zámutov		094 15
Zapriechody		962 12
Zárieč - Keblov		013 32
Záriečie		020 52
Žarnov		044 02|013 62
Žarnovica		966 81
Žarnovická Huta		966 81
Záskalie		017 05|026 01
Žaškov		027 21
Zástranie		010 03
Zatín		076 53
Žatkovce		082 67
Zátoka		023 55
Záturčie		036 01
Závada		991 21|955 01|951 87|094 08|054 01
Závada pod Čiernym vrchom		956 43
Závadka		053 33|072 33|066 01|082 67
Závadka nad Hronom		976 67
Zavar		919 26
Závažná Poruba		032 02
Závod		908 72
Závodie		065 46|023 54|010 04
Zázrivá		027 05
Zbehňov		078 01
Zbehy		951 42|916 16
Žbince		072 16
Zboj		067 68
Zbojné		067 13
Zbora		020 51
Zborov		086 33
Zborov nad Bystricou		023 03
Zbrojníky		935 55
Zbudská Belá		067 01
Zbudské Dlhé		067 12
Zbudza		072 23
Zbyňov		013 19
Ždaňa		044 11
Ždiar		059 55
Zdoba		044 41
Žehňa		082 06
Žehra		053 61
Zelené		987 01
Zeleneč		919 21
Zelený Háj		947 01
Železná Breznica		962 34
Železník		049 64|087 01
Železnô		032 15
Želiezovce		937 01
Želmanovce		086 44
Želobudza		962 12
Želovce		991 06
Žemberovce		935 02
Zemianska Dedina		027 43
Zemianska Olča		946 14
Zemianska Závada		018 15
Zemianske Kostoľany		972 43
Zemianske Lieskové		913 05
Zemianske Mitice		913 22
Zemianske Podhradie		913 07
Zemianske Sady		925 54
Zemiansky Kvašov		017 07
Zemiansky Vrbovok		962 41
Žemliare		935 57
Zemné		941 22
Zemplín		076 34
Zemplínska Nová Ves		076 16
Zemplínska Šírava		072 36
Zemplínska Široká		072 13
Zemplínska Teplica		076 64
Zemplínske Hámre		067 77
Zemplínske Hradište		076 01
Zemplínske Jastrabie		076 05
Zemplínske Kopčany		072 17
Zemplínsky Branč		076 02
Zemplínsky Klečenov		076 16
Žiar		982 01|032 05
Žiar nad Hronom		965 01
Žibritov		963 01
Žihárec		925 83
Žihľava		985 45|991 03
Žikava		951 92
Žilinská Lehota		010 01
Zimná Studňa		082 12
Žíp		980 21
Žipov		082 41
Žirany		951 74
Žírovce		044 46
Žitava		946 38
Žitavany		951 97
Žitavce		952 01
Žitná		956 42
Žitná - Radiša		956 42
Zlámaná		023 55
Zlatá Baňa		082 52
Zlatá Idka		044 61
Zlatá Osada		946 65
Zlaté		086 01
Zlaté Klasy		930 39
Zlatná na Ostrove		946 12
Zlatník		094 33
Zlatníky		956 37
Zlatno		976 69|985 04|951 91
Zlatovce		911 05
Zliechov		018 32
Žlkovce		920 42
Zobor		949 01
Zohor		900 51
Zolná		962 21
Zombor		991 22
Žrnové		018 03
Zubák		020 64
Zuberec		027 32
Zubné		067 33
Zubria		985 51
Zubrohlava		029 43
Župčany		080 01
Župkov		966 71
Zvolenská Slatina		962 01
Zvončín		919 01
