name	districts	zipcodes
Caceres		10001|10002|10003|10004|10005|10070|10071|10080|10195
Vitoria-Gasteiz		1001|1002|1003|1004|1005|1006|1007|1008|1009|1010|1012|1013|1015|1071|1080
Guadalupe		10140|30107
Valdefuentes		10180|28939
Benquerencia		10185|27792
Retamosa		10372|30178
Cabezo		10625|3349
Cadiz		11001|11002|11003|11004|11005|11006|11007|11008|11009|11010|11011|11012|11070|11071|11080
San Fernando		11100|37492
Barrosa		11139|33191|33317|33747|33869
Soledad		11139|41500
Roche		11149|30369
Soto		11150|22338|33969|5515|37591|19119
Cañal		11150|33528
Oliva		11150|35640|31310|46780
Cabañas		11158|22216|33528|33979|5190|24205
Santa Lucia		11158|22720|24415|24650|26144|3700
Palmar		11159|35339|38489|30120|3700
Canaleja		11170|21342|5693|24197|2312|46178
Algamitas		11170|41661
Lomas		11179|29500|24227|34449|30330|30889|28669
Malcocinado		11179|6928
Picacho		11180|35412
Algeciras		11200|11201|11202|11203|11204|11205|11206|11207|11270|11271|11280
Angeles		11339|14740|38360|30393
Secadero		11349|29692
San Roque		11360|11368|3360
Barrios		11370|11379
Peña		11380|22820|33403|33426|33617|33867|33891|33909|33969|39760|37214|35339|48003
Puertollano		11380|23685|13500
Costa		11380|35413|35560|38779|32514|32530|32707|32810|36957|36966|7690
Chaparral		11391|14280|18290|35130|30189
Alamillo		11391|29130|13413|30868
Zarzuela		11393|16146
Casablanca		11400|2124|35431
Fuente Del Rey		11400|23692|41703
Jerez De La Frontera		11401|11402|11403|11404|11405|11406|11407|11408|11470|11471|11480|11574|11591|11592|11593
Canteras		11510|18480|7209
Meloneras		11520|35100
Bercial		11520|40144
Jara		11540|14700
Bonanza		11540|28669
Algaida		11549|7210|30609
Torno		11594|33685|13194|10617|32892
Vega De Los Molinos		11620|33778
Pedrosa		11620|39728|24837|32688
Santa Cecilia		11620|9341|42173|26131
Sierpe		11630|37759
Abiertas		11630|38439
Barrancos		11630|38616
Algar		11639|14811|30366|3518
Cierva		11650|16340
Villamartin		11650|3189
Pozo Amargo		11659|16708
Bosque		11670|33195|39716|28670
Arenal		11680|14010|5416|40176|35329|3738
Madrigueras		11680|2230|3158
Jaral		11687|38688
Arroyomolinos		11688|10161|28939
Castellon De La Plana/Castello De La Pla		12001|12002|12003|12004|12005|12006|12070|12071|12080|12100
Peñacerrada		1212|3110
Ciudad Real		13001|13002|13003|13004|13005|13070|13071|13080
Casas Del Rio		13128|3469|12599|46356
Navacerrada		13189|28470
Picon		13196|48500
Cañamares		13331|16890|19276
San Benito		13415|46621
Bienvenida		13596|6250
Pedro Muñoz		13620|10630
San Bruno		13779|3149
Cordoba		14001|14002|14003|14004|14005|14006|14007|14008|14009|14010|14011|14012|14013|14014|14070|14071|14080|14192|14350
Pitas		14005|35328
Hornillo		14011|5415|35149|35329|35330|35468|38879
Arenales		14029|33195|35211
Reina		14029|38632|6970
San Cristobal		14029|39450
San Llorente		14029|47317
Pinedas		14111|37712
Villalon		14129|29569
Quintana		14191|33314|33518|33828|33885|33969|39418|39809|26259
Arrecife		14191|35500
Puerto		14192|33457|15177|48508
Granjuela		14207|30739
Entredicho		14209|30414
Hoyo		14209|5696|13594|35330|35478
Mimbre		14210|35109
Villanueva Del Rey		14230|41409
Alcornocal		14249|13113
Boveda		1427|3600
Cuenca		14297|42192|16001|16002|16003|16004|16070|16071|16080
Coronada		14298|6469
Morenos		14299|30333
Cardenchosa		14299|6929
Obejo		14310|14320
Pozoblanco		14400|3679
Cerezo		14445|23290|9585|10663
Conquista		14448|6410
Santa Eufemia		14491|49161
Sotogordo		14512|23526
Ribera Alta		14512|23691
Ribera Baja		14512|23691|1213
Mina		14512|37798|38291
Montemayor		14530|29679
Rambla		14540|41440|33617|30594
Fontanar		14547|23486|19290
Riofrio		14550|18313|5190|24285|40420
Zarza		14550|21310|5621|47452|2327|38579|6830|32141|30529|30648
Carchena		14550|41100
Nava		14600|21291|33314|33520|33939|6615
Madroñal		14600|29678|37619|35308
Torrecilla		14600|37187|16145|30817|46176
Cansinos		14610|33111
Carpio		14620|33936|47470
San Antonio		14620|45691|35213|38379
Cruz		14650|33191|33314|33528|33580|33628|33936|33957|35432|35478|35489|32455|32779|36619|36789|30190|48960
Morente		14659|33195
Calonge		14700|17251|7669
Carrascal		14700|9316|49027
Cespedes		14709|9553
Barquera		14710|33119|33492|39311|43883
Posadas		14730|26289
Corrales		14740|21120|41657|39592|9219|46313
Alta		14740|27230
Mezquetillas		14740|42213
Moratalla		14749|30440
Salado		14800|30648
Prados		14800|39727|32412|32815|30410
Navas		14800|5593|8670
Navasequilla		14800|5630
Portazgo		14810|33416|33669
Villares		14811|18181|23160|33716|2439
Lopez		14811|30858
Cuesta Blanca		14812|30396
Bracana		14813|18381
Cañuelo		14815|41889
Higueras		14816|12449
Esparragal		14816|30163
Castellar		14817|23260|44409|16122|30110
Santa Cruz		14820|48879
Espejo		14830|1423
Sierra		14850|29493|33199|33416|33438|33491|33529|33611|33810|33969|39592|39760|2513|38310|48891
Fuentidueña		14859|40357
Marbella		14880|29600|29601|29602|29603|29604|29660|29670
Lucena		14900|35468
Santos		14900|37768|46142
Tejar		14915|35309
Cabra		14940|37170
Granadilla		14950|38600
Vadillo		14960|42148
Valdearenas		14970|19196
Chozas		14978|35217
Adelantado		14978|38357
Hoz		14979|14979|2314
Celada		14979|33318|24395
Cabana		15008|15590|15590|36634
Brea		15102|15686|32455
Revolta		15102|36472
Sisto		15106|15656|15893|15980|27836|27865|36516
Vilares		15106|27307|32828
Requeixo		15108|27513
Telleira		15116|32690
Laxe		15117|27611|27778|32790|36852|36915
Ponte Do Porto		15121|15121
Cruceiro		15122|15500|15613|32455|36628|36633|36812|36954
Senande		15124|27579
Foxo		15125|32430
Muiños		15125|32890
Outeiro		15127|15319|15551|32137|32138|32228|32426|32455|32455|32456|32537|32634|32690|32779|32810|32811|32812|32812|32812|32817|32817|32846|32910|32960|36393|36788
Tufions		15129|15129
Laracha		15145|15145
Pedreira		15145|15594|15620|32664|36947
San Martiño De Abaixo		15154|32815
Insua		15155|15319|36826
Sada		15160|31491
Lagoa		15167|15177|15177|27774|32641|32911|36110|36611
Mandin		15168|32698
Xesta		15171|36515
Cova		15173|27532|27548
Xubin		15173|32459
Oleiros (Santa Maria)		15173|36457
Telva		15174|15181|15181
Gandara		15176|15176|15177|15550|15688|32641|36415|36720|36789
Seixo		15179|15626|32357|32415|32545|36949
Cerceda		15185|28412
Noia		15200|15686
Igrexa		15210|15298|15871|15914|15938|32812|32849|36151|36416|36458|36458|36627|36840|36847|36873
Couto De Arriba		15210|36639
Ponte Nafonso		15211|15286
Portela		15213|32371|36416|36812|36939
Vaos		15258|27243
Acea		15259|32668
Anxeles		15280|15688|15809|15816
Pindo		15296|15296
Ezaro		15297|15297
Irixoa		15313|27837
Pontes De Garcia Rodriguez		15320|15320
Seoane (San Xoan)		15324|32665
Freixo		15326|36428|36636
Mosteiro		15332|27665|32635|32637|36637
Neves		15338|15613|36440|36440
San Juan		15339|30441
Regueira		15387|15614|27286|32141
Pallota		15405|32137|32453
Pazos		15510|15614|32120
Ribeira		15520|15960|27362|27654|27661|36410|36955
Chousas		15528|32815
Val		15541|15622|32101|32141|32211|32448|32456|32764|32817|32838
Carreira		15550|15550|32892
Somozas		15565|15568
Naron		15570|15572
Roxal		15577|15579
Vilanova (San Xoan)		15608|36515
Capela		15613|15613|15806|15984
Barro		15614|15863
Franza		15626|32514
Chao		15635|32456
Fontenla		15668|15668
Pombo		15668|15668
Patiña		15669|15669
Ordes		15680|32654
Frades (San Martiño)		15685|36875
Frades		15686|27614
Santiago De Compostela		15701|15702|15703|15704|15705|15706|15707|15770|15771|15780|15781|15782|15890|15897|15899
Leboreiro		15809|32790
Carballal		15820|15896|36915
Pazo		15821|15920|27155|32137|32516|32811|32811|32812|32812|32812|32826|36164
Santa Comba		15841|27161
Illa		15846|32869
Allo		15851|31262
Ermida		15862|32141|32530|32555|36158|36841
Lestedo		15881|27216
Ardesende		15881|32141
Granxa		15881|32212|32510|32514|32613|32817|32971|32990|36966
Devesa		15892|27796|36157|36649|36690|3580
Tilos		15894|15894
Mimosas		15895|3189|3599
Barcia		15897|36158
Grixoa (Santa Maria)		15898|32455
Pobra Do Caramiñal		15940|15940
San Lazaro		15948|27297
Angustia		15948|36350
Regueiro		15983|32211|32514|32530
Marquesa		15984|3187
Madanela		15992|32618
Curro		15995|32212
Arcas		16123|32838
Majadas		16142|10529
Frontera		16144|38911
Naharros		16162|19278
Picazo		16211|19133
Higueruelas		16339|46162
Almendros		16420|35217|3189
Tebar		16710|30889
Torralba		16842|30814
Castejon		16856|31590
Valsalobre		16879|19390
Santa Cristina		16891|35457
Girona		17001|17002|17003|17004|17005|17006|17007|17070|17071|17080
Corça		17121|25692
Torrent		17123|46900
Fonolleres		17133|25218
Ginestar		17151|43748
Coll		17166|25526
Perello		17180|43519|46420
Palamos		17230|25271
Creueta		17241|3520
Fornells		17255|7748
Mallorquines		17410|17420
Siurana		17469|43362
Roses		17480|30330|30390|30394
Marza		17493|27209
Biure		17723|43428
Navata		17744|28420
Cabanes		17761|12180
Creixell		17770|43839
Portell		17832|25216
Canya		17857|17858
Roca		17869|27305
Granada		18001|18002|18003|18004|18005|18006|18007|18008|18009|18010|18011|18012|18013|18014|18015|18016|18070|18071|18080|18182|8792
Hijar		18110|44530
Zubia		18140|29718
Moclin		18247|33629
Olivares		18248|41804
Casa Nueva		18291|33934|33935
Esperanza		18300|18300|38290|30369
Salar		18310|3350
Palma		18314|30593
Fabrica		18360|33117|33450
Tablones		18418|18600|33909
Cañar		18418|2437
Barreras		18418|37256|38290
Turon		18491|33610
Mairena		18494|29612
Calahorra		18512|26500
Olivos		18512|35309|3530
Belerda		18515|33996
Lopera		18517|23780
Alamedilla		18520|41560|37554
Moreda		18540|24436|32151
Gobernador		18563|33315
Domingo Perez		18567|45544
Varadero		18613|38686
Lagos		18616|29760|33717|35650|3749|46230|46230
Marchena		18659|23296|41620|30815
Olias		18710|29197
Rubite		18711|29719
Torrenueva		18720|13740
Rabita		18760|23684
Pozuelo		18770|21647|2327|16812
Galera		18840|35018|43515|3599
Guadalajara		19001|19002|19003|19004|19005|19070|19071|19080
Pastrana		19100|38811|30876
Brisas		19128|35308
Casar		19170|32537
Viñuelas		19184|46199
Maluque		19227|19227
Palacios		19229|3179
Chera		19353|46350
Donostia-San Sebastian		20001|20002|20003|20004|20005|20006|20007|20008|20009|20010|20011|20012|20013|20014|20015|20016|20017|20018|20070|20071|20080
Albacete		2001|2002|2003|2004|2005|2006|2007|2008|2049|2070|2071|2080|2140
Lasarte		20160|1194
Irun		20300|20301|20302|20303|20304|20305
Ibarra		20400|1160
Aretxabaleta		20550|1194
Oro		20550|46199
Murgia		20569|1130
Zubillaga		20569|1213
Huelva		21001|21002|21003|21004|21005|21006|21007|21070|21071|21080
Bellavista		21122|7609
Umbria		21207|35369|30648
Marines		21208|29195|30420|3700|46163
Cortegana		21230|6196
Corte		21239|35328|35638
Bravos		21239|5357
Ginete		2125|30530
Fuenlabrada		2127|28940|28941|28942|28943|28944|28945|28946|28947
Berro		2127|30848|31700
Molata		2129|30849
Molinar		2129|48890
San Telmo		21330|33328
Veredas		21342|13459
Escalada		21342|33155|9145
Arroyo		21342|39577|34347
Molares		21359|41750
Arteaga		2137|31241
Lepe		21440|38830
Navahermosa		21609|29329|45150
Berrocal		21647|40181
Villarrasa		21850|33769
Huesca		22001|22002|22003|22004|22005|22006|22070|22071|22080
Tolosa		2211|20400
Novales		22113|33829|39526
Ola		22135|31866
Zulema		2214|28810
Aguas		22141|38429
San Saturnino		22144|33312
Figueruelas		22194|50639
Granja		22196|33160|33191|33194|33519|33610|33866|10711
Sena		22230|33810
Temple		22281|15679|15679
Paul		22281|44422|1420
Tormos		22283|3795
Pueyo		22311|31394
Guardia		22312|33719|45760|25331
Montesa		22315|46692
Arro		22336|25551
Palo		22337|35423
Pardina		22338|22394
Plano		22338|33619
Casal		22361|32212|32213|32815|36416|36475|36618|36954|36995|48500
Escalona		22363|45910|38614
Revilla		22364|39547|24712
Fiscal		22373|32160
Vio		22375|33189
Grado		22390|22390|33820
Solanilla		22392|24228|2314
Morilla		22415|39728
Centenera		22437|19151
Coronas		22437|33549
Trillo		22438|19450
Campo		22450|33162|33187|33312|33401|33418|33616|33628|33919|33979|39880|9555|24414|34847|32515|32770|32774|32812|32812|32838|36779|36914
Sala		22451|33868|17133
Colladas		22452|33879
Aguilar		22461|33619
Muria		22470|33748|33810
Abella		22472|17869
Alins		22473|25574
Buira		22486|25555
Cires		22486|39550
Viñal		22487|33810|32846
Fraga		22520|15319|15500|32516|32530|32858|36316
Valonga		22533|27274
Zurita		22569|39479
Sas		22583|25555
Montañana		22584|9219
Peñalba		22592|12414
Borres		22612|33878
Latas		22613|27155
Ara		22620|33160
Aineto		22623|25577
Jaca		22700|38588
Santa Engracia		22751|50669|25636|26131
Eres		22807|25712
Fontellas		22809|31512
Yeste		22820|2480
Jaen		23001|23002|23003|23004|23005|23006|23007|23008|23009|23070|23071|23080|23160
Horcajo		2314|10638|26126
Salobre		2316|35106
Acebuchal		23211|41440|41500
Centenillo		23214|10319
Cañada Juncosa		2326|16720
San Pedro		2326|35489|28770
Camporredondo		23269|22280|47165
Teatinos		23290|30157
Pontones		23291|33616|33627|33785|33879|39793
Rio Madera		23295|2137
Muela		23296|50196|33639|33693|42294|10638
Toba		23297|39728|19243
Caleruela		23312|45589
Pascuales		23369|40122
Batan		23379|33957|10692|15176
Robledo		2340|13114|32348|28294
Jardin		2340|38419
Ubeda		23400|3658
Yedra		23411|35328
Santa Eulalia		23413|44360|39557|17476|15339|1439
San Miguel		23469|22549|39460|48370|1213
Molar		23469|43736|28710|3194
Iruela		23476|24741
San Martin		23479|33791|20211|26131
Rosales		23488|41330|9514|24127|35432|28420
Escuelas		23539|33617
Torres		23540|39300|9512|37796|38670
Villargordo		23630|41898|37217
Infantas		23639|28210|28312
Bobadilla		23669|26321
Mures		23686|33535
Fuente Alamo		23689|30320
Hortichuela		23689|46178
Frailes		23690|35018|35215
Santa Ana		23692|22572|39528|49518|2328|10189|30319
Linares		23700|39580|9557
Marmolejo		23770|35488
Leon		24001|24002|24003|24004|24005|24006|24007|24008|24009|24010|24070|24071|24080|24191|24193|32101
Agra		2409|15995|32141
Quintanilla		24124|35414
Valbueno		24133|19185
Marzan		24133|27215
Senra		24136|32960
Navafria		24156|40161
Corcos		24170|47280
Cea		24174|32130
Carbajosa		24195|49166
Villarente		24226|27730
Pedregal		24273|19327|35216|35339|38438|38769
Quintanilla Del Monte		24285|49639
Bembibre		24300|15873|27556|32562
Viloria		24316|47166|31283|1426
Malillos		24339|49272
Castellanos		24343|49390
Tabladas		24368|35479|26329
Silva		24379|15174|15186|15999|27270|32610|32811
Yebra		24388|19111
Dehesas		24390|28479
Carral		24394|15175
Escuredo		24397|49323
Ponferrada		24400|24401|24402|24403|24404
Bouzas		24414|32430|32664
San Lorenzo		24415|35018
Faro		24429|35338
Suertes		24433|28292
Libran		24457|27278
Pradilla		24459|19391
Hoyas		2449|35413
Paradaseca		24510|27329
Horta		24516|7669
Guimil		24521|32880
Lamagrande		24525|32711
Balboa		24525|6195
Lamas		24526|15298|32226|32751|32815|32890
San Julian		24526|30816
Campelo		24546|27163
Canedo		24546|27335
San Clemente		24547|16600
Villabuena		24548|42290
Cancela		24567|32654
Sobredo		24569|27325
Cabanillas		24620|42225|31511
Seca		24630|42291|47491
Corporales		24740|26259
Trabazos		24745|49516
Baña		24746|15863|15863
Forna		24746|3786
Bustos		24793|32151
Antigua		24796|35630
Almuzara		24838|32514
Piornedo		24838|32611
Valcueva		24839|24839
San Isidro		24855|30397
Adrados		24859|40354
Vozmediano		24859|42107
Villacorta		24882|40512
Valderrueda		24882|42294
Morgovejo		24884|24884
Muñecas		24886|42142|48190
Paules		2489|48890
Acebedo		24996|1427
Uña		24996|16152
Lleida		25001|25002|25003|25004|25005|25006|25007|25008|25070|25071|25080|25190|25191|25192|25193|25194|25195|25196|25197|25198|25199
Granadella		25177|43894
Bellvei		25211|43719
Vallverd		25261|43428
Hostal Nou		25281|12316
Pedra		25284|15365|32960
Coma		25284|7193
Naves		25286|32981
Selva		25286|7313
Cañadas		2534|30849
Altet		25350|3195
Vila		25537|32141|32456|32668|32879
Bordeta		25551|25551
Bordes		25551|25554
Alzina		25632|25748
Rua		25651|15821|15917
Cava		25722|3111|3688
Argentera		25736|43773
Clua		25737|25792
Baldomar		25737|32160
Montargull		25738|43427
Torreblanca		25746|12596
Vilaplana		25747|43380
Castell		25790|43559
Logroño		26001|26002|26003|26004|26005|26006|26007|26008|26009|26070|26071|26080
Lugo		27001|27002|27003|27004|27070|27071|27080|27192|27210|27294|27297|27298
Moreira		27142|32811|36915
San Paio		27155|32816
Fonteita		27163|32767
Farnadeiros (San Pedro)		27163|32899
San Roman		27185|32679|1409
Pambre		27203|32811
Meixide		27204|32366
Filgueira		27205|32641
Pidre		27207|32631
Rocha		27228|36316|36418|36891
Baltar		27246|32632
Cubilledo		27278|32429
Meda		27293|32368
Seara		27328|32516|32536|32690|32812|32821|36995
Pobra De Brollon		27330|27331
Ferreirua		27335|32448
Salcedo		27338|1213
Cervela		27342|27579
Ver		27349|32811
Lama		27367|32454|32510|32530|32892|36830
Bande		27367|32840
Cerdeiras		27373|32120
Saavedra		27375|32536
Seixas		27375|32696
Lobios		27423|32643
Xuvencos		27547|32514
Penas		27568|32790
Ferreiros		27569|32141
Cibreiro		27578|32512
Rial		27579|32641|32654|32664|32811|36691
Terracha		27579|32860
Fontao		27610|32101|32449
Pinza		27612|32554
Mato		27614|32817|32820
Vilavella		27632|32549|12526
Proba		27650|32317
Laxes		27686|36308|36634
Teixeira		27687|32765
Pontenova		27720|27720
Abeledo		27730|32690
Pereiro		27775|32120|32213|32228|32454|32548|32621|32815|32981
Balsa		27817|3469
Santo		27818|32622
Rego		27836|32140|32456
Roman		27841|30529
Rigueira		27879|32375
Alcobendas		28100|28108|28109
Valle Del Sol (Urbanizacion)		28213|3110
Majadahonda		28220|28221|28222
Pozuelo De Alarcon		28223|28224
Rozas De Madrid		28230|28231|28232|28290
Navalquejigo		28292|28292
Zarzalejo		28293|28293
San Martin De La Vega		28320|28330
Valdemoro		28340|28341|28342|28343
Rivas-Vaciamadrid		28521|28522|28523|28524|28529
Entrepinos (Urbanizacion)		28648|3530
San Sebastian De Los Reyes		28700|28701|28702|28703
Miraflores De La Sierra		28792|28792|28792
Alcala De Henares		28800|28801|28802|28803|28804|28805|28806|28807|28870
Coslada		28820|28821|28822|28823
Getafe		28900|28901|28902|28903|28904|28905|28906|28907|28909
Leganes		28910|28911|28912|28913|28914|28915|28916|28917|28918|28919
Alcorcon		28920|28921|28922|28923|28924|28925
Mostoles		28930|28931|28932|28933|28934|28935|28936|28937|28938
Parla		28980|28981|28982|28983|28984
Malaga		29001|29002|29003|29004|29005|29006|29007|29008|29009|29010|29011|29012|29013|29014|29015|29016|29017|29018|29070|29071|29080|29140|29190|29196|29590|29591
Mestanza		29130|13592
Peñon		29130|33616|35414
Romeral		29130|45770|30509|3580
Santa Amalia		29130|6410
Tomillares		29130|9198
Portales		29160|35412
Colmenar		29170|29490|28500
Majada Del Moro		29170|30889
Gallego		29195|2439|35328
Gomez		29195|29712|38311|30740
Nogales		29260|6173
Archidona		29300|41899
Atalaya		29311|33154|33315|5279|37591|35307|6329
Parrilla		29311|47328|30811
Salinas		29315|3638
Campillos		29320|3339
Rosalejo		29400|10391
Ronda		29400|33728|33759|33791|33796
Yunquera		29410|2161
Burgo		29420|15670|15670|27836|32769|32981|36308
Sabinal		29500|35017
Cartama		29570|29570
Saucedilla		29580|10390
Peral		29580|33189|33310|33414|33519|33840|33867|33873|16240
Capellania		29630|35309|3657
Mijas		29649|29650|29651
Paraiso		29688|19128|35308|38759|43892|28210
Padron		29689|15900|27116
Casares		29690|33316|33685|39438|9515|32537|32813
Cabrillas		29700|37630
Espino		29711|9219|24439|42189
Millanes		29712|10394
Viñuela		29712|13460
Aldea		29712|33394|9554|43896|32348|32811|36812
Castillejos		29713|35413|30367
Casillas		29713|39770|5428|5516|9556|37749|35149|35216|35308|15680
Valverde		29715|44211|9410|13195|27410|26528
Triana		29718|38767
Algarrobo		29750|30648
Mezquitilla		29760|41659
Molineta		29789|3339
Vallejos		29791|28380
Puerta		29791|33310|33867|19492
Murcia		30001|30002|30003|30004|30005|30006|30007|30008|30009|30010|30011|30012|30070|30071|30080|30100|30110|30151|30160|30168|30570
Alicante/Alacant		3001|3002|3003|3004|3005|3006|3007|3008|3009|3010|3011|3012|3013|3014|3015|3016|3070|3071|3080|3112|3113|3114|3540|3559
Raiguero		30130|30858|3169
Ruices		30156|30367|46353
Lumbreras		30160|26126
Monteagudo		30160|31522
Nonduermas		30166|3158
Ojos		30178|30611
Cartagena		30200|30201|30202|30203|30204|30205|30300|30310|30319|30394|3360
Conesas		30331|30593
Vidales		30331|30593|30739
Escobar		30333|30439
Camachos		30369|30592
Palmero		30394|30397
Diaz		30394|3350
Corona		30396|30558
Moralejo		30412|30412
Madriles		30420|30868
Otos		30442|46844
Molina De Segura		30500|30506|30507|30508|30509
Encebras		30529|3658
Tollos		30540|3813
Casas Blancas		30590|26291
Balsicas		30591|30868
Carriones		30593|30594
Saez		30740|3191
Zuñiga		30814|31284
Costera		30849|1477
Leiva		30878|26213
Pamplona/Iruña		31001|31002|31003|31004|31005|31006|31007|31008|31009|31010|31011|31012|31013|31014|31015|31016|31070|31071|31080
Planet		3111|3590
Legarda		31133|1196
Otazu		31174|1194
Aranguren		31192|48850
Recajo		31230|26160
Artaza		31272|1428
Villafranca		31330|1193
Elx/Elche		3139|3200|3201|3202|3203|3204|3205|3206|3207|3208|3290|3291|3292|3293|3294|3295|3296
Pinada		3140|3169
Yesa		31410|46178
Domeño		31454|46174
Oleta		31481|1165
Saladar		3169|3700
Elizondo		31700|48330
Madaria		31710|1479
Telleria		31711|48940
Gaztelu		31750|48195|20491|1194
Montebello		3176|3530
Torrevieja		3180|3181|3182|3183|3184|3185|3186|3188
Zuhatzu		31868|1195
Itsaso		31869|20709
Gaintza		31891|20248
Osinaga		31892|20120
Aldaba		31892|20267
Pinet		3194|46838
Ourense		32001|32002|32003|32004|32005|32070|32071|32080
Eirexa		32001|32530|32690|32765|32766|32901
Figueiredo		32101|32455
Canda		32135|32549
Ponte		32138|32235|32365|32651|36612
Eirexe		32138|36967
Ariz		32139|31892
Reguengo		32140|32811|32879
Tellado		32141|32811|32815
Peroxa		32150|32150|32950
Barra		32152|32152
Alcouce		32160|32814
Arcos		32172|31210|3530
Pousadoiro		32211|32430
Pousa		32211|32457|32664|32816|32960
Trigueira		32212|32235
Regadas		32212|32432
Carballeiras		32212|32766
Barreiras		32212|32769
Regas		32212|32811
Outeiriños		32212|32950
Noval		32212|36410
Escusalla		32228|32235
Abelleira		32235|32816
Frieira		32236|32430
Barco		32300|32300
Castelo		32311|32696|36156|36450
Vao		32375|36157
Laceiras		32412|32813
Chabolas		32415|32454
Lamas (Santa Maria)		32428|32635
Vilerma		32429|32456
Serra		32433|46118
Carballeira		32448|32455|32901|36910
Reguenga		32453|32455|32516|32691|32751|32950
Touza		32453|32455|32764
Quintas		32453|32456|32514|32577|32641|32690|32812|32850
Casas Novas		32455|32668
Forxa		32456|32643
Castiñeira		32456|32790
Igresario		32512|32514|32514
Penedo		32515|32636|32792
Covelo		32515|36418|36992
Condomiña		32530|32536
Gudiña		32540|32540
Mezquita		32549|32690|32838
Fontela		32573|32693
Chas		32613|32790
Rosal		32613|36770
Salgueira		32618|36990
Albergueria		32622|32705
Rasela		32627|32892
Mosqueiro		32634|32651
Venda		32651|32792
Maus		32654|32848
Espiñeiros		32668|32766
Abeleda		32679|32980
Outeiriño		32691|32769|36612
Venda Nova		32691|36470
Pereiras		32750|32811|32814|32816
Mioteira		32751|32901
Regato		32764|48903
Medorra		32769|32792|32839
Gorgullon		32790|36659
Terrado		32810|32815
Picouto		32810|32900
Corredoira		32811|32814|36612
Arrotea		32815|36412
Ramallosa		32816|36370
Peto		32820|32820
Manchica		32830|30398
Ribeiro		32847|36634
Baños		32848|36729|30626
Cumial		32915|32915
Oviedo		33001|33002|33003|33004|33005|33006|33007|33008|33009|33010|33011|33012|33013|33070|33071|33080|33194
Riello		33111|24127
Hedrada		33111|32552|32748
Torre		33111|33191|33313|33316|33345|33456|5540|9217|15500|15500|15509|15612|15622|15687|27363|32137|32141|32211|32454|32643|32664|32910|36648|36938|3530|46321
Obra		33111|33314
Plaza		33111|39592|48144|20850
Villamayor		33111|5301|37185
Toral		33112|33318
Rebollada		33115|33310|33470|33518|33619|33746|33829|33947|33989
Ronderos		33116|3315
Llanas		33116|33160|33313|33612|33678|33989
Villasante		33116|9569
Llano		33118|33194|33312|33439|33470|33547|33774|33958|39507|39788|48191
Vallina		33119|33186|33314|33448|33459|33909|33935
Pando		33119|33195|33583|27667
Cuestas		33119|33909
Ucedo		33126|24369
Llana		33127|33191|33539|33616|33919|33939|9588
Florida		33127|33314|33679|33876|33958|35107|35559|38311|38434|8130|30565|48500|3189
Barrera		33127|33411|33979|35217
Llamera		33127|33412|33840|24869
Uz		33127|33879
Caliero		33128|33405
San Bartolome		33128|48940|3314
Campas		33129|33194|33450|33637|33768|33876|9585
Muros		33138|15250
Arquera		33140|33867
Siones		33140|9589
Paca		33154|30812
Magdalena		33155|33317|33936|33945|39788|37749|36949|30397|3370
Cepedo		33156|32101
Veiga		33159|15176|15893|32212|32360|32453|32515|32751|32765|32811|32812|32817
Pepin		33159|32625
Tabla		33159|33403|33469|49741
Vara		33160|33161|33528|33617
Cuadros		33160|33313|24620|3740
Marina		33160|33314|38779|3177
Caleyos		33160|33410|33957
Canto		33160|33438|33610|33614|33957|33969|32815
Cantera		33160|33528|33611|33616|33909|33948|39593|35217
Collado		33160|33610|33616|33620|33920|5580|5592|42172|10414|30848|26132
Aguera		33160|33785|39880
Castañar		33160|37715|45126
Cuesta		33161|33187|33188|33394|33401|33429|33492|33518|33518|33519|33580|33582|33683|33986|39513|39791|24740|40181|38320|38713|38727|48508
Mazas		33161|33194
Roza		33161|33311|33547|33580|33682|33909|39813|36937
Vallin		33161|33317|33791
Collada		33161|33519|33612|33695|39738
Figar		33161|33527|33947
Puente		33161|33528|33559|33637|33776|39593|39687|39788
Pumar		33161|33866
Calella		33161|8370
Palacio		33162|33311|33438|33613|33685|5198|32120|32140
Vallinas		33162|33313|33457
Rio		33162|33777|38294|32101|32530|28295|26326
Caleyo		33170|33171|33528|33725|33829|33867|33888|33959
Medio		33170|33825
Condado		33171|33992|39718|32236|32711
Santa Agueda		33171|39450|35128
Carrera		33172|33677|5620|38419
Entrepuentes		33173|39809
Caldas		33174|32515
Campones		33186|33920
Berron		33186|9585
Pumarin		33187|33948|24525
Cabornia		33188|33457
Cristo		33188|39791
Madera		33189|33189|33529
Coto		33189|33840|33936|19170|32449|32530
Carrizal		33189|35240
Paladin		33190|24127
Pereda		33190|33509|33682|33782|33877|9568
Cruces		33190|33617|33785|33795|33838|33879|24521|38460|36770
Estaca		33190|33957
Quejo		33191|24141|1427
Oteruelo		33191|26145
Cida		33191|32537
Cabaña		33191|33191|33416|33459|33518|33519|33529|33580|33610|33827|33919|33920|33945|33946|33947
Llama		33191|33610|33612|33875
Heras		33191|39792|10628
Venta		33193|33194|33310|33313|33469|33617|33685|33708|33719|33869|33934|33950|39550|39593|34310|3169
Rotella		33193|33938|33945
Lloral		33194|33438
Carriles		33194|33592
Granda		33195|33310|33312|33410|33418|33426|33439|33490|33492|33547|33613|33707|33934|33939
Barraca		33195|33639|33682|33949|33949
Cruce		33195|35479
San Rafael		33195|40410|35110
San Torcuato		33196|26291
Rodada		33196|33491
Caseron		33196|35349
Gijon		33200|33201|33202|33203|33204|33205|33206|33207|33208|33209|33210|33211|33212|33213|33290|33299|33350|33394|33691
Casona		33300|33612|33867|33909|33935
Villaviciosa		33300|5130
Cervera		33310|25200
Pino		33310|33317|33416|33457|33580|33687|10514|15821|15823|3110
Piñera		33310|33490|33584|33817|33945
Parte		33310|33519|33539|9133|27410
Naveda		33310|39210
Viñon		33310|39584
Arrabal		33311|16338|36794|28110
Amandi		33311|27423
Llera		33311|33316|33610|33991|6227
Quinta		33311|33618|33619|38390|38677|32228|32455|32455|32633
Puelles		33312|25318
Piqera		33312|33313|33920
Riega		33312|33315|33528
Viña		33312|33638|33818|35215|15313|15313
Singla		33313|30410
Cuartas		33313|32120
Cueva		33313|33538|33910|39650|30160
Cortina		33313|33640|33685|33783
Heros		33313|33679
Terrero		33313|33828|35400
Llosa		33313|33936|9587|12591
Argañoso		33314|24722
Fresno		33314|33316|33426|33829|33948|39860|5197
Cuatro Caminos		33314|35329|3159
Monasterio		33314|39513|34828|42291|19239
Calderon		33314|46390
Manzanedo		33314|9558
Mestas		33315|33727|33795|33817|33986|10624
Sienra		33316|33317|33684
Rasa		33316|33456|33610|33936|33989|42310
Valles		33316|33610|33829|33909|33949|39590|39809|35539|46818
Otero		33316|33791|33818|33890|24415|47169|45543
Espina		33316|33825|33891|33929|24889
Cabañona		33316|33936|33946
Piquera		33316|33958
Busta		33316|39590
Parada		33316|39682
Montoto		33316|9572
Abadia		33317|10748
Busto		33317|15860|31229
Palomera		33317|16192
Pico		33317|33584|39791
Sota		33317|39686
Hera		33317|48500
Mota		33318|17843|27181
Charcon		33318|30889
Tejera		33318|33439|33458|33617|33684|33829|33873|33877|33909|39791|49572|48891|3658|3680
Viesca		33318|33518|33867|33930
Fuentona		33318|33610
Riera		33324|33920|24143
Isla		33341|39195|48314
Monte		33350|33350|33416|33438|33439|33448|33491|33492|33580|33719|33747|33868|15102|27511|27879|36627|48383
Bobia		33350|33777|33920|33969|24124
Salientes		33391|24495
Mata		33391|33438|33518|33558|33818|33825|39409|39595|9141|9589|45534|35629|17846|15149
Olla		33394|3590
Aviles		33400|33401|33402|33403|33404|33405|33460|33490|30812
Montan		33401|12447
Garita		33401|35212
Estrada		33404|33556|33684|33867|39549|36680|36681|36713|3581
Pedreras		33410|3610
Braña		33411|33456|33491|33519|33610|33757|33870|33935|24520|24845|27277
Llascara		33411|33613
Trejo		33411|35280
Huertas		33412|30369|3550
Laguna		33412|33412|33412|39556|42173|35349
Pevidal		33412|33869|33909
Reigada		33414|33829|33889|27411|32785
Fuencaliente		33416|13130|13429|38740
Reguera		33416|33610
Trapa		33416|33776|33877|33929|27112
Espinos		33416|35479
Molleda		33416|39569
Garcia		33416|43749|30153|30331
Nieva		33418|40447
Miranda		33422|27144|30319
Belga		33429|33429
Piedra		33430|33616|9125
Arena		33438|33448|33844|48508
Cabo		33438|33638|33909|33986|25794
Barca		33439|33469|42210
Pueblo		33448|33519|33685|33785|38780
Cabrera		33449|19267|28751
Vioño		33449|39479
Cueto		33450|33460|33527|33610|33935|24545|48880
Altamira		33456|20200
Moire		33456|32138
Navalon		33457|16190
Santa Maria Del Mar		33457|38111
Muro		33457|42108|27368|7440
Bayas		33457|9218|3292
Castro		33459|33556|33775|33887|33891|24526|42315|38611|15168|15846|27664|32453|32530|32563|32664|32690|32692|32764|32787|32812|32813|36415|36518|36518|36546|36789
Banda		33459|35269
Plata		33459|35299
Pedrero		33460|33825
Gudin		33468|32637
Velilla		33469|24127|40173|47114|26133
Redal		33469|26146
Montegrande		33469|32515
Cruzada		33470|33470
Mora		33470|33638|45400|25218
Ponton		33470|33934|32890|46357
Areñes		33470|33936
Solis		33470|35320
Moriana		33470|9219|30848
San Sebastian		33490|32455
Iglesia		33491|33639|39527|39791|39791|39813|39880|15565|15685|15685|15689|15689|15985|48880
Arenas		33491|39593|9585|38312
Empalme		33492|15688|32100
Convento		33492|38441
Calera		33492|39805|35489|38870|10137|3110
Llanes		33500|33909
Puente Nuevo		33507|5278
Malateria		33508|33619
Portiella		33509|33828
Brañuca		33518|33527
Rebollar		33518|33580|9568|40389|42165|10617|46391
Corros		33518|33782
Felguera		33518|33930
Capilla		33518|33939|33946|6612
Camino		33518|39849
Carril		33519|33694|33909|24441|35413
Rebollal		33519|33948
Acebal		33527|33580|33891|33947
Carbayal		33527|33949
Riba		33527|9514|24892|43450|15863
Casa Del Monte		33528|39718
Orizon		33529|27271
Llares		33534|39450
Santa Leocadia		33535|24469
Maza		33535|39760
Comba		33536|33946
Cuevas		33536|39593|9585|35329|35350|38150|38314|46313
Peñueco		33536|48800
Tercias		33539|33685|33969
Pandoto		33539|39687
Vita		33549|5146
Salce		33555|24132|49211
Escobal		33555|33909|33957
Molina		33555|39587|39592|17537
Menores		33556|35432|38677
Con		33556|36989
Viego		33558|24856
Santillan		33558|39548|9347
Helgueras		33559|39569
Mazo		33579|33707|33778|33889|39593|39809|38730|32348
Bores		33579|39577
Para		33579|9567
Faya		33580|33582|33946|33989
Goleta		33583|35118|35400
Brez		33583|39587
Caldevilla		33584|24914
Frecha		33584|33629|39587
Borbolla		33590|33820
Vilde		33590|42311
Pria		33591|33617
Picones		33592|37256
Hontoria		33593|40195
Bricia		33594|9572
Benejuzar		3360|3390
Campeta		33600|33958
Fortuna		33610|30620|28917
Caborno		33610|33792
Ceposa		33610|33909
Pila		33610|3599
Flecha		33610|37193|47195
San Bernardo		33611|47359|38479
Cabanin		33614|33617|33787
Rioturbio		33614|39528
Caseta		33615|33617|33637|33678|33948|32370|32455|32740
Pradon		33615|33617|33909|33959
Longa		33616|33785|33946
Carba		33616|33989
Barrio Solano		33616|9133
Barrio		33617|33867|5514|32101|32690|32765|32899|1423
Seana		33618|25262
Fonda		33618|33818
Mariana		33619|16143
Ladredo		33619|32120
Padrun		33619|33695
Carbonero		33619|33958
Coca		33619|40480
Montealegre		33620|24379
Redondo		33629|9568
Armada		33638|15520|32816
Viñas		33640|33799|33841|32455
Rebollo		33640|33888|33909|40184
Pontarron		33640|39788
Quintanas		33650|33686|33910|33969|35488
Mortera		33669|33785|33828|33878|39120
Monegro		33669|39292
Pena		33675|33683|15181|15181|15838|32448|32454|32454|32636|32678
Provia		33675|33685
Rueda		33677|39790|47490
Baiña		33682|36528
Lavandera		33683|24837
Tarancon		33684|16400
Pinedo		33685|1427
Veguellina		33685|24323|24512
Barrosas		33685|24521
Lagar		33685|32960|32981
Navedo		33693|39580
Nocedo		33693|9142|27329
Malvedo		33694|32950
Espin		33697|33710|33877
Belen		33707|10292
Candanosa		33708|33785
Figal		33708|33829
Linera		33717|33794
Carcobas		33717|39777
Sequeiro		33718|15550
Couz		33718|33891
Zorera		33718|33909|33920
Castanedo		33718|39150
Escas		33719|25594
Barqueros		33719|30179
Loza		33719|31195|1212
Armental		33719|32120
Aspra		33719|32634
Villalonga		33719|46720
Cabanas		33725|15621|32778
Camara		33728|3600
Valleseco		33729|38150
Vista Alegre		33730|30399
Villarmayor		33730|37130
Montaña		33734|39300|35280|35415|35539
Villaseca		33734|40317|16144|26212
Sequeiros		33735|27329|32764
Coba		33738|33778
Franco		33746|9215
Ventosa		33747|16843|19392|26371
Roda		33747|33769|2630|30739
Penela		33749|27414|32120
Pedralba		33749|46164
Caridad		33750|33829|38340|15339
Godella		33758|46110
Ferrol		33769|15401|15402|15403|15404|15405|15406|15470|15471|15480|15490|15590|15591|15592|15593|15594|15595
Cal		33769|15627|32138|32669
Moldes		33769|24521|32514
Vale		33769|27689
Matela		33774|27150
Pereira		33775|15837|32448
Les		33775|25540
Navallo		33775|32610
Piñeiro		33775|32930|36873|36959
Souto		33776|15181|15181|32212|32456|32668|32816|32849|32950
Montouto		33776|27737
Paramios		33776|32141
Garganta		33776|33939|14449|10759
Martul		33777|27155
San Mamed		33777|49518
Vilar		33778|17246|15176|15551|15640|15967|32120
Santalla		33778|24445
Balmonte		33778|27259
Porqueira		33778|36340
Graña		33779|15590|15590|15967|27730|32678|36873|36939
Pumarega		33779|27143
Quintela		33779|27258
Malata		33780|15405
Ribon		33780|27655
Gamones		33780|49251
Colinas		33782|19170
Lago		33783|32575
Paredes		33785|16465|35339|38726|30369|3187
Mones		33785|32357
Murias		33785|33829|24142|49359
Rozos		33785|33844
Fontoria		33787|24434
Cadavedo		33788|27287
Vigo		33790|9589|36201|36202|36203|36204|36205|36206|36207|36208|36209|36210|36211|36212|36213|36214|36215|36216|36270|36271|36280|36281|36282|36310|36312|36313|36314|36315|36317|36318|36330|36331|36339|36390|36392
Pontigas		33791|33877
Santiago		33791|38810|48291
Lois		33794|24991|15380
Tombin		33794|33794
Porto		33796|49583|32312|32357
Santiso		33810|15808|32706
Boiro		33810|15930
Folgoso		33810|27325
Marentes		33811|27113
Eiros		33811|33875
Viliella		33813|25726
Fraguas		33813|39450|42192
Ciella		33814|9588
Ordial		33816|19244
Veguilla		33816|39538
Carballo		33817|15100|15176|32779|32815
Tiendas		33817|33874
Trascastro		33818|24429
San Juan Del Monte		33818|9490
Villacanes		33818|9556
Javier		33825|31411
Corradas		33825|33867
Casucas		33825|33909
Pozanco		33825|5292
Llanon		33826|33891
Villagarcia		33826|37467
Cortes		33826|9193|15920|27611|32779|31530|48500
Barreiros		33827|32817
Espinosa		33828|17536
Morana		33828|25211
Fojaca		33828|33828
Fornos		33829|33949|32890
Belmonte		33830|39557|16640|32900
Antoñana		33836|1128
Estacas		33836|37116|36851
Pineda		33841|8415|43481
Villamor		33841|9512
Aguasmestas		33842|24133
Salas		33860|24990
Hospital		33865|27320|27347|28755
Candano		33866|33891
Pozo		33867|38688
Calzada		33868|35017
Ocio		33870|1212
Miño		33874|15630
Genestosa		33874|24144
Rebollosa		33874|37617
Sobrado		33875|15813
San Facundo		33875|24378
Arganza		33875|24546|42141
Santa Marta		33876|2639|6150
Sorriba		33876|38449
Couto		33877|15178|15846|36886
Cueta		33878|24141
Orrea		33878|27744
Fayona		33878|33948
Casilla		33879|33969
San Emiliano		33885|24144
Fonteta		33887|17110
Barras		33887|32449
Villalain		33887|9554
Montefurado		33888|27390
Moure		33890|32152
Rubias		33891|27191
Barracas		33891|30385|12420
Rañadoiro		33891|32812|32880
Curriquera		33891|33891
Cuerva		33891|45126
Güeria		33909|33935|33939
Campa		33909|33939
Casuca		33909|33946|33957
Maderal		33909|49719
Presa		33910|48891|46940
Corro		33929|1427
Barros		33930|39408|38768
Moral		33935|33979|30413
Casanueva		33935|37452
Saus		33936|17467
Candin		33936|24433
Pozos		33936|24738
Saldaña		33936|34100
Cubo		33945|48480
Camperona		33946|33946
Lloseta		33946|7360
Revenga		33946|9228|40195
Ciñera		33947|24660
Collau		33947|33969
Nespral		33948|33957
Villacedre		33949|24009
Casorra		33949|33979
Restinga		33957|38917
Pared		33957|39805|2213|35627
Gallega		33958|9612|38107
San Mames		33969|28739
Milana		33969|42218
Portillo		33969|47160|35328
Forno		33979|36647
Villoria		33986|37339
Ribota		33987|40513
Palomas		33989|38617|6476
Gamonal		33989|45613
Nieves		33990|9566|45191|38670|38713
Palencia		34001|34002|34003|34004|34005|34006|34070|34071|34080
Carbonera		34117|26588
Olmillos		34190|42345
Espinar		34310|40400|40400|19223|28310|30329
Valdespina		34419|42218
Pozancos		34492|19265
Villanueva De La Torre		34828|19209
Matabuena		34829|40163
Gramedo		34846|49319
Benidorm		3500|3501|3502|3503|3508
Palmas De Gran Canaria		35001|35002|35003|35004|35005|35006|35007|35008|35009|35010|35011|35012|35013|35014|35015|35016|35017|35018|35019|35070|35071|35080|35220|35229
Montañeta		35017|35300|35319|35400|35468|38419|38459
Cortijo		35018|35432
Suerte		35018|35458|35489
Matorral		35107|35600
Lomo Del Moral		35107|38879
Palmitos		35109|35413
Tablero		35109|35421|38107
Union		35110|30360
Rosas		35118|35468|35478|38290|38428|38594|38631|38767|38890
Aldea Blanca		35119|38628
Charca		35120|30859
Crucitas		35128|35369|38441
Peñones		35128|35412
Horno		35128|38411
Vento		35128|38649|36617
Pasitos		35149|35478
Almacigos		35149|38812
Cercado		35149|38869
Telde		35200|35210|35211|35212|35213|35214|35215|35218|35219|35220
San Borondon		35212|38779
Majadilla		35213|35488
Calero		35215|35329
Helechal		35216|6613
Roque		35217|35259|35368|35414|35650|38570|38629|38729|38789
Majuelo		35217|35369|30394
Goteras		35218|35307
Palmital		35218|35458
Sequero		35250|35299|26150
Cueva Bermeja		35260|38180
Eden		35269|3791
Culata		35299|35368
Tosal		3530|3749
Estanco		35300|35307|35328
Palmeral		35300|35480|3360
Palmarejo		35309|38820
Bebedero		35310|38310
Mocanal		35310|38916
Ariñez		35328|1195
Lomito		35328|35413|35431
Chorrillo		35329|35368|38109|3600
Longueras		35329|35489|38441
Asomada		35329|35571|35612|38628|30559
Lomo		35330|35411|35479
Toscas		35338|38715|38811
Peñas		35339|30629
San Matias		35339|38108
Escobonal		35339|38591
Coruña		35350|15001|15002|15003|15004|15005|15006|15007|15008|15009|15010|15011|15070|15071|15080|15190
Candelaria		35350|38509|38530
Degollada		35369|35468|38589
Hinojal		35413|10192
Guincho		35413|38458|38639
Palmita		35413|38727|38890
Risco		35414|35432|6657
San Felipe		35414|38430
San Andres		35414|48370|26126
Cardones		35415|35470
Toscales		35422|38626
Fronton		35422|38629|27437
Carreras		35422|48500
San Anton		35431|48380|26289
Dolores		35432|3150
Caldera		35432|38660
Guia		35450|36955|30391
Corralete		35469|38829
Cardonera		35478|38150
Rosa		35479|38739|38758
Mezquitas		3550|3560
Caletas		35508|38749
Puntas		35509|38911|43120|3350
Mojon		35539|30130|30740|30849|30868
Casitas		35570|35629|3187
Puerto Azul (Urbanizacion)		35629|3530
Piedra Hincada		35629|38687
Charco		35629|38749|30594|3570
Alfas Del Pi		3580|3581
Tosalet		3580|3739
Pontevedra		36001|36002|36003|36004|36005|36070|36071|36080|36143|36156|36160|36161|36162|36163|36164
Cati		3610|12513
Tomadas		36360|36370
Xesteira		36370|36690
Porriño		36400|36400
Fuente La Reina		3660|12428
Cañiza		36880|36888
Igrexario		36911|36915|36958
Grove		36980|36989
Salamanca		37001|37002|37003|37004|37005|37006|37007|37008|37009|37071|37080
Cometa		3710|3724
Ledesma		37100|15882
Arco		37110|35307|35412
Zorita		37116|10130
Sagrada		37116|37465
Argentina		37129|7730
Quejigal		37130|2448
Becerril		37148|40510
Zaratan		37170|47610
Almendra		37176|49183
Pinilla		37188|2692|30335|30410
Gema		37219|49151
Sobradillo		37246|35469|38107
Boada		37290|25736
Cordovilla		37337|2513|31191
Moriscos		37430|35259
Tejado		37440|42128
Matilla De Los Caños		37450|47114
Castroverde		37452|32901
Veguillas		37454|19238
Aldea Del Obispo		37488|10291
Barquilla		37488|10318
Bouza		37488|32430|32981|36639
Robleda		37521|49321
Hondura		37607|35413|38311
Bastida		37621|27112|36389|1330
Alberca		37624|45489|30150|3520
Santa Maria De Los Llanos		37682|16639
Molinillo		37683|13194
Buenavista		37789|35468
Pardo		37874|28048
Alcoi/Alcoy		3800|3801|3802|3803|3804
Santa Cruz De Tenerife		38001|38002|38003|38004|38005|38006|38007|38008|38009|38010|38070|38071|38080|38107|38110|38111|38160|38170|38320
San Cristobal De La Laguna		38108|38200|38201|38202|38203|38204|38205|38206|38207|38208|38291|38293|38296|38320|38329
Portezuelo		38292|10828
Socorro		38292|38508|38712
Mercedes		38293|32680
Montijo		38310|6480
Luz		38312|38340
Toscal		38417|3738
San Marcos		38430|15820
Cañas		38434|26325
Genoves		38459|46894
Barranco Hondo		38510|30814
Araya		38540|12119
Vilaflor		38613|32811
Salto		38617|36539
Manchas		38690|38759
San Simon		38738|32812
Jesus		38780|43590
Santander		39001|39002|39003|39004|39005|39006|39007|39008|39009|39010|39011|39012|39070|39071|39080
Langre		39160|24438
Ajo		39170|5370
Castillo		39193|24132|35610|38788|10638|1194
Santiuste		39197|5592|42193|19245
Lomba		39210|24388|15948
Fontecha		39212|24250|1423
Nestares		39212|26110
Fresno Del Rio		39212|34889
Serna		39212|39230|39450|24879|34128|28500
Retortillo		39213|37495
Fombellida		39213|47184
Aguilera		39213|9370|42366
Sobrepeña		39250|9557|24870
Montecillo		39250|9569
Mercadal		39311|7740
Polanco		39313|3350
Mijares		39314|5461
Cortiguera		39350|9146|24412
Herran		39360|39718|9212
San Mateo		39400|35320
Barcena		39409|39849
Montesclaros		39417|45620|28412
Rebolledo		39418|3113
Hoyos		39418|39880|10850
Quintanillas		39418|9131|9515
Bercedo		39418|9569
Sotillo		39419|40311|13429|19491
Santa Maria De Valverde		39419|49333
Meson		39430|35329
Molledo		39430|38690
Mura		39430|8278
Pedredo		39450|24720
Arce		39478|9218
Pesquera		39491|39770|5515|24815|16269
Villanueva De La Peña		39509|34859
Concha		39527|39593|39690|39728|19287|48891
Trasierra		39527|6909
Pumares		39550|39723
Cotera		39553|39593|39593
Barcenas		39553|48891
Lastra		39555|5592|34887|27133
Tudanca		39555|9146
Santotis		39555|9549
Salceda		39557|40171
Valdeprado		39574|42181
Areños		39582|34849
Treviño		39582|9215
Cobeña		39584|28863|28864
Baro		39587|9510|25593
Casas Nuevas		39592|16318|35214|3749
Pontejos		39618|49191
Encina		39627|37515|3408
Villabañez		39660|47329
Vargas		39679|35269
Presillas		39679|9233
Retuerta		39682|5693|9347
Peredilla		39686|24609
Corvera		39697|30153
Entrambasaguas		39715|9585
Mirones		39723|13739
Rellano		39727|30627
Mercadillo		39727|5154|9588|48190
Rada		39764|31383
Callejo		39770|48890
Lugarejos		39788|35350
Francos		39788|40514
Ranero		39788|48890
Pomar		39788|9513|25213
Angostina		39788|9588|1118
Paderne		39790|15314|27146
Gama		39790|34815
Pomares		39790|3669
Bodega		39791|3159|3317
Cañedo		39806|37799
Matienzo		39812|48890
Tabladillo		39813|24722|40122|19129
Aparecida		39849|30395|3311
Regada		39849|32817|32879
Bernales		39849|48891
Cerro		39860|37720
Cereceda		39860|5620|9559|19128
Altura		39880|12410
Matanza		39880|35220|15917|30148|30628|3316
Segovia		40001|40002|40003|40004|40005|40006|40070|40071|40080
Almeria		4001|4002|4003|4004|4005|4006|4007|4008|4009|4070|4071|4080
Palmer		4002|7630
Santovenia		40135|49750
Abades		40141|32633
Monterrubio		40142|49324
Madrona		40154|25286
Gallegos		40162|38727|3349
Casas Altas		40165|38357|30398|46147
Pedraza		40172|42162
Matilla		40175|19412|35613
Cubillo		40185|2340|16315
Valdesaz		40318|19412
Torrecilla Del Pinar		40359|19392
Cabezuela		40396|45489|30412|46199
Losa		40420|16707
Huertos		40490|16338|3300
Negredo		40512|19245
Cincovillas		40518|19277
Gomeznarro		40518|47493
Barbolla		40530|42291|19269
Carabias		40540|19266
Sevilla		41001|41002|41003|41004|41005|41006|41007|41008|41009|41010|41011|41012|41013|41014|41015|41016|41017|41018|41019|41020|41070|41071|41080|41092
Dos Hermanas		41089|41700|41701|41702|41703|41704
Campohermoso		4110|24849
Viso		4113|14470|33748|33814|33929|37798|2214|45122|27346|32211|32811|36370|36810
Cortijillos		4114|11379
Polopos		4114|18710
Torre Del Campo		4114|23640
Nietos		4117|30383|30710
San Jose		4118|38428|3360
Jarilla		41300|10728
Rinconada		41309|45516
Retamar		4131|13598|38690
Pajares		41320|33693|9212|16145|19413
Villanueva Del Rio		41359|34131
Jarillas		41360|28760
Pedroso		41360|33314|33556|33615|39649|26321
Carboneras		4140|21208|38294
Carmona		41410|39558
Campana		41429|38109|30813
Peñaflor		41470|33829
Vereda		41470|35110
Argamason		4149|2327
Cañarico		4149|30849
Gallo		41560|3640
Pedrera		41566|33194|33390|33449|33457|33491|33580|45489|35412|3700
Rubio		41568|8719
Monjas		41600|28420|46310
Paradas		41610|33887
Calvario		41610|35450|15405|36770
Utrera		41710|24127
Cuervo		41749|44134
Montellano		41770|48191
Pilas		41840|39793|39806
Garrobo		41888|30879
Peralejo		41898|28211
Alamo		41898|35339|28607
Camas		41900|33529
Nudos		4200|4213
Soria		42001|42002|42003|42004|42005|42070|42071|42080|35128
Vega		4211|14815|41100|33311|33314|33316|33345|33392|33422|33529|33582|33686|33695|33697|33825|33869|33929|39593|39723|39727|39860|45489|38439|38890
Turrillas		4211|31421
Rambla Honda		4211|4271
Saltador		4211|4694
Almenar		42130|25126
Guijosa		42141|19263
Hinojosa		42142|16435|19334
Blanca		42147|35110|30540
Cubillos		42148|49730
Royo		42153|2129
San Gregorio		42167|20211
Canos		42180|25218
Camaretas		42190|35329
Ituero		42191|2314
Miñosa		42216|19278
Perdices		42218|45593
Jubera		42257|26131
Carmen		4230|33567|33929|37170|3315
Fuensanta		4230|4691|11630|18328|29130|2129|2637
Olmeda		42313|16336
Perera		42315|35299
Osma		42318|48269|1426
Arenillas		42368|35319
Campamento		4240|11314|15171
Cumbre		4270|10270
Pilar		4270|4271|4662|38107
Molinos		4270|4828|22338|22583|44556|33195|5593|35479|25512|28460|3600|3640|3660
Herrera		4271|23315|41567|9221|2162|48869
Dioses		4271|29195
Alameda		4271|29530|33612|5516|42126|13379|28880
Puntal		4271|30100|30385
Ramos		4271|30589
Fonte		4271|33411
Jarales		4271|37799|30811|28250
Marchal		4271|4274|4810|4850|4867|18516
Martinez		4271|4811|33193|5151|30398|30591|3177
Morales		4274|14012|14960|42366|26259
Rincon		4274|4660|14700|41440|33518|35216|35330|35369|38314|10690
Canal		4274|4770|33584
Arroyos		4275|30398
Carrasco		4277|23293|37217
Urra		4277|31272
Perales		4277|34133
Campico		4277|4288|3600
Herradura		4277|4647|11339|18697|35613
Andreses		4278|21239
Castaños		4278|33892|48500
Albarracin		4279|44100
Moras		4279|4770|29150
Pinos		4288|21600|24144|35217|25287|48940|3315|3710|3720
Pinar		4288|33800|47153|38789|38914
Collados		4288|44211|33583|33684|2449|16143
Herreria		4289|14129|39553|39592|2124|19342
Huelga		4289|14620|33313|33469|33935
Tarragona		43001|43002|43003|43004|43005|43006|43007|43008|43070|43071|43080|43130
Reus		43200|43201|43202|43203|43204|43205|43206
Piles		43428|46712|46712
Poblet		43448|3560|46635
Plana		43461|3791|3830
Cenia		43560|3640
Miramar		43813|46711|46711
Salomo		43885|3570
Teruel		44001|44002|44003|44070|44071|44080|44195
Vallecillo		44123|24324
Arroyofrio		44123|2462
Cuba		44141|33160
Camarillas		44155|3658
Campos		44158|33311|33317|33639|42173|36988|7630
Cuevas Labradas		44162|19392
Aldehuela		44192|5593|19354|10638
Celadas		44194|9150
San Blas		44195|33317|49524|35458|20400
Mondujar		4420|18656
Piedrahita		44212|39197|5500
Godos		44221|33119
Villanueva Del Rebollar		44223|34309
Tornos		44230|33677|33876
Poyo		44392|49524
Alba		44395|33867|43815|43839
Valdelinares		44413|42318
Cerezos		44422|3739
Fonfria		44492|24378|49510
Nogueras		44497|46351
Olmos		44557|2437|3110
Castellote		44560|19392
Fresneda		44596|33557|39518|45651|1426
Fondon		4460|32930
Escucha		44770|33490|30813
Salcedillo		44793|34829
Alcolea		4480|14610
Norias		4500|4690|3312
Toledo		45001|45002|45003|45004|45005|45006|45007|45008|45070|45071|45080
Adelfas		4510|3710
Camino Real		4510|50692|33314
Alares		45138|35639
Hontanar		45159|46178
Ocaña		4530|45300
Nacimiento		4540|14950
Piletas		4549|35018
Navarros		4549|4662|35140|30390
Rojas		4549|9246
Oropesa		45560|38727
Estrella		45574|35212|26340
Alcubillas		4558|13391
Tablas		4559|11400|33128
Almendral		4559|6171
Paulenca		4560|18519
Minas		4560|4693|2499|28250
Gargantilla		45671|10749
Lagunas		45730|35280
San Francisco		4600|14550|33610|35200
Valencia		46001|46002|46003|46004|46005|46006|46007|46008|46009|46010|46011|46012|46013|46014|46015|46016|46017|46018|46019|46020|46021|46022|46023|46024|46025|46026|46035|46070|46071|46080
Rozas		4610|29718|33910|49357
Era Alta		4610|30168|3169
Realengo		4610|3339
Cirera		4610|43427
Palomares		4617|14950
Cuevarruz		46178|46178
Martinete		4618|14940|33470|15008
Cunas		4618|24738
Silos		4618|35308|35468|38470
Morro		4618|38700
Lobos		4619|35660
Portilla		4619|39776|9214|16141|1212
Vera		4620|38390
Puerto Rey		4621|45672
Marinas		4621|4740|33190|30396
Real		4628|27633|32312|46194
Huerta		4629|33945|37336|40164|10629|3110|3350
Alcantarilla		4638|14940|2489|30820
Molino		4640|33457|33919|35308|35468|30442|3509
Canalejas		4647|24170
Fuente		4647|33190|33401|33610|33680
Cocon		4648|30889
Estacion		4649|14600|14880|14940|33618|39809|36430
Fuente Del Pino		4650|2129|30528
Llanos		4650|4660|4692|14729|14940|29593|29793|33687|33814|33829|33957|39582|39627|35110|35149|35339|35468|38617
Puig		46540|46540
Prado		4660|33491|39805|49638|32101|32812|32823|32910|3658
Perla		4660|43893|3530
Chopo		4660|46178
Cojos		4660|46354
Hoya		4660|4693|4850|39593|37716|30816|28297
Concepcion		4662|14816|35307|38677
Santa Barbara		4662|33957|38434|43570|20120
Daimus		46710|46710
Tavernes De La Valldigna		46760|46760
Goñar		4690|30891
Pedregales		4691|38768
Abejuela		4691|44422|2439
Carrillos		4692|30649
Pardos		4692|4827|19336
Piedras		4693|14950
Gor		4693|18870
Fuente Amarga		4693|30593
Loma		4693|39418|19441|30334|30594
Menas		4693|4890
Santo Domingo		4700|14029|33410|37116|38441|6108
Valladolid		47001|47002|47003|47004|47005|47006|47007|47008|47009|47010|47011|47012|47013|47014|47015|47016|47017|47018|47070|47071|47080|47152|47153|47197
Redonda		4710|37247
Geria		47131|35570
San Agustin		4717|44480|35100|48230
Villanueva De Los Infantes		47174|13320
Aguadulce		4720|41550|38687
Muriel		47219|19225
Peñafiel		47300|38290
Roturas		47316|10373
Melida		47318|31382
Lomilla		4738|34815
Mojonera		4745|14480
Cid		4760|3610
Corral		4770|33116|39460
Parra		4770|4827|33311|33457|5400|6176
Perez		4770|4897|14950|41599|30398|3187|3315
Toril		4778|29711|10521
Alcazaba		4778|6182
Campillo		4779|4811|21650|23269|41430|44121|39696|47460|49183|2462|19495|48500
Alqueria		4779|4829|30528|12448
Bilbao		48001|48002|48003|48004|48005|48006|48007|48008|48009|48010|48011|48012|48013|48014|48015|48070|48071|48080
Oria		4810|20160
Gonzalez		4810|33162
Ermita		4810|33315|39790
Madrid		4810|39791|28001|28002|28003|28004|28005|28006|28007|28008|28009|28010|28011|28012|28013|28014|28015|28016|28017|28018|28019|28020|28021|28022|28023|28024|28025|28026|28027|28028|28029|28030|28031|28032|28033|28034|28035|28036|28037|28038|28039|28040|28041|28042|28043|28044|28045|28046|28047|28048|28049|28050|28051|28052|28053|28054|28055|28070|28071|28080|28082|28083|28085|28086|28087
Alamos		4811|11379|38713|28279
Cañada		4811|11379|5294|37269|35459|35560|3409|3699|46182|46351
Margen		4811|18891
Gazquez		4811|4820
Zurbao		48110|1520
Villar		4813|14115|21649|39210|2459|13597|30442|48980
Labores		4814|13660
Olabarri		48140|1428
Santa Lutzia		48140|20400
Urkizu		48140|20400
Arantzazu		48140|20567
Areatza		48143|1129
Morillas		4815|1428
Izartza		48150|1194
Ugaldeguren (Santimami)		48160|48170
Geldo		48170|12412
Lezama		48196|1450
Mendiola		48220|20550|1194
Gazeta		48230|1192
Sarria		48240|1139
Eitzaga		48260|20808
Cabreras		4827|35507
Galartza		48277|20550
Bolibar		48278|1194
Dehesa		4828|21669|2139|35415|35458
Carrasca		4828|4858|14813|23614|37217|46178
Casas		4829|11688|42190|13196|35217|35308|38649|38829|38914|15569|30330|46313
Solana		4829|2127|13240|35218|35328|35328|35368|35412|3189|3688|3728
Losilla		4829|24860|42181|49161
Canales		4830|18191|33828|33969|5212|30817|30859|12469
Errenteria		48300|20100
Loiola		48383|20730
Topares		4839|30369
Cobatillas		4839|44157|30163
Jauregi		48390|20120|1207
Uribarri		48498|20568|1169
Zubialde		48499|20749
Casicas		4850|30319|30629|30739|30890|3158
Palmera		4858|46714
Noria		4860|43839
Elortza		48610|1129
Gandia		48630|46700|46701|46702|46703|46728|46730
Palomar		4869|14512|23479|41610|3158|46891
Olivar		4869|18860|29195|19133
Tijola		4880|18418
Higueral		4887|14979|23488
Cela		4887|33735|24510|32879
Ambasaguas		48890|26586
Barakaldo		48900|48901|48902|48903
Getxo		48930|48990|48991|48992|48993|48998
Arriaga		48950|1013
Altzaga		48950|20248
Brevas		4897|11520
Vegas		4897|14900|33111|33114|33318|33774|45691|35216|35328|38594|3530
Aldeire		4897|18514
Valle		4897|18658|22348|33191|33311|33312|33314|33490|33527|33638|33679|33783|33818|33877|33909|33910|33934|24315|34829|35280|27861|48508|3530
Hernandez		4899|30330
Reconco		4899|33580
Zamora		49001|49002|49003|49004|49005|49006|49007|49008|49009|49010|49011|49012|49013|49014|49015|49016|49017|49018|49019|49020|49021|49022|49023|49024|49025|49026|49027|49028|49029|49030|49031|49032|49070|49071|49080|49159|49180|35349
Pego		49154|3780
Valparaiso		49318|43881
Entrepeñas		49325|19131
Sampil		49390|32817
Terroso		49394|32616
Castromil		49572|32548
Hedroso		49574|32558
Villanueva De La Sierra		49580|10812
Pias		49580|27290
Benavente		49600|6519
Perdigon		49720|35415
Toro		49800|32621|7180|12429
Zaragoza		50001|50002|50003|50004|50005|50006|50007|50008|50009|50010|50011|50012|50013|50014|50015|50016|50017|50018|50019|50021|50022|50059|50070|50071|50080|50090|50197
Avila		5001|5002|5003|5004|5005|5070|5071|5080|5194
Lugar Nuevo		50213|2459
Berrueco		50373|28192
Abanto		50375|48500
Tortoles		50514|5514
Luna		50610|1439
Pedrosas		50612|33693
Sabinar		50617|30441
Casetas		50620|33617|9589
Artieda		50683|31480
Longas		50688|33785
Campo Real		50689|32813|28510
Bayo		50694|33639
Ceuta		51001|51002|51003|51004|51005|51070|51071|51080
Morisco		5114|35280
Serranillos		5115|45646
Villarejo		5120|40590|2139|26325
Robledillo		5130|45676
Villaverde		5140|35640|1118
Casasola		5140|37452|2124
Duruelo		5140|40312
Montalbo		5152|16440
Ventosa De La Cuesta		5154|47232
San Pascual		5166|3339
Serrada		5192|47231
Brieva		5194|40180
Melilla		52001|52002|52003|52004|52005|52006|52070|52071|52080
Langa		5213|16550
Palacios Rubios		5216|37406
Cortos		5289|40312|42180
Crespos		5300|9572
Cardeñosa		5320|37799|19269
Villaflor		5357|49165
Castilblanco		5357|6680
Hontanares		5418|19413
Gavilanes		5460|24285|38589|3315
Raso		5489|35307
Higuera		5491|40191|2693|35329|38616|10359
Salobral		5520|2140
Oco		5520|31281
Guareña		5540|6470
Poveda		5560|28500
Ribera		5571|30385|1427
Pajarejos		5571|40567
Avellaneda		5580|48869
Carrascalejo		5580|6894|10331|30189
Valdelaguna		5592|28391
Narros		5621|42189
Casas Del Rey		5621|46310
Lastrilla		5630|39419|40196
Herguijuela		5631|10230|10591
Angostura		5631|35309
Loros		5691|38849
Badajoz		6001|6002|6003|6004|6005|6006|6007|6008|6009|6010|6011|6012|6070|6071|6080
Zafra		6300|32510|3408
Guarda		6459|36780|36780
Campanario		6460|15999|36618
Entrerrios		6710|32227
Palma De Mallorca		7001|7002|7003|7004|7005|7006|7007|7008|7009|7010|7011|7012|7013|7014|7015|7070|7071|7080|7120|7121|7122|7198|7199|7600|7610|7611
Galilea		7195|26144
Alcudia		7400|3820|46250
Arta		7570|48278
Murta		7700|30153
Mao		7700|7701|7702|7703|7714
Siesta		7849|3600
Barcelona		8001|8002|8003|8004|8005|8006|8007|8008|8009|8010|8011|8012|8013|8014|8015|8016|8017|8018|8019|8020|8021|8022|8023|8024|8025|8026|8027|8028|8029|8030|8031|8032|8033|8034|8035|8036|8037|8038|8039|8040|8041|8042|8070|8071|8075|8080
Estany		8148|46409
Sant Cugat Del Valles		8171|8172|8173|8174|8190|8195|8196|8197|8198
Moia		8180|27655
Rieral		8187|8469
Fonts		8194|8228|3520
Planes		8196|3709|3828
Sabadell		8200|8201|8202|8203|8204|8205|8206|8207|8208|8805
Terrassa		8220|8221|8222|8223|8224|8225|8226|8227|8228
Manresa		8240|8241|8242|8243|8248
Enfesta		8281|15884
Pujalt		8282|25568
Mataro		8300|8301|8302|8303|8304
Santa Susanna		8398|25290
Granollers		8400|8401|8402|8403|8404
Tordera		8490|25218
Lluça		8514|25514
Garriga		8530|7120|3170
Aiguafreda		8591|17255
Montclar		8605|25317
Beguda Alta		8635|8782|8791
Sallent		8650|17811
Casetes		8729|17535
Carme		8787|27748
Roquetes		8812|43520
Hospitalet De Llobregat		8900|8901|8902|8903|8904|8905|8906|8907|8908
Badalona		8910|8911|8912|8913|8914|8915|8916|8917|8918
Santa Coloma De Gramenet		8920|8921|8922|8923|8924
Burgos		9001|9002|9003|9004|9005|9006|9007|9070|9071|9080
Congosto		9124|24398|16771
Rad		9125|37449
Corralejo		9127|28190|35660
Bustillo Del Paramo		9129|24357
Lodoso		9131|27215
Tobar		9133|16879
San Felices		9143|42113|26292
Mansilla		9150|40591|26329
Villamorico		9199|24234
San Medel		9199|37791
Tobera		9211|1211
Santa Coloma		9212|26315
Armentia		9215|1007
Arrieta		9215|35542|31438|48114|20215|1206
Arana		9215|48300
Estepar		9230|3819
Cayuela		9239|9585
Hermosilla		9246|38768
San Cristobal Del Monte		9259|37799
Rabanos		9268|42191
Anguix		9313|19119
Villaverde Del Monte		9339|42145
Villafruela		9344|34310
Covarrubias		9346|42212
Guimara		9349|24429
Santa Ines		9390|37891|42156
Montuenga		9390|40464
Arandilla		9410|19345
Ventosilla		9443|24687|40165
Pardilla		9462|35213
Vid		9471|24670
Casanova		9490|32141|32212|32455|32792
Vado		9513|19223
Santurde		9514|1211|26260
Cerca		9514|15365|15965|48890|3360
Recuenco		9514|19492
Eras		9514|2214|38570|38592
Baillo		9515|24740
Orden		9549|25721
Fresnedo		9553|24492
Barriosuso		9553|34470
Horna		9554|2691|19264
Quintana De Rueda		9555|24930
Arges		9558|45122
Rioseco		9558|48890
Santa Olalla		9567|45530
Riaño		9572|24900
Santelices		9574|48550
Santecilla		9585|48890
Arceo		9587|15818
Valluerca		9588|1427
Fuentes		9588|16193|28691|12579
Anzo		9589|35459
Arconada		9592|34449
Carazo		9611|27272
Gete		9612|24837
Bezares		9614|26312
Huerta De Arriba		9614|30566
