name,districts,zipcodes
Aberdeen,Scotland,AB1|AB2|AB3|AB4|AB5|AB9|AB10|AB11|AB12|AB13|AB14|AB15|AB16|AB21|AB22|AB23|AB24|AB25
Aberdeenshire,Scotland,AB30|AB31|AB32|AB33|AB34|AB35|AB36
Moray,Scotland,AB37|AB38
Aberdeenshire,Scotland,AB39|AB41|AB42|AB43|AB44|AB45|AB51|AB52|AB53|AB54
Moray,Scotland,AB55|AB56
Aberdeen,Scotland,AB99
St Albans,East of England,AL1|AL2|AL3|AL4|AL5
Welwyn Hatfield,East of England,AL6|AL7|AL8|AL9|AL10
Birmingham ,West Midlands,B1|B2|B3|B4
Birmingham,West Midlands,B5|B6|B7|B8|B9|B10|B11|B12|B13|B14|B15|B16|B17|B18|B19|B20|B21|B22|B23|B24|B25|B26|B27|B28|B29|B30|B31|B32|B33|B34|B35
Solihull,West Midlands,B36|B37
Birmingham,West Midlands,B38
Solihull,West Midlands,B40
Birmingham,West Midlands,B42|B43|B44|B45
North Warwickshire,West Midlands,B46
Bromsgrove Worcestershire,West Midlands,B47|B48
Stratford-on-Avon,West Midlands,B49|B50
Bromsgrove,West Midlands,B60|B61
Dudley,West Midlands,B62|B63
Sandwell,West Midlands,B64|B65|B66|B67|B68|B69|B70|B71
Birmingham,West Midlands,B72|B73|B74|B75|B76
Tamworth,West Midlands,B77|B78|B79
Stratford-on-Avon,West Midlands,B80
Solihull,West Midlands,B90|B91|B92|B93|B94
Stratford-on-Avon,West Midlands,B95
Redditch,West Midlands,B96|B97|B98
Birmingham,West Midlands,B99
Bath and North East Somerset,South West England,BA1|BA2|BA3
Mendip,South West England,BA4|BA5|BA6
South Somerset,South West England,BA7|BA8|BA9|BA10
Mendip,South West England,BA11
Wiltshire,South West England,BA12|BA13|BA14|BA15
Mendip,South West England,BA16
South Somerset,South West England,BA20|BA21|BA22
Blackburn,North West England,BB0
Blackburn with Darwen,North West England,BB1|BB2|BB3
Rossendale,North West England,BB4
Hyndburn,North West England,BB5|BB6
Ribble Valley,North West England,BB7
Pendle,North West England,BB8|BB9
Burnley,North West England,BB10|BB11|BB12
Pendle,North West England,BB18|BB94
Bradford ,Yorkshie and the Humber,BD1
Bradford,Yorkshie and the Humber,BD2|BD3|BD4|BD5|BD6|BD7|BD8|BD9|BD10
Kirklees,Yorkshie and the Humber,BD11
Bradford,Yorkshie and the Humber,BD12|BD13|BD14|BD15
Bingley,Yorkshie and the Humber,BD16
Bradford,Yorkshie and the Humber,BD17|BD18
Kirklees,Yorkshie and the Humber,BD19
Bradford,Yorkshie and the Humber,BD20|BD21|BD22
Craven,Yorkshie and the Humber,BD23|BD24
Bradford,Yorkshie and the Humber,BD97|BD98|BD99
Bournemouth ,South West England,BH1
Bournemouth,South West England,BH2|BH3|BH4|BH5|BH6|BH7|BH8|BH9|BH10|BH11
Poole,South West England,BH12|BH13|BH14|BH15|BH16|BH17|BH18
Purbeck,South West England,BH19|BH20
East Dorset,South West England,BH21|BH22
Christchurch,South West England,BH23
New Forest,South West England,BH24|BH25
East Dorset,South West England,BH31
Bury,North West England,BL0
Bolton,North West England,BL1|BL2|BL3|BL4|BL5|BL6|BL7
Bury,North West England,BL8|BL9
Bolton,North West England,BL11|BL78
Brighton and Hove,South East England,BN1|BN2|BN3|BN4
Horsham,South East England,BN5
Lewes,South East England,BN6|BN7|BN8|BN9|BN10
Worthing,South East England,BN11|BN12|BN13|BN14|BN15
Arun,South East England,BN16|BN17|BN18
Eastbourne,South East England,BN20|BN21|BN22|BN23
Wealden,South East England,BN24|BN25|BN26|BN27
Brighton and Hove,South East England,BN41
Adur,South East England,BN42|BN43
Horsham,South East England,BN44
Mid Sussex,South East England,BN45
Brighton and Hove,South East England,BN50|BN51|BN52|BN88
Worthing,South East England,BN99
Bromley,London,BR1|BR2|BR3|BR4|BR5|BR6|BR7
Sevenoaks,London,BR8
Bristol,South West England,BS0|BS1|BS2|BS3|BS4|BS5|BS6|BS7|BS8|BS9|BS10|BS11|BS12|BS13|BS14|BS15|BS16|BS17|BS18|BS19
North Somerset,South West England,BS20|BS21|BS22|BS23|BS24
Somerset,South West England,BS25|BS26|BS27|BS28|BS29
South Gloucestershire,South West England,BS30
Bath and North East Somerset,South West England,BS31
South Gloucestershire,South West England,BS32|BS34|BS35|BS36|BS37
Bath and North East Somerset,South West England,BS39|BS40
North Somerset,South West England,BS41|BS48|BS49
Bristol,South West England,BS77|BS80|BS98|BS99
Belfast,Northern Ireland,BT1|BT2|BT3|BT4|BT5|BT6|BT7|BT8|BT9|BT10|BT11|BT12|BT13|BT14|BT15|BT16|BT17
North Down,Northern Ireland,BT18|BT19|BT20
Ards,Northern Ireland,BT21
North Down,Northern Ireland,BT22
Ards,Northern Ireland,BT23
Down,Northern Ireland,BT24
Banbridge,Northern Ireland,BT25
Lisburn,Northern Ireland,BT26|BT27
County Antrim,Northern Ireland,BT28|BT29
Down,Northern Ireland,BT30|BT31
Banbridge,Northern Ireland,BT32
Down,Northern Ireland,BT33
Newry and Mourne,Northern Ireland,BT34|BT35
Newtownabbey,Northern Ireland,BT36|BT37
Carrickfergus,Northern Ireland,BT38
Newtownabbey,Northern Ireland,BT39
Larne,Northern Ireland,BT40
Antrim,Northern Ireland,BT41
Ballymena,Northern Ireland,BT42|BT43|BT44
Magherafelt,Northern Ireland,BT45|BT46
Derry,Northern Ireland,BT47|BT48
Limavady,Northern Ireland,BT49
Coleraine,Northern Ireland,BT51|BT52
Ballymoney,Northern Ireland,BT53
Moyle,Northern Ireland,BT54
Coleraine,Northern Ireland,BT55|BT56
Moyle,Northern Ireland,BT57
Armagh,Northern Ireland,BT60|BT61
Craigavon,Northern Ireland,BT62|BT63|BT64|BT65|BT66|BT67
Dungannon and South Tyrone,Northern Ireland,BT68|BT69|BT70|BT71
Fermanagh,Northern Ireland,BT74|BT75
Dungannon and South Tyrone,Northern Ireland,BT76|BT77
Omagh,Northern Ireland,BT78|BT79
Cookstown,Northern Ireland,BT80
Strabane,Northern Ireland,BT81|BT82
Fermanagh,Northern Ireland,BT92|BT93|BT94
Carlisle,North West England,CA1|CA2|CA3|CA4|CA5|CA6
Allerdale,North West England,CA7
Carlisle,North West England,CA8
Eden,North West England,CA9|CA10|CA11
Allerdale,North West England,CA12|CA13|CA14|CA15
Eden,North West England,CA16|CA17
Copeland,North West England,CA18|CA19|CA20|CA21|CA22|CA23|CA24|CA25|CA26|CA27|CA28
Allerdale,North West England,CA95
Carlisle,North West England,CA99
Cambridge,East of England,CB1|CB2|CB3|CB4|CB5
Ely,East of England,CB6|CB7
Newmarket,East of England,CB8
St Edmundsbury,East of England,CB9
Uttlesford,East of England,CB10|CB11
Cambridge,East of England,CB21|CB22|CB23|CB24|CB25
Cardiff,Wales,CF1|CF2|CF3|CF4|CF5|CF6|CF7|CF8|CF10|CF11|CF14|CF15|CF23|CF24|CF30
Bridgend,Wales,CF31|CF32|CF33|CF34|CF35|CF36
Rhondda Cynon Taf,Wales,CF37|CF38|CF39|CF40|CF41|CF42|CF43|CF44|CF45
Merthyr Tydfil,Wales,CF46|CF47|CF48
Vale of Glamorgan,Wales,CF61|CF62|CF63|CF64|CF71
Rhondda Cynon Taf,Wales,CF72
Caerphilly,Wales,CF81|CF82|CF83
Cardiff,Wales,CF91|CF95|CF99
Cheshire West and Chester,North West England,CH1|CH2|CH3|CH4
Flintshire,Wales,CH5|CH6|CH7|CH8
Wirral,North West England,CH25|CH26|CH27|CH28|CH29|CH30|CH31|CH32
Cheshire West and Chester,North West England,CH33|CH34
Wirral,North West England,CH41|CH42|CH43|CH44|CH45|CH46|CH47|CH48|CH49|CH60|CH61|CH62|CH63
Cheshire West and Chester,North West England,CH64|CH65|CH66
Chester,North West England,CH70|CH88|CH99
Maldon,East of England,CM0
Chelmsford,East of England,CM1|CM2|CM3
Brentwood,East of England,CM4
Epping Forest,East of England,CM5
Uttlesford,East of England,CM6
Braintree,East of England,CM7|CM8
Maldon,East of England,CM9
Basildon,East of England,CM11|CM12
Brentwood,East of England,CM13|CM14|CM15
Epping Forest,East of England,CM16
Harlow,East of England,CM17|CM18|CM19|CM20
East Hertfordshire,East of England,CM21|CM22|CM23
Uttlesford,East of England,CM24
Braintree,East of England,CM77
Harlow,East of England,CM92
Chelmsford,East of England,CM98|CM99
Colchester,East of England,CO1|CO2|CO3|CO4|CO5|CO6|CO7|CO8
Braintree,East of England,CO9
Babergh,East of England,CO10
Tendring,East of England,CO11|CO12|CO13|CO14|CO15|CO16
Croydon,London,CR0|CR2|CR3
Merton,London,CR4
Croydon,London,CR5|CR6|CR7|CR8|CR9|CR44|CR90
Kent,South East England,CT1
Canterbury,South East England,CT2
Kent,South East England,CT3|CT4|CT5|CT6|CT7|CT8|CT9
Broadstairs,South East England,CT10
Kent,South East England,CT11
Ramsgate,South East England,CT12
Kent,South East England,CT13|CT14|CT15|CT16|CT17
Folkestone,South East England,CT18|CT19|CT20
Kent,South East England,CT21|CT50
Coventry,West Midlands,CV1|CV2|CV3|CV4|CV5|CV6|CV7
Warwick,West Midlands,CV8
North Warwickshire,West Midlands,CV9
Nuneaton & Bedworth,East Midlands,CV10|CV11|CV12
Hinckley and Bosworth,East Midlands,CV13
Rugby,West Midlands,CV21|CV22|CV23
Warwick,West Midlands,CV31|CV32|CV33|CV34|CV35
Stratford-on-Avon,West Midlands,CV36|CV37|CV47
Cheshire East,North West England,CW1|CW2|CW3|CW4|CW5
Cheshire West and Chester,North West England,CW6|CW7|CW8|CW9
Cheshire East,North West England,CW10|CW11|CW12|CW98
Dartford,South East England,DA1|DA2|DA3|DA4
Bexley,London,DA5|DA6|DA7|DA8
Dartford,London,DA9|DA10
Gravesham,London,DA11|DA12|DA13
Bexley,London,DA14|DA15|DA16|DA17|DA18
Dundee,Scotland,DD1|DD2|DD3|DD4|DD5
Fife,Scotland,DD6
Angus,Scotland,DD7|DD8|DD9|DD10|DD11
Derby,East Midlands,DE1|DE2|DE3
Derbyshire Dales,East Midlands,DE4
Amber Valley,East Midlands,DE5
Derbyshire Dales,East Midlands,DE6
Erewash,East Midlands,DE7
South Derbyshire,East Midlands,DE11|DE12
East Staffordshire,East Midlands,DE13|DE14|DE15
Derby,East Midlands,DE21|DE22|DE23|DE24
Derbyshire Dales,East Midlands,DE45
Amber Valley,East Midlands,DE55|DE56
South Derbyshire,East Midlands,DE65
Erewash,East Midlands,DE72
Derby,East Midlands,DE73
North West Leicestershire,East Midlands,DE74
Amber Valley,East Midlands,DE75
Derby,East Midlands,DE99
Dumfriesshire,Scotland,DG1|DG2|DG3|DG4
Kirkcudbrightshire,Scotland,DG5|DG6|DG7
Wigtownshire,Scotland,DG8|DG9
Dumfriesshire,Scotland,DG10|DG11|DG12|DG13|DG14|DG16
County Durham,North East England,DH1|DH2|DH3
Sunderland,North East England,DH4|DH5
County Durham,North East England,DH6|DH7|DH8|DH9|DH97|DH98|DH99
Darlington,North East England,DL1|DL2|DL3
County Durham,North East England,DL4|DL5
North Yorkshire,Yorkshie and the Humber,DL6|DL7|DL8|DL9|DL10|DL11
County Durham,North East England,DL12|DL13|DL14|DL15|DL16|DL17|DL98
Doncaster,Yorkshie and the Humber,DN1|DN2|DN3|DN4|DN5|DN6|DN7|DN8|DN9|DN10|DN11|DN12
East Riding of Yorkshire,Yorkshie and the Humber,DN14
North Lincolnshire,Yorkshie and the Humber,DN15|DN16|DN17|DN18|DN19|DN20
West Lindsey,East Midlands,DN21
Bassetlaw,East Midlands,DN22
North East Lincolnshire,Yorkshie and the Humber,DN31|DN32|DN33|DN34|DN35|DN36|DN37
North Lincolnshire,Yorkshie and the Humber,DN38|DN39|DN40
North East Lincolnshire,Yorkshie and the Humber,DN41
Doncaster,Yorkshie and the Humber,DN55
West Dorset,South West England,DT1|DT2
Weymouth and Portland,South West England,DT3|DT4|DT5
West Dorset,South West England,DT6|DT7|DT8|DT9
North Dorset,South West England,DT10|DT11
Dudley,West Midlands,DY1|DY2|DY3|DY4|DY5|DY6
South Staffordshire,West Midlands,DY7
Dudley,West Midlands,DY8|DY9
Wyre Forest,West Midlands,DY10|DY11|DY12|DY13
Shropshire,West Midlands,DY14
Tower Hamlets,London,E1|E1W|E2|E3
Waltham Forest,East of England,E4
Hackney,London,E5
Newham,London,E6|E7
Hackney,London,E8|E9|E10
Waltham Forest,London,E11
Newham,London,E12|E13
Tower Hamlets,London,E14
Newham,London,E15|E16
Waltham Forest,London,E17
Redbridge,London,E18
Newham,London,E20
Tower Hamlets,London,E77|E98
Islington,London,EC1Y|EC1V|EC1R
London,London,EC1P
Camden,London,EC1N
Islington,London,EC1M
City of London,London,EC1A|EC2Y|EC2V|EC2R
London,London,EC2P
City of London,London,EC2N|EC2M
Hackney,London,EC2A
City of London,London,EC3V|EC3R
London,London,EC3P
Tower Hamlets,London,EC3N
City of London,London,EC3M
London,London,EC3B
City of London,London,EC3A|EC4V|EC4R
London,London,EC4P
City of London,London,EC4N|EC4M|EC4A|EC4Y
London,London,EC50|EC88
Edinburgh,Scotland,EH1|EH2|EH3|EH4|EH5|EH6|EH7|EH8|EH9|EH10|EH11|EH12|EH13|EH14|EH15|EH16|EH17
Midlothian,Scotland,EH18|EH19|EH20
East Lothian,Scotland,EH21
Midlothian,Scotland,EH22|EH23|EH24|EH25|EH26
West Lothian,Scotland,EH27
Edinburgh,Scotland,EH28|EH29|EH30
East Lothian,Scotland,EH31|EH32|EH33|EH34|EH35|EH36
Midlothian,Scotland,EH37|EH38
East Lothian,Scotland,EH39|EH40|EH41|EH42
Scottish Borders,Scotland,EH43|EH44|EH45|EH46
West Lothian,Scotland,EH47|EH48|EH49
Falkirk,Scotland,EH51
West Lothian,Scotland,EH52|EH53|EH54|EH55
Edinburgh,Scotland,EH91|EH95|EH99
Enfield,London,EN1|EN2|EN3|EN4
Barnet,East of England,EN5
Hertsmere,East of England,EN6
Broxbourne,East of England,EN7
Enfield,East of England,EN8
Epping Forest,East of England,EN9
Broxbourne,East of England,EN10|EN11
Exeter,South West England,EX1|EX2|EX3|EX4
East Devon,South West England,EX5
Teignbridge,South West England,EX6
Exeter,South West England,EX7|EX8|EX9|EX10|EX11|EX12|EX13|EX14|EX15
Mid Devon,South West England,EX16|EX17
Exeter,South West England,EX18|EX19|EX20|EX21|EX22
Cornwall,South West England,EX23
Exeter,South West England,EX24|EX31|EX32|EX33|EX34|EX35|EX36|EX37|EX38
Torridge,South West England,EX39
Falkirk,Scotland,FK1|FK2|FK3|FK4|FK5|FK6|FK7|FK8|FK9|FK10|FK11|FK12|FK13|FK14|FK15|FK16|FK17|FK18|FK19|FK20|FK21
Blackpool,North West England,FY0|FY1|FY2|FY3|FY4
Wyre,North West England,FY5|FY6|FY7
Fylde,North West England,FY8
Glasgow,Scotland,G1|G2|G3|G4|G5|G9|G11|G12|G13|G14|G15|G20|G21|G22|G23|G31|G32|G33|G34|G40|G41|G42|G43|G44|G45|G46|G51|G52|G53|G58
West Dunbartonshire,Scotland,G60
East Dunbartonshire,Scotland,G61|G62
Stirling,Scotland,G63
East Dunbartonshire,Scotland,G64
North Lanarkshire,Scotland,G65
East Dunbartonshire,Scotland,G66
North Lanarkshire,Scotland,G67|G68
Glasgow,Scotland,G69
North Lanarkshire,Scotland,G70
Lanarkshire,Scotland,G71
South Lanarkshire,Scotland,G72|G73|G74|G75
East Renfrewshire,Scotland,G76|G77|G78
South Lanarkshire,Scotland,G79
Glasgow,Scotland,G80
West Dunbartonshire,Scotland,G81|G82|G83
Argyll and Bute,Scotland,G84
Glasgow,Scotland,G90
Gloucester,South West England,GL1|GL2|GL3|GL4
Stroud,South West England,GL5|GL6
Cotswold,South West England,GL7|GL8
Gloucester,South West England,GL9
Stroud,South West England,GL10|GL11|GL12
Gloucester,South West England,GL13|GL14|GL15|GL16|GL17|GL18|GL19
Tewkesbury,South West England,GL20|GL50|GL51|GL52|GL53|GL54
Gloucester,South West England,GL55
Tewkesbury,South West England,GL56
Guildford,South East England,GU1|GU2|GU3|GU4|GU5
Waverley,South East England,GU6|GU7|GU8|GU9|GU10
Rushmoor,South East England,GU11|GU12
Hampshire,South East England,GU13
Rushmoor,South East England,GU14
Surrey Heath,South East England,GU15|GU16
Hart,South East England,GU17
Surrey Heath,South East England,GU18|GU19|GU20
Woking,South East England,GU21|GU22
Guildford,South East England,GU23
Woking,South East England,GU24
Runnymede,South East England,GU25
Waverley,South East England,GU26|GU27
Chichester,South East England,GU28|GU29
East Hampshire,South East England,GU30|GU31|GU32|GU33|GU34|GU35
Hart,South East England,GU46
Bracknell Forest,South East England,GU47
Hart,South East England,GU51|GU52
Guildford,South East England,GU95
Harrow,London,HA0|HA1|HA2|HA3
Hillingdon,London,HA4
Harrow,London,HA5
Hillingdon,London,HA6
Harrow,London,HA7|HA8
Brent,London,HA9
Kirklees,Yorkshie and the Humber,HD1|HD2|HD3|HD4|HD5
Calderdale,Yorkshie and the Humber,HD6
Kirklees,Yorkshie and the Humber,HD7|HD8|HD9
Harrogate,Yorkshie and the Humber,HG1|HG2|HG3
Ripon,Yorkshie and the Humber,HG4
Harrogate,Yorkshie and the Humber,HG5
Dacorum,East of England,HP1|HP2|HP3|HP4
Chiltern,South East England,HP5|HP6|HP7
South Buckinghamshire,South East England,HP8
Chiltern,South East England,HP9
Wycombe,South East England,HP10|HP11|HP12|HP13|HP14|HP15|HP16
Aylesbury Vale,South East England,HP17|HP18|HP19|HP20|HP21|HP22
Dacorum,South East England,HP23
Wycombe,South East England,HP27
Hereford,West Midlands,HR1|HR2|HR3|HR4|HR5|HR6|HR7|HR8|HR9
Comhairle nan Eilean Siar,Scotland,HS1|HS2|HS3|HS4|HS5|HS6|HS7|HS8|HS9
Kingston upon Hull,Yorkshie and the Humber,HU1|HU2|HU3|HU4|HU5|HU6|HU7|HU8|HU9
East Riding of Yorkshire,Yorkshie and the Humber,HU10|HU11|HU12|HU13|HU14|HU15|HU16|HU17|HU18|HU19|HU20
Calderdale,Yorkshie and the Humber,HX1|HX2|HX3|HX4|HX5|HX6|HX7
Redbridge,London,IG1|IG2|IG3|IG4|IG5|IG6
Epping Forest,East of England,IG7
Redbridge,East of England,IG8
Epping Forest,East of England,IG9|IG10
Barking and Dagenham,London,IG11
Ipswich,East of England,IP1|IP2|IP3|IP4
Suffolk Coastal,East of England,IP5
Mid Suffolk,East of England,IP6
Ipswich,East of England,IP7
Babergh,East of England,IP8|IP9
Suffolk Coastal,East of England,IP10|IP11|IP12|IP13
Mid Suffolk,East of England,IP14
Suffolk Coastal,East of England,IP15|IP16|IP17
Waveney,East of England,IP18|IP19|IP20
Mid Suffolk,East of England,IP21
South Norfolk,East of England,IP22
Mid Suffolk,East of England,IP23
Breckland,East of England,IP24|IP25|IP26
Forest Heath,East of England,IP27|IP28
St Edmundsbury,East of England,IP29|IP30|IP31|IP32|IP33
Ipswich,East of England,IP98
Highland,Scotland,IV1|IV2|IV3|IV4|IV5|IV6|IV7|IV8|IV9|IV10|IV11|IV12|IV13|IV14|IV15|IV16|IV17|IV18|IV19|IV20|IV21|IV22|IV23|IV24|IV25|IV26|IV27|IV28
Moray,Scotland,IV30|IV31|IV32
Rothes,Scotland,IV33
Archiestown,Scotland,IV34|IV35
Moray,Scotland,IV36
Highland,Scotland,IV40|IV41|IV42|IV43|IV44|IV45|IV46|IV47|IV48|IV49|IV51|IV52|IV53|IV54|IV55|IV56|IV63
Inverness,Scotland,IV99
East Ayrshire,Scotland,KA1|KA2|KA3|KA4|KA5|KA6
South Ayrshire,Scotland,KA7|KA8|KA9|KA10
North Ayrshire,Scotland,KA11|KA12|KA13|KA14|KA15
East Ayrshire,Scotland,KA16|KA17|KA18
South Ayrshire,Scotland,KA19
North Ayrshire,Scotland,KA20|KA21|KA22|KA23|KA24|KA25
South Ayrshire,Scotland,KA26
North Ayrshire,Scotland,KA27|KA28|KA29|KA30
Kingston upon Thames,London,KT1|KT2|KT3
Sutton,London,KT4
Kingston upon Thames,London,KT5|KT6
Elmbridge,South East England,KT7|KT8
Kingston upon Thames,South East England,KT9
Elmbridge,South East England,KT10|KT11|KT12|KT13|KT14
Runnymede,South East England,KT15|KT16
Epsom and Ewell,South East England,KT17|KT18|KT19
Reigate and Banstead,South East England,KT20
Mole Valley,South East England,KT21|KT22|KT23
Guildford,South East England,KT24
Highland,Scotland,KW1|KW2|KW3|KW5|KW6|KW7|KW8|KW9|KW10|KW11|KW12|KW13|KW14
Orkney Islands,Scotland,KW15|KW16|KW17
Fife,Scotland,KY1|KY2|KY3|KY4|KY5|KY6|KY7|KY8|KY9|KY10|KY11|KY12
Kinross-Shire,Scotland,KY13
Fife,Scotland,KY14|KY15|KY16|KY99
Liverpool,North West England,L1|L2|L3|L4|L5|L6|L7|L8|L9|L10|L11|L12|L13|L14|L15|L16|L17|L18|L19|L20|L21
Sefton,North West England,L22|L23
Liverpool,North West England,L24|L25|L26|L27|L28
Sefton,North West England,L29|L30|L31
Knowsley,North West England,L32|L33|L34|L35|L36
Sefton,North West England,L37|L38
West Lancashire,North West England,L39|L40
Liverpool,North West England,L41|L42|L43|L44|L45|L46|L47|L48|L49|L60|L61|L62|L63|L64|L65|L66|L67|L68|L69|L70|L71|L72|L73|L74|L75|L80
Lancaster,North West England,LA1|LA2|LA3|LA4|LA5|LA6|LA7
South Lakeland,North West England,LA8|LA9|LA10|LA11|LA12
Barrow-in-Furness,North West England,LA13|LA14|LA15|LA16
South Lakeland,North West England,LA17
Copeland,North West England,LA18|LA19
South Lakeland,North West England,LA20|LA21|LA22|LA23
Llandrindod Wells,Wales,LD1|LD2|LD3|LD4|LD5|LD6|LD7|LD8
Leicester,East Midlands,LE1|LE2|LE3|LE4|LE5|LE6|LE7|LE8|LE9|LE10
Charnwood,East Midlands,LE11|LE12
Leicester,East Midlands,LE13
Melton,East Midlands,LE14
Rutland,East Midlands,LE15
Harborough,East Midlands,LE16
Leicester,East Midlands,LE17|LE18|LE19|LE21|LE41|LE55|LE65|LE67|LE87|LE94|LE95
Wrexham,Wales,LL11|LL12|LL13|LL14
Denbighshire,Wales,LL15|LL16
Conwy,Wales,LL17|LL18
Flintshire,Wales,LL19
Denbighshire,Wales,LL20
Conwy,Wales,LL21
Denbighshire,Wales,LL22
Gwynedd,Wales,LL23
Conwy,Wales,LL24|LL25|LL26|LL27|LL28|LL29|LL30|LL31|LL32|LL33|LL34
Gwynedd,Wales,LL35|LL36|LL37|LL38|LL39|LL40|LL41|LL42|LL43|LL44|LL45|LL46|LL47|LL48|LL49|LL51|LL52|LL53|LL54|LL55|LL56|LL57
Anglesey,Wales,LL58|LL59|LL60|LL61|LL62|LL63|LL64|LL65|LL66|LL67|LL68|LL69|LL70|LL71|LL72|LL73|LL74|LL75|LL76|LL77|LL78
West Lindsey,East Midlands,LN1|LN2
Lincoln,East Midlands,LN3
North Kesteven,East Midlands,LN4
Lincoln,East Midlands,LN5|LN6|LN7|LN8|LN9|LN10|LN11
East Lindsey,East Midlands,LN12
Lincoln,East Midlands,LN13
Leeds,Yorkshie and the Humber,LS1|LS2|LS3|LS4|LS5|LS6|LS7|LS8|LS9|LS10|LS11|LS12|LS13|LS14|LS15|LS16|LS17|LS18|LS19|LS20|LS21|LS22|LS23
Selby,Yorkshie and the Humber,LS24
Leeds,Yorkshie and the Humber,LS25|LS26|LS27|LS28
Bradford,Yorkshie and the Humber,LS29
Leeds,Yorkshie and the Humber,LS88|LS98|LS99
Luton,East of England,LU1|LU2|LU3|LU4
Central Bedfordshire,East of England,LU5|LU6|LU7
Leighton Buzzard,East of England,LU95
Manchester,North West England,M1|M2|M3|M4
Salford,North West England,M5|M6|M7
Manchester,North West England,M8|M9|M10|M11|M12|M13|M14|M15
Trafford,North West England,M16|M17
Manchester,North West England,M18|M19|M20|M21|M22|M23
Rochdale,North West England,M24
Bury,North West England,M25|M26
Salford,North West England,M27|M28
Wigan,North West England,M29
Salford,North West England,M30
Trafford,North West England,M31|M32|M33
Tameside,North West England,M34
Oldham,North West England,M35
Salford,North West England,M38
Manchester,North West England,M40
Trafford,North West England,M41
Tameside,North West England,M43
Salford,North West England,M44
Bury,North West England,M45
Wigan,North West England,M46
Salford,North West England,M50
Manchester,North West England,M52|M60|M61|M90|M99
Medway,South East England,ME1|ME2|ME3|ME4|ME5
Tonbridge and Malling,South East England,ME6
Medway,South East England,ME7|ME8
Swale,South East England,ME9|ME10|ME11|ME12|ME13
Maidstone,South East England,ME14|ME15|ME16|ME17|ME18
Tonbridge and Malling,South East England,ME19|ME20
Maidstone,South East England,ME99
Milton Keynes,South East England,MK1|MK2|MK3|MK4|MK5|MK6|MK7|MK8|MK9|MK10|MK11|MK12|MK13|MK14|MK15|MK16|MK17
Aylesbury Vale,South East England,MK18|MK19
Bedford,South East England,MK40|MK41|MK42|MK43|MK44|MK45
Milton Keynes,South East England,MK46|MK77|MK98
North Lanarkshire,Scotland,ML1|ML2
South Lanarkshire,Scotland,ML3
North Lanarkshire,Scotland,ML4|ML5|ML6|ML7
South Lanarkshire,Scotland,ML8|ML9|ML10|ML11|ML12
Hackney,London,N1
Islington,London,N1P
Camden,London,N1C
Barnet,London,N2|N3
Haringey,London,N4
Islington,London,N5
Camden,London,N6
Islington,London,N7
Haringey,London,N8
Enfield,London,N9
Haringey,London,N10
Enfield,London,N11
Barnet,London,N12
Enfield,London,N13|N14
Hackney,London,N15|N16
Haringey,London,N17
Enfield,London,N18
Islington,London,N19
Barnet,London,N20
Enfield,London,N21
Haringey,London,N22|N81
Newcastle,North East England,NE1|NE2|NE3|NE4|NE5|NE6|NE7
Gateshead,North East England,NE8|NE9|NE10|NE11
North Tyneside,North East England,NE12
Newcastle,North East England,NE13|NE15
Gateshead,North East England,NE16|NE17
Northumberland,North East England,NE18|NE19|NE20
Gateshead,North East England,NE21
Northumberland,North East England,NE22|NE23|NE24
North Tyneside,North East England,NE25|NE26|NE27|NE28|NE29|NE30
South Tyneside,North East England,NE31|NE32|NE33|NE34|NE35|NE36
Sunderland,North East England,NE37|NE38
Gateshead,North East England,NE39|NE40|NE41|NE42
Northumberland,North East England,NE43|NE44|NE45|NE46|NE47|NE48|NE49|NE61|NE62|NE63|NE64|NE65|NE66|NE67|NE68|NE69|NE70|NE71
Newcastle,North East England,NE82|NE83|NE85|NE88
Newcastle upon Tyne,North East England,NE89
Gateshead,North East England,NE92
Newcastle,North East England,NE98|NE99
Nottingham,East Midlands,NG1|NG2
Gedling,East Midlands,NG3|NG4
Nottingham,East Midlands,NG5|NG6|NG7|NG8
Broxtowe,East Midlands,NG9
Erewash,East Midlands,NG10
Nottingham,East Midlands,NG11
Rushcliffe,East Midlands,NG12|NG13
Gedling,East Midlands,NG14
Ashfield,East Midlands,NG15
Broxtowe,East Midlands,NG16
Ashfield,East Midlands,NG17
Mansfield,East Midlands,NG18|NG19
Bolsover,East Midlands,NG20
Newark and Sherwood,East Midlands,NG21|NG22|NG23|NG24|NG25
South Kesteven,East Midlands,NG31|NG32|NG33
North Kesteven,East Midlands,NG34
Mansfield,East Midlands,NG70
Nottingham,East Midlands,NG80|NG90
Northampton,East Midlands,NN1|NN2
Daventry,East Midlands,NN3
Northampton,East Midlands,NN4|NN5
Daventry,East Midlands,NN6|NN7
Wellingborough,East Midlands,NN8|NN9
East Northamptonshire,East Midlands,NN10
Daventry,East Midlands,NN11
South Northamptonshire,East Midlands,NN12|NN13
East Northamptonshire,East Midlands,NN14
Kettering,East Midlands,NN15|NN16
Corby,East Midlands,NN17|NN18
Bedford,East Midlands,NN29
Northampton,East Midlands,NN99
Newport,Wales,NPT|NP1|NP2|NP3
Monmouthshire,Wales,NP4
Newport,Wales,NP5|NP6
Monmouthshire,South West England,NP7
Powys,Wales,NP8
Newport,Wales,NP9|NP10
Caerphilly,Wales,NP11|NP12
Blaenau Gwent,Wales,NP13
Monmouthshire,Wales,NP15|NP16
Newport,Wales,NP18|NP19|NP20
Blaenau Gwent,Wales,NP22|NP23|NP24
Monmouthshire,South West England,NP25|NP26
Torfaen,Wales,NP44
Norfolk,East of England,NR1|NR2|NR3|NR4|NR5|NR6|NR7|NR8|NR9|NR10|NR11|NR12|NR13|NR14|NR15|NR16|NR17|NR18|NR19|NR20|NR21|NR22|NR23|NR24|NR25|NR26|NR27|NR28|NR29|NR30|NR31
Suffolk,East of England,NR32|NR33|NR34|NR35
Norwich,East of England,NR99
Camden,London,NW1|NW1W
Barnet,London,NW2
Camden,London,NW3
Barnet,London,NW4
Camden,London,NW5
Brent,London,NW6
Barnet,London,NW7
Camden,London,NW8
Barnet,London,NW9
Brent,London,NW10
Barnet,London,NW11
Camden,London,NW26
Oldham,North West England,OL1|OL2|OL3|OL4
Tameside,North West England,OL5|OL6|OL7
Oldham,North West England,OL8|OL9
Rochdale,North West England,OL10|OL11|OL12
Rossendale,North West England,OL13
Calderdale,North West England,OL14
Rochdale,North West England,OL15|OL16
Oldham,North West England,OL95
Oxford,South East England,OX1|OX2|OX3|OX4
Cherwell,South East England,OX5
Oxford,South East England,OX6
West Oxfordshire,South East England,OX7
Oxford,South East England,OX8
South Oxfordshire,South East England,OX9|OX10|OX11
Vale of White Horse,South East England,OX12|OX13
South Oxfordshire,South East England,OX14
Cherwell,South East England,OX15|OX16|OX17
West Oxfordshire,South East England,OX18|OX20
Cherwell,South East England,OX25|OX26|OX27
West Oxfordshire,South East England,OX28|OX29
South Oxfordshire,South East England,OX33|OX39|OX44|OX49
Renfrewshire,Scotland,PA1|PA2|PA3|PA4|PA5|PA6|PA7|PA8|PA9|PA10|PA11|PA12|PA13|PA14|PA15|PA16
Ayrshire,Scotland,PA17
Renfrewshire,Scotland,PA18|PA19
Buteshire,Scotland,PA20
Argyllshire,Scotland,PA21|PA22|PA23|PA24|PA25|PA26|PA27|PA28|PA29|PA30|PA31|PA32|PA33|PA34|PA35|PA36|PA37|PA38
Highland,Scotland,PA39|PA40
Argyllshire,Scotland,PA41|PA42|PA43|PA44|PA45|PA46|PA47|PA48|PA49|PA60|PA61|PA62|PA63|PA64|PA65|PA66|PA67|PA68|PA69|PA70|PA71|PA72|PA73|PA74|PA75|PA76|PA77|PA78
Renfrewshire,Scotland,PA80
Comhairle nan Eilean Siar,Scotland,PA81|PA82|PA83|PA84|PA85|PA86|PA87|PA88
Peterborough,East Midlands,PE1|PE2|PE3|PE4|PE5
South Kesteven,East Midlands,PE6
Peterborough,East Midlands,PE7
East Northamptonshire,East Midlands,PE8
South Kesteven,East Midlands,PE9|PE10
South Holland,East Midlands,PE11|PE12
Fenland,East Midlands,PE13|PE14|PE15|PE16
Peterborough,East Midlands,PE17
Huntingdonshire,East Midlands,PE18|PE19
Boston,East Midlands,PE20|PE21|PE22
East Lindsey,East Midlands,PE23|PE24|PE25
Huntingdonshire,East Midlands,PE26|PE27|PE28|PE29
West Norfolk,East Midlands,PE30|PE31|PE32|PE33|PE34|PE35|PE36|PE37|PE38
Peterborough,East Midlands,PE99
Perth and Kinross,Scotland,PH1|PH2|PH3|PH4|PH5|PH6|PH7|PH8|PH9|PH10|PH11|PH12|PH13|PH14|PH15|PH16|PH17|PH18
Highland,Scotland,PH19|PH20|PH21|PH22|PH23|PH24|PH25|PH26|PH30|PH31|PH32|PH33|PH34|PH35|PH36|PH37|PH38|PH39|PH40|PH41|PH42|PH43|PH44|PH49|PH50
Plymouth,South West England,PL1|PL2|PL3|PL4|PL5|PL6|PL7
South Hams,South West England,PL8
Plymouth,South West England,PL9
Cornwall,South West England,PL10|PL11|PL12|PL13|PL14|PL15
West Devon,South West England,PL16
Cornwall,South West England,PL17|PL18
West Devon,South West England,PL19|PL20
South Hams,South West England,PL21
Cornwall,South West England,PL22|PL23|PL24|PL25|PL26|PL27|PL28|PL29|PL30|PL31|PL32|PL33|PL34|PL35
Plymouth,South West England,PL95
Hampshire,South East England,PO1|PO2|PO3|PO4|PO5|PO6|PO7|PO8|PO9|PO10|PO11|PO12|PO13|PO14|PO15|PO16|PO17
Sussex,South East England,PO18|PO19|PO20|PO21|PO22
Isle of Wight,South East England,PO30|PO31|PO32|PO33|PO34|PO35|PO36|PO37|PO38|PO39|PO40|PO41
Preston,North West England,PR0|PR1|PR2
Fylde,North West England,PR3|PR4
South Ribble,North West England,PR5
Chorley,North West England,PR6|PR7
Sefton,North West England,PR8|PR9
Preston,North West England,PR11
South Ribble,North West England,PR25|PR26
Berkshire,South East England,RG1|RG2|RG3|RG4
Wokingham,South East England,RG5|RG6
Berkshire,South East England,RG7
South Oxfordshire,South East England,RG8|RG9
Wokingham,South East England,RG10|RG11
Bracknell Forest,South East England,RG12
Berkshire,South East England,RG13|RG14|RG15
West Berkshire,South East England,RG16
Berkshire,South East England,RG17
West Berkshire,South East England,RG18
Berkshire,South East England,RG19
West Berkshire,South East England,RG20
Hampshire,South East England,RG21|RG22|RG23|RG24|RG25|RG26|RG27|RG28|RG29
Berkshire,South East England,RG30|RG31
Wokingham,South East England,RG40|RG41
Bracknell Forest,South East England,RG42|RG45
Reigate and Banstead,South East England,RH1|RH2
Mole Valley,South East England,RH3|RH4|RH5
Crawley,South East England,RH6
Tandridge,South East England,RH7|RH8|RH9
Crawley,South East England,RH10|RH11
Horsham,South East England,RH12|RH13
Chichester,South East England,RH14
Mid Sussex,South East England,RH15|RH16|RH17|RH18|RH19
Horsham,South East England,RH20
Crawley,South East England,RH77
Havering,London,RM1|RM2|RM3|RM4|RM5
Barking and Dagenham,London,RM6
Havering,London,RM7
Barking and Dagenham,London,RM8|RM9|RM10
Havering,London,RM11|RM12|RM13|RM14
Thurrock,East of England,RM15|RM16|RM17|RM18|RM19|RM20
Romford,East of England,RM50
Sheffield,Yorkshie and the Humber,S1|S2|S3|S4|S5|S6|S7|S8|S9|S10|S11|S12|S13|S14|S17
North East Derbyshire,Yorkshie and the Humber,S18
Sheffield,Yorkshie and the Humber,S19|S20
North East Derbyshire,East Midlands,S21
Rotherham,Yorkshie and the Humber,S25|S26
Sheffield,Yorkshie and the Humber,S30
Rotherham,Yorkshie and the Humber,S31
Derbyshire Dales,East Midlands,S32
High Peak,East Midlands,S33
Sheffield,Yorkshie and the Humber,S35
Barnsley,East Midlands,S36
Chesterfield,East Midlands,S40|S41|S42|S43
Bolsover,East Midlands,S44
North East Derbyshire,East Midlands,S45
Chesterfield,East Midlands,S49
Rotherham,East Midlands,S60|S61|S62
Barnsley,Yorkshie and the Humber,S63
Doncaster,Yorkshie and the Humber,S64
Rotherham,East Midlands,S65|S66
Barnsley,Yorkshie and the Humber,S70|S71|S72|S73|S74|S75
Bassetlaw,East Midlands,S80|S81
Rotherham,East Midlands,S95
Sheffield,East Midlands,S96|S97|S98|S99
Swansea,Wales,SA1|SA2|SA3|SA4|SA5|SA6|SA7
Neath Port Talbot,Wales,SA8|SA9|SA10|SA11|SA12|SA13
Carmarthenshire,Wales,SA14|SA15|SA16|SA17|SA18|SA19|SA20|SA31|SA32|SA33|SA34
Pembrokeshire,Wales,SA35|SA36|SA37
Carmarthenshire,Wales,SA38|SA39|SA40
Pembrokeshire,Wales,SA41|SA42
Ceredigion,Wales,SA43|SA44|SA45|SA46|SA47|SA48
Pembrokeshire,Wales,SA61|SA62|SA63|SA64|SA65
Carmarthenshire,Wales,SA66
Pembrokeshire,Wales,SA67|SA68|SA69|SA70|SA71|SA72|SA73
Swansea,Wales,SA80|SA99
Southwark,London,SE1|SE1P
Greenwich,London,SE2|SE3
Lewisham,London,SE4
Lambeth,London,SE5
Lewisham,London,SE6
Greenwich,London,SE7
Lewisham,London,SE8
Greenwich,London,SE9|SE10
Lambeth,London,SE11
Lewisham,London,SE12|SE13|SE14|SE15
Southwark,London,SE16|SE17
Greenwich,London,SE18
Croydon,London,SE19
Bromley,London,SE20
Lambeth,London,SE21
Southwark,London,SE22
Lewisham,London,SE23
Lambeth,London,SE24
Croydon,London,SE25
Bromley,London,SE26
Lambeth,London,SE27
Greenwich,London,SE28
London,London,SE99
Stevenage,East of England,SG1|SG2
North Hertfordshire,East of England,SG3|SG4|SG5|SG6|SG7|SG8
East Hertfordshire,East of England,SG9|SG10|SG11|SG12|SG13
Hertfordshire,East of England,SG14
Central Bedfordshire,East of England,SG15|SG16|SG17|SG18|SG19
Stockport,North West England,SK1|SK2|SK3|SK4|SK5|SK6|SK7|SK8
Cheshire East,North West England,SK9|SK10|SK11|SK12
High Peak,East Midlands,SK13
Tameside,North West England,SK14|SK15|SK16
Derbyshire Dales,East Midlands,SK17
High Peak,East Midlands,SK22|SK23
South Buckinghamshire,South East England,SL0|SL1|SL2
Slough,South East England,SL3
Bracknell Forest,South East England,SL4
Windsor and Maidenhead,South East England,SL5
South Buckinghamshire,South East England,SL6|SL7|SL8|SL9
Maidenhead,South East England,SL60
Slough,South East England,SL95
Sutton,South East England,SM1|SM2|SM3
Merton,South East England,SM4
Sutton,London,SM5|SM6
Reigate and Banstead,South East England,SM7
Swindon,South West England,SN1|SN2|SN3|SN4|SN5
Wiltshire,South West England,SN6
Vale of White Horse,South West England,SN7
Kennet,South West England,SN8|SN9|SN10
Wiltshire,South West England,SN11|SN12|SN13|SN14|SN15|SN16
Swindon,South West England,SN17|SN25|SN26|SN38|SN99
Southampton,South East England,SO1|SO2|SO3|SO4|SO5|SO9|SO14|SO15|SO16|SO17|SO18|SO19
Test Valley,South East England,SO20
Winchester,South East England,SO21|SO22|SO23|SO24
Eastleigh,South East England,SO30|SO31|SO32
New Forest,South East England,SO40|SO41|SO42|SO43|SO45
Eastleigh,South East England,SO50
Test Valley,South East England,SO51|SO52
Eastleigh,South East England,SO53
Southampton,South East England,SO97
Wiltshire,South West England,SP1|SP2|SP3|SP4|SP5
New Forest,South West England,SP6
North Dorset,South West England,SP7|SP8
Wiltshire,South West England,SP9
Test Valley,South West England,SP10|SP11
Sunderland,North East England,SR1|SR2|SR3|SR4|SR5|SR6
County Durham,North East England,SR7|SR8
Sunderland,North East England,SR9|SR43
County Durham,North East England,SR88
Southend-on-Sea,East of England,SS0|SS1|SS2
Rochford,East of England,SS3|SS4|SS5|SS6
Castle Point,East of England,SS7|SS8
Southend-on-Sea,East of England,SS9
Basildon,East of England,SS11|SS12|SS13|SS14|SS15|SS16
Thurrock,East of England,SS17
Southend-on-Sea,East of England,SS22|SS99
Staffordshire,West Midlands,ST1|ST2|ST3|ST4|ST5|ST6|ST7|ST8|ST9|ST10|ST11|ST12|ST13|ST14|ST15|ST16|ST17|ST18|ST19|ST20|ST21
Newcastle-under-Lyme,West Midlands,ST55
Westminster,London,SW1P|SW1H|SW1E|SW1A|SW1X|SW1Y|SW1W|SW1V
Lambeth,London,SW2
Kensington and Chelsea,London,SW3
Lambeth,London,SW4
Kensington and Chelsea,London,SW5
Hammersmith and Fulham,London,SW6
Kensington and Chelsea,London,SW7
Lambeth,London,SW8|SW9
Kensington and Chelsea,London,SW10
Wandsworth,London,SW11|SW12
Richmond upon Thames,London,SW13|SW14
Wandsworth,London,SW15
Lambeth,London,SW16
Wandsworth,London,SW17|SW18
Merton,London,SW19|SW20
Lambeth,London,SW95|SW99
Shropshire,West Midlands,SY1|SY2|SY3|SY4|SY5|SY6|SY7|SY8|SY9|SY10|SY11|SY12|SY13
Cheshire West and Chester,West Midlands,SY14
Powys,Wales,SY15|SY16|SY17|SY18|SY19|SY20|SY21|SY22
Ceredigion,Wales,SY23|SY24|SY25
Shrewsbury,Wales,SY99
Somerset,South West England,TA1|TA2|TA3|TA4|TA5
Sedgemoor,South West England,TA6
Somerset,South West England,TA7|TA8|TA9|TA10
South Somerset,South West England,TA11
Somerset,South West England,TA12|TA13|TA14|TA15|TA16|TA17|TA18|TA19|TA20|TA21|TA22|TA23|TA24
Scottish Borders,Scotland,TD1|TD2|TD3|TD4|TD5|TD6|TD7|TD8|TD9|TD10|TD11|TD12
East Lothian,Scotland,TD13
Scottish Borders,Scotland,TD14
Northumberland,Scotland,TD15
Telford and Wrekin,West Midlands,TF1|TF2|TF3|TF4|TF5|TF6|TF7|TF8
Shropshire,West Midlands,TF9
Telford and Wrekin,West Midlands,TF10
Shropshire,West Midlands,TF11|TF12|TF13
Tunbridge Wells,South East England,TN1|TN2
Sevenoaks,South East England,TN3
Tunbridge Wells,South East England,TN4
Rother,South East England,TN5
Wealden,South East England,TN6|TN7
Sevenoaks,South East England,TN8
Tonbridge and Malling,South East England,TN9|TN10
Sevenoaks,South East England,TN11
Maidstone,South East England,TN12
Sevenoaks,South East England,TN13
Bromley,London,TN14
Sevenoaks,South East England,TN15
Bromley,London,TN16
Ashford,South East England,TN17
Tunbridge Wells,South East England,TN18
Rother,South East England,TN19
Wealden,South East England,TN20
Rother,South East England,TN21
Wealden,South East England,TN22
Ashford,South East England,TN23|TN24|TN25|TN26|TN27
Shepway,South East England,TN28|TN29
Ashford,South East England,TN30
Rother,South East England,TN31|TN32|TN33
Hastings,South East England,TN34|TN35
Rother,South East England,TN36
Hastings,South East England,TN37|TN38
Rother,South East England,TN39|TN40
Torbay,South West England,TQ1|TQ2|TQ3|TQ4|TQ5
South Hams,South West England,TQ6|TQ7|TQ8|TQ9|TQ10
Teignbridge,South West England,TQ11|TQ12|TQ13|TQ14
Cornwall,South West England,TR1|TR2|TR3|TR4|TR5|TR6|TR7|TR8|TR9|TR10|TR11|TR12|TR13|TR14|TR15|TR16|TR17|TR18|TR19|TR20
Isles of Scilly,South West England,TR21|TR22|TR23|TR24|TR25
Cornwall,South West England,TR26|TR27|TR93
Middlesbrough,North East England,TS1|TS2|TS3|TS4|TS5
Redcar & Cleveland,North East England,TS6
Middlesbrough,North East England,TS7|TS8
Hambleton,North East England,TS9
Redcar & Cleveland,North East England,TS10|TS11|TS12|TS13|TS14
Stockton-on-Tees,North East England,TS15|TS16|TS17|TS18|TS19|TS20|TS21|TS22|TS23
Hartlepool,North East England,TS24|TS25|TS26|TS27
County Durham,North East England,TS28|TS29
Middlesborough,North East England,TS90
Richmond upon Thames,London,TW1|TW2
Hounslow,London,TW3|TW4|TW5
Hillingdon,London,TW6
Hounslow,London,TW7|TW8
Richmond upon Thames,London,TW9|TW10|TW11|TW12
Hounslow,London,TW13|TW14
Spelthorne,London,TW15|TW16|TW17|TW18|TW19
Runnymede,South East England,TW20
Ealing,London,UB1|UB2
Hillingdon,London,UB3|UB4
Ealing,London,UB5|UB6
Hillingdon,London,UB7|UB8
South Buckinghamshire,London,UB9
Hillingdon,London,UB10|UB11
Ealing,London,UB18
London,London,W1M|W1N|W1P|W1R
Westminster,London,W1S
Camden,London,W1T
Westminster,London,W1U
London,London,W1V
Westminster,London,W1W
London,London,W1X|W1Y
Westminster,London,W1K|W1J|W1H|W1G|W1F|W1D|W1C|W1B|W1A|W2
Ealing,London,W3
Hounslow,London,W4
Ealing,London,W5
Hammersmith and Fulham,London,W6
Ealing,London,W7
Kensington and Chelsea,London,W8
Westminster,London,W9
Kensington and Chelsea,London,W10|W11
Hammersmith and Fulham,London,W12
Ealing,London,W13
Kensington and Chelsea,London,W14
Warrington,North West England,WA1|WA2
Wigan,North West England,WA3
Warrington,North West England,WA4|WA5
Cheshire West and Chester,North West England,WA6
Halton,North West England,WA7|WA8
St. Helens,North West England,WA9|WA10|WA11|WA12
Warrington,North West England,WA13
Trafford,North West England,WA14|WA15
Cheshire East,North West England,WA16
Warrington,North West England,WA55
Halton,North West England,WA88
Camden,London,WC1X|WC1V|WC1R|WC1N|WC1H|WC1E|WC1B|WC1A
Westminster,London,WC2R|WC2N|WC2H|WC2E
Camden,London,WC2B|WC2A
London,London,WC99
Watford,East of England,WD1|WD2
Three Rivers,East of England,WD3
Dacorum,East of England,WD4
Three Rivers,East of England,WD5
Hertsmere,East of England,WD6|WD7
Watford,East of England,WD17|WD18|WD19
Hertsmere,East of England,WD23
Watford,East of England,WD24|WD25|WD99
Wakefield,Yorkshie and the Humber,WF1|WF2
Leeds,Yorkshie and the Humber,WF3
Wakefield,Yorkshie and the Humber,WF4|WF5|WF6|WF7|WF8|WF9|WF10|WF11
Kirklees,Yorkshie and the Humber,WF12|WF13|WF14|WF15|WF16|WF17
Wakefield,Yorkshie and the Humber,WF90
Wigan,North West England,WN1|WN2|WN3|WN4|WN5|WN6|WN7
West Lancashire,North West England,WN8
Worcester,West Midlands,WR1|WR2|WR3|WR4|WR5|WR6|WR7|WR8
Wychavon,West Midlands,WR9|WR10|WR11|WR12
Malvern Hills,West Midlands,WR13|WR14
Worcester,West Midlands,WR15|WR78|WR99
Walsall,West Midlands,WS1|WS2|WS3|WS4|WS5
South Staffordshire,West Midlands,WS6
Lichfield,West Midlands,WS7
Walsall,West Midlands,WS8|WS9
Sandwell,West Midlands,WS10
Cannock Chase,West Midlands,WS11|WS12
Lichfield,West Midlands,WS13|WS14
Cannock Chase,West Midlands,WS15
Wolverhampton,West Midlands,WV1|WV2|WV3|WV4
South Staffordshire,West Midlands,WV5
Wolverhampton,West Midlands,WV6|WV7|WV8|WV9|WV10|WV11|WV12|WV13|WV14
Shropshire,West Midlands,WV15|WV16
Wolverhampton,West Midlands,WV98
York,Yorkshie and the Humber,YO1|YO2|YO3|YO4|YO5|YO6
North Yorkshire,Yorkshie and the Humber,YO7
York,Yorkshie and the Humber,YO8|YO10
North Yorkshire,Yorkshie and the Humber,YO11|YO12|YO13|YO14
East Riding of Yorkshire,Yorkshie and the Humber,YO15|YO16
North Yorkshire,Yorkshie and the Humber,YO17|YO18
York,Yorkshie and the Humber,YO19
North Yorkshire,Yorkshie and the Humber,YO21|YO22
York,Yorkshie and the Humber,YO23|YO24
East Riding of Yorkshire,Yorkshie and the Humber,YO25
York,Yorkshie and the Humber,YO26|YO30|YO31|YO32|YO41
East Riding of Yorkshire,Yorkshie and the Humber,YO42|YO43
North Yorkshire,Yorkshie and the Humber,YO51
York,Yorkshie and the Humber,YO60
North Yorkshire,Yorkshie and the Humber,YO61|YO62
York,Yorkshie and the Humber,YO90|YO91|YO95
Shetland,Scotland,ZE1|ZE2|ZE3
