name,districts,zipcodes
Agia Napa,,5340|5341|5342|5343|5344|5345|5346|5347|5348|5349
Agios Athanasios,,4102|4106|4108|4107|4105|4107|4104|4103|4108|4105|4102|4105|4106|4102|4105|4102|4106|4103|4103|4106|4108|4102|4102|4105|4107|4102|4106|4102|4103|4102|4106|4106|4102|4103|4105|4106|4105|4108|4102|4100|4105|4105|4105|4102|4104|4106|4105|4108|4105|4108|4106|4101|4106|4108|4106|4104|4105|4106|4105|4104|4104|4106|4103|4107|4100|4100|4106|4105|4105|4104|4104|4108|4106|4108|4102|4104|4104|4108|4107|4106|4108|4102|4105|4106|4102|4102|4108|4108|4101|4105|4102|4102|4106|4107|4102|4103|4104|4104|4105|4105|4105|4107|4106|4108|4100|4106|4102|4102|4108|4102|4105|4105|4105|4105|4107|4102|4106|4107|4106|4102|4102|4105|4105|4107|4103|4105|4100|4107|4105|4103|4102|4107|4106|4102|4105|4106|4103|4103|4105|4104|4101|4103|4106|4106|4107|4102|4107|4100|4108|4102|4102|4102|4107|4106|4106|4100|4104|4105|4102|4107|4103|4107|4102|4102|4104|4105|4107|4107|4107|4103|4105|4106|4106|4102|4108|4101|4104|4103|4107|4105|4105|4100|4107|4106|4101|4108|4104|4105|4101|4108|4105|4107|4100|4104|4105|4104|4105|4105|4104|4107|4108|4106|4107|4102|4106|4105|4100|4106|4106|4105|4103|4107|4103|4103|4105|4107|4105|4104|4104|4105|4108|4106|4102|4105|4106|4103|4106|4105|4108|4107|4106|4106|4105|4106|4100|4102|4102|4105|4102|4102|4108|4104|4105|4102|4104|4103|4105|4102|4107|4104|4106|4103|4104|4107|4103|4105|4104|4100|4102|4105|4104|4105|4105|4102|4101|4105|4104|4106|4106|4106|4105|4104|4103|4105|4100|4106|4103|4103|4107|4106|4102|4102|4102|4104|4104|4105|4104|4106|4100|4103|4108|4105|4104|4106|4104|4103|4107|4108|4103|4102|4106|4105|4105|4106|4107|4102|4102|4104|4100|4100|4104|4108|4104|4107|4100|4102|4106|4105|4104|4106|4102|4108|4105|4107
Agios Dometios,,2368|2365|2361|2373|2370|2362|2362|2362|2361|2369|2362|2369|2364|2363|2370|2365|2362|2369|2368|2363|2373|2362|2362|2369|2363|2364|2369|2369|2373|2363|2364|2369|2369|2362|2362|2363|2364|2364|2363|2362|2369|2368|2369|2370|2360|2363|2364|2365|2362|2369|2362|2362|2365|2364|2368|2368|2369|2365|2364|2365|2362|2370|2361|2360|2363|2364|2369|2369|2365|2368|2363|2361|2369|2369|2369|2369|2369|2364|2360|2373|2368|2369|2370|2363|2365|2360|2363|2363|2368|2364|2369|2364|2368|2369|2370|2368|2362|2362|2361|2365|2362|2364|2364|2368|2362|2361|2364|2369|2364|2363|2362|2362|2370|2373|2364|2363|2362|2361|2365|2370|2369|2365|2364|2373|2368|2362|2364|2362|2364|2365|2365|2373|2370|2362|2369|2363|2363|2363|2369|2369|2364|2363|2364|2361|2363|2364|2362|2364|2362|2364|2362|2365|2360|2363|2373|2364|2365|2369|2364|2363|2364|2360|2365|2364|2368|2370|2373|2373|2363|2360|2373|2368|2360|2363|2369|2365|2368|2373|2364|2370|2370|2370|2361|2364|2361
Agios Tychonas Touristiki Periochi,,4532|4532|4532|4532|4532|4532|4532|4532|4532|4532|4532
Aglantzia (Aglangia),,2114|2122|2114|2107|2103|2108|2103|2109|2103|2103|2113|2103|2108|2108|2115|2121|2107|2114|2101|2102|2123|2103|2103|2101|2121|2108|2123|2103|2121|2122|2102|2123|2101|2103|2112|2122|2102|2122|2114|2107|2103|2123|2103|2102|2109|2103|2121|2114|2103|2102|2121|2101|2101|2101|2100|2108|2108|2121|2107|2121|2103|2103|2101|2103|2103|2102|2109|2109|2114|2108|2113|2103|2109|2123|2103|2108|2113|2103|2123|2103|2114|2109|2103|2112|2114|2107|2114|2112|2108|2108|2114|2108|2113|2101|2107|2107|2114|2112|2103|2123|2113|2123|2107|2108|2102|2123|2112|2122|2103|2101|2121|2108|2103|2103|2103|2113|2112|2107|2102|2102|2100|2114|2115|2114|2103|2114|2102|2114|2108|2109|2107|2112|2108|2109|2103|2113|2107|2107|2113|2113|2103|2115|2114|2113|2112|2114|2113|2123|2113|2108|2102|2122|2121|2112|2107|2121|2122|2103|2107|2114|2112|2103|2123|2108|2121|2112|2121|2115|2103|2101|2103|2113|2103|2108|2108|2108|2103|2103|2114|2103|2112|2102|2114|2113|2103|2102|2101|2102|2103|2100|2103|2114|2122|2112|2121|2123|2103|2103|2115|2103|2103|2102|2123|2102|2123|2122|2114|2103|2107|2102|2107|2112|2103|2122|2108|2121|2121|2122|2112|2102|2115|2107|2102|2103|2108|2108|2108|2108|2103|2109|2114|2108|2114|2102|2112|2103|2114|2112|2103|2107|2103|2102|2122|2122|2121|2103|2108|2109|2114|2113|2102|2108|2121|2109|2121|2122|2113|2102|2103|2102|2113|2109|2115|2102|2102|2101|2103|2103|2113|2102|2103|2107|2102|2112|2123|2102|2102|2113|2123|2114|2103|2103|2112|2109|2123|2113|2103|2102|2112|2101|2114|2113|2109|2122|2122|2101|2103|2122|2114|2120|2122|2114|2103|2113|2102|2114|2101|2103|2103|2103|2112|2103|2103|2103|2112|2108|2121|2123|2122|2102|2122|2103|2103|2102|2107|2103|2115|2114|2112|2102|2102|2114|2103|2102|2102|2122|2109|2115|2121|2107|2103|2123|2102|2122|2121|2107|2112|2109|2122|2114|2113|2107|2103|2113|2114|2121|2115|2114|2107|2103|2102|2108|2114|2107|2114|2112|2123|2107|2123|2113|2109|2113|2112|2103|2114|2103|2114
Agros,,4866
Akaki,,2732
Ammochostos,,5521|5500|5560|5330|5391|5870|5820|5761|5651|5721|5872|5520|5720|5762|5722|5620|5621|5821|5723|5871|5750|5623|5000|5652|5763|5724|5622|5561|5725|5510|5731|5878|5523|5765|5380|5370|5627|5824|5771|5350|5624|5825|5874|5727|5655|5764|5800|5625|5626|5563|5766|5656|5826|5827|5828|5564|5657|5875|5565|5767|5728|5600|5729|5829|5628|5320|5540|5830|5566|5768|5629|5650|5831|5630|5631|5730|5524|5873|5632|5877|5658|5832|5769|5280 - 5297|5732|5633|5733|5634|5770|5833|5635|5661|5659|5850|5636|5637|5567|5390|5734|5876|5568|5525|5638|5735|5834|5700|5660|5654|5823|5562|5653|5726|5822|5522
Aradippou,,7110|7111|7112|7104|7104|7104|7104|7103|7103|7103|7102|7101|7102|7102|7102|7102|7104|7101|7101|7101|7100|7100|7104|7101|7104|7101|7104|7101|7103|7104|7100|7101|7101|7102|7103|7101|7101|7101|7101|7100|7102|7102|7102|7101|7101|7104|7102|7101|7101|7102|7100|7100|7102|7104|7101|7104|7101|7101|7103|7104|7101|7101|7102|7101|7103|7103|7101|7101|7104|7102|7101|7101|7103|7102|7101|7100|7100|7104|7103|7101|7101|7104|7100|7101|7102|7101|7103|7101|7104|7104|7100|7101|7103|7104|7101|7102|7104|7101|7103|7103|7104|7103|7100|7104|7104|7101|7103|7103|7100|7103|7103|7100|7104|7104|7104|7104|7103|7104|7104|7104|7102|7104|7104|7104|7102|7102|7103|7104|7104|7102|7101|7101|7103|7104|7104|7101|7100|7101|7104|7100|7101|7103|7102|7100|7104|7102|7103|7103|7101|7102|7104|7101|7104|7104|7102|7101|7103|7101|7102|7102|7103|7103|7103|7104|7102|7102|7101|7102|7104|7102|7102|7104|7102|7103|7100|7102|7104|7102|7100|7104|7104|7101|7101|7104|7100|7103|7100|7102|7102|7100|7104|7104|7101|7100|7104|7101|7100|7103|7100|7101|7104|7103|7102|7100|7104|7104|7103|7103|7104|7102|7104|7103|7104|7103|7104|7104|7104|7101|7100|7101|7101|7101|7104|7100|7100|7104|7101|7104|7104|7101|7103|7102|7101|7102|7101|7102|7104|7100|7101|7100|7102|7101|7100|7102|7103|7103|7103|7104|7100|7102|7104|7104|7100|7100|7100|7104|7102|7100|7100|7101|7103|7101|7103|7104|7104|7104|7104|7100|7104|7100|7101|7104|7104|7103|7102|7102|7103|7104|7101|7103|7100|7102|7102|7102|7104|7100|7104|7104|7104|7101|7102|7101|7104|7100|7104|7101|7104|7101|7104|7102|7101|7101|7104|7100|7102|7104|7101|7104|7102|7104|7100|7103|7102|7101|7100|7102|7100|7104|7100|7101|7104|7101|7100|7104|7101|7100|7100|7102|7100|7100|7101|7102|7103|7100|7102|7104|7103|7102|7100|7101|7104|7104|7104|7100|7104|7101|7101|7104|7104|7102|7100|7104|7102|7102|7103|7104|7101|7101|7102|7104|7102|7102|7102|7102|7104|7100|7103|7104|7101|7104|7104|7102|7100|7104|7104|7102|7104|7101|7100|7103|7104|7100|7104|7101|7103|7102|7101|7104|7102|7100|7104|7102|7101|7102|7102|7101|7102|7103|7104|7104|7100|7103|7104|7100|7103|7101|7104|7104|7104|7104|7100|7100|7104|7104|7104|7102|7103|7104|7101|7104|7100|7100|7104|7102|7100|7104|7104|7101|7104|7102|7104|7102|7104|7100|7100|7102|7100|7100|7101|7101|7104|7101|7103|7104|7104|7101|7103|7101|7100|7101|7104|7104|7104|7101|7104|7102|7102|7103|7100|7103|7102|7102|7104|7100|7103|7100|7101|7104|7103|7102|7101|7104|7100|7104|7101|7103|7100|7104|7104|7104|7102|7102|7100|7101|7104|7100|7104|7104|7104|7101|7102|7104|7104|7101|7104|7101|7100|7103|7104|7103|7102|7104|7103|7104|7104|7104|7102|7103|7104|7102|7101|7103|7101|7104|7102|7102|7102|7101|7104|7101|7100|7101|7103|7102|7100|7103|7104|7104|7101|7100|7100|7100|7102|7103|7100|7102|7102|7103|7100|7102|7103|7104|7104|7104|7101|7104|7104|7101|7104|7101|7102|7101|7102|7103|7104|7104|7102|7102|7104|7101|7100|7104|7100|7102|7103|7104|7104|7104|7104|7101|7101|7104|7104|7100|7100|7101|7101|7103|7104|7102|7104|7101|7102|7104|7101|7101|7102|7103|7100|7104|7104|7104|7103|7100|7100|7104|7104|7103|7103|7101|7102|7103|7102|7104
Athienou,,7610
Avgorou,,5515|5516
Chlorakas,,8220|8221|8220|8221|8220|8220|8220|8221|8221|8220|8220|8220|8220|8221|8221|8200|8220|8220|8220|8220|8221|8220|8221|8220|8220|8220|8220|8220|8221|8220|8221|8221|8221|8221|8221|8220|8220|8221|8220|8220|8221|8220|8220|8221|8220|8220|8221|8220|8220|8221|8221|8221|8220|8221|8221|8221|8221|8220|8221|8221|8220|8220|8220|8220|8221|8220|8220|8221|8220|8221|8220|8220|8221|8221|8220|8221|8220|8220|8220|8220|8220|8221|8221|8221|8221|8221|8220|8220|8220|8221|8220|8221|8221|8221|8220|8220|8221|8220|8221|8220|8220|8220|8220|8220|8220|8220|8220|8220|8221|8221|8221|8220|8221|8220|8221|8221|8221
Dali,,2550|2551
Dasaki Achnas,,5526|5527
Deryneia,,5385|5386|5387
Dromolaxia,,7020|7020|7020|7020|7020|7020|7020|7020|7020|7020|7020|7020|7020|7020|7020|7020|7020|7020|7020|7020|7020|7020|7020|7020|7020|7020|7020|7020|7020|7020|7020|7020|7020|7020|7020|7020|7020|7020|7020|7020|7020|7020|7020|7020|7020|7020|7020|7020|7020|7020|7020|7020|7020|7020|7020|7020|7020|7020|7020|7020|7020|7020|7020|7020|7020|7020|7020|7020|7020|7020|7020|7020|7020|7020|7020|7020|7020|7020|7020|7020|7020|7020|7020|7020|7020|7020|7020|7020|7020|7020|7020|7020|7020|7020|7020|7020|7020|7020|7020|7020|7020|7020|7020|7020|7020|7020|7020|7020|7020|7020|7020|7020|7020|7020|7020|7020|7020|7020|7020|7020|7020|7020|7020|7020|7020|7020|7020|7020|7020|7020|7020|7020|7020|7020|7020|7020|7020|7020|7020|7020|7020|7020|7020|7020|7020|7020|7020|7020|7020|7020|7020|7020|7020|7020|7020|7020|7020|7020|7020|7020|7020|7020|7020|7020|7020
Egkomi,,2408|2406|2416|2408|2415|2417|2402|2414|2402|2416|2417|2402|2408|2412|2416|2402|2408|2401|2407|2408|2412|2413|2400|2408|2415|2402|2416|2408|2406|2408|2404|2406|2401|2400|2416|2410|2406|2411|2416|2416|2414|2414|2400|2401|2415|2400|2413|2416|2413|2406|2407|2408|2408|2416|2413|2412|2408|2402|2413|2408|2416|2404|2410|2411|2413|2414|2406|2407|2408|2409|2414|2416|2407|2416|2402|2412|2415|2411|2402|2414|2411|2414|2409|2401|2401|2407|2414|2402|2407|2413|2413|2400|2416|2402|2415|2411|2416|2401|2413|2414|2402|2417|2400|2412|2406|2406|2412|2407|2413|2413|2411|2412|2416|2400|2411|2410|2416|2404|2410|2409|2408|2417|2413|2414|2401|2400|2406|2413|2411|2402|2402|2406|2402|2402|2402|2406|2413|2414|2416|2402|2410|2402|2408|2401|2400|2401|2412|2407|2408|2409|2411|2414|2410|2401|2417|2400|2401|2415|2416|2413|2416|2415|2414|2411|2401|2415|2408|2400|2410|2417|2415|2414|2413|2415|2411|2415|2409|2411|2411|2400|2411|2413|2407|2409|2404|2407|2404|2400|2411|2407|2417|2412|2413|2417|2408|2416|2416|2401|2409|2413|2417|2414|2407|2400|2407|2416|2401|2402|2415|2400|2411|2417|2416|2412|2413|2410|2413|2400|2411|2407|2407|2408|2413|2414|2404|2414|2406|2402|2416|2416|2401|2412|2413|2412|2413|2416|2414|2416|2411|2413|2407|2412|2417|2401|2413|2413|2407|2416|2412|2414|2417|2409|2413|2406|2406|2414|2406|2417|2401|2400|2412|2406|2416|2413|2408|2401|2406|2408|2400|2413|2411|2415|2401|2413|2408|2414|2406|2416|2416|2412|2406|2401|2401|2415|2402|2415|2412|2415|2402|2402|2412|2402|2412|2412|2416|2402|2402|2416|2417|2401|2404|2407|2402|2416|2407|2416|2416|2415|2407|2402|2417|2416|2411|2413|2411|2412|2413|2400|2408|2409|2412|2400|2408|2408|2411|2411|2407|2401|2413|2413|2408|2400|2401|2416|2401|2416|2416|2416|2412|2406|2409|2416|2416|2413|2412|2400|2417|2415|2400|2413|2401|2415|2417|2416|2416|2411|2401|2413|2416|2406|2417
Ergates,,2654
Frenaros,,5360
Geri,,2200|2200|2202|2200|2202|2201|2200|2201|2200|2200|2200|2200|2200|2200|2200|2202|2200|2202|2200|2200|2200|2200|2202|2200|2202|2200|2200|2202|2200|2200|2202|2201|2200|2201|2200|2200|2201|2201|2201|2200|2202|2200|2200|2200|2201|2200|2202|2202|2201|2202|2201|2200|2200|2200|2202|2201|2200|2200|2202|2200|2200|2200|2201|2201|2201|2200|2201|2200|2202|2202|2200|2200|2200|2200|2200|2202|2202|2202|2200|2200|2201|2201|2200|2201|2202|2202|2202|2200|2201|2200|2200|2202|2202|2200|2201|2202|2200|2200|2202|2201|2202|2201|2202|2200|2202|2200|2200|2200|2200|2202|2200|2201|2202|2200|2200|2201|2200|2200|2202|2201|2201|2200|2201|2202|2202|2201|2200|2200|2200|2202|2201|2200|2200|2201|2201|2200|2201|2202|2200|2200|2202|2202|2201|2201|2202|2200|2201|2200|2202|2200|2200|2201|2202|2202|2202|2201|2200|2201|2200|2202|2200|2200|2200|2200|2201|2202|2200|2200|2200|2202|2201|2200|2200|2202|2202|2201|2202|2200|2200|2200|2202|2200|2200|2200|2200|2200|2202|2202|2200|2200|2201|2200|2200|2200|2201|2202|2201|2200|2200|2200|2202|2201|2200|2200|2200|2202|2200|2202|2202|2200|2202|2202|2201|2200
Germasogeia,,4043|4044|4040|4040|4042|4045|4044|4045|4044|4044|4046|4045|4046|4047|4041|4042|4043|4045|4042|4045|4040|4041|4046|4045|4041|4040|4041|4043|4045|4045|4045|4043|4042|4046|4045|4044|4044|4043|4041|4042|4043|4044|4044|4043|4046|4046|4043|4046|4044|4042|4047|4043|4043|4045|4044|4042|4044|4041|4041|4043|4045|4046|4045|4047|4041|4047|4043|4044|4046|4044|4040|4044|4046|4042|4042|4040|4045|4046|4040|4040|4040|4043|4046|4043|4044|4040|4044|4046|4043|4040|4040|4046|4041|4041|4044|4049|4049|4044|4042|4046|4043|4045|4045|4044|4043|4046|4041|4046|4043|4045|4043|4046|4044|4045|4044|4045|4043|4040|4044|4041|4046|4046|4043|4044|4042|4045|4044|4044|4040|4045|4044|4044|4044|4045|4045|4044|4045|4040|4044|4042|4046|4040|4045|4041|4044|4045|4046|4044|4046|4044|4047|4044|4045|4044|4044|4043|4049|4042|4044|4047|4044|4043|4040|4044|4044|4044|4044|4043|4044|4045|4049|4045|4047|4040|4042|4043|4043|4043|4043|4044|4044|4045|4045|4040|4044|4043|4040|4045|4046|4046|4044|4044|4044|4041|4047|4041|4044|4044|4045|4046|4045|4040|4042|4045|4045|4044|4045|4045|4041|4045|4047|4045|4043|4041|4041|4044|4045|4044|4045|4043|4043|4040|4044|4045|4044|4046|4046|4044|4041|4044|4042|4044|4049|4042|4046|4045|4044|4041|4044|4044|4044|4047|4041|4042|4046|4044|4046|4044|4042|4044|4043|4043|4040|4045|4044|4044|4044|4044|4046|4044|4040|4040|4045|4045|4040|4041|4044|4044|4046|4047|4044|4045|4044|4047|4041|4045|4044|4046|4044|4045|4049|4044|4046|4044|4044|4044|4043|4044|4040|4045|4044|4047|4046|4044|4047|4044|4046|4045|4040|4042|4049|4041|4049|4046|4044|4045|4045|4043|4045|4045|4044|4045|4042|4044|4040|4047|4045|4046|4044|4045|4044|4043|4044|4045|4049|4044|4041|4040|4045|4045|4045|4045|4041|4044|4046|4042|4046|4045|4043|4044|4040|4047|4048|4044|4040|4049|4045|4043|4044|4046|4043|4046|4047|4046|4046|4046|4045|4046|4043|4047|4045|4041|4044|4045
Geroskipou,,8210|8211|8212|8200|8200|8200|8201|8200|8200|8200|8201|8200|8200|8200|8201|8200|8201|8200|8200|8200|8200|8200|8200|8200|8200|8200|8200|8201|8201|8201|8201|8201|8201|8200|8200|8201|8201|8201|8200|8200|8200|8201|8201|8201|8200|8201|8201|8200|8201|8200|8200|8200|8201|8201|8200|8201|8200|8201|8201|8201|8201|8201|8200|8200|8201|8200|8200|8201|8201|8200|8201|8201|8201|8201|8200|8201|8201|8200|8200|8200|8201|8200|8201|8201|8200|8200|8200|8201|8200|8201|8200|8200|8200|8201|8200|8201|8200|8200|8200|8201|8201|8201|8201|8200|8200|8201|8200|8201|8200|8201|8201|8200|8201|8201|8200|8200|8201|8200|8200|8201|8200|8200|8200|8200|8200|8201|8201|8201|8200|8200|8201|8201|8201|8201|8201|8201|8201|8200|8201|8200|8201|8200|8201|8201|8200|8200|8201|8201|8200|8201|8200|8201|8200|8201|8200|8201|8201|8201|8200|8201|8200|8200|8201|8200|8201|8201|8200|8201|8201|8200|8201|8201|8200|8201|8200|8200|8200|8200|8200|8201|8201|8201|8200|8201|8200|8201|8201|8200|8200|8200|8200|8201|8201|8201|8200|8201|8200|8201|8200|8200|8200|8200|8201|8201|8200|8201|8201|8201|8200|8201|8201|8201|8201|8200|8201|8201|8200|8200|8200|8200|8200|8200|8200|8200|8200
Kaimakli,,1026|1027|1025|1025|1026|1036|1026|1037|1026|1021|1027|1028|1026|1026|1026|1026|1021|1041|1026|1026|1026|1020|1026|1021|1037|1026|1022|1021|1036|1036|1037|1026|1022|1026|1022|1025|1041|1037|1037|1037|1022|1036|1041|1036|1041|1021|1025|1028|1037|1037|1022|1026|1026|1025|1021|1036|1037|1036|1026|1028|1037|1026|1025|1037|1037|1037|1021|1036|1025|1021|1036|1021|1021|1021|1022|1037|1027|1028|1037|1041|1025|1021|1022|1021|1021|1025|1022|1026|1022|1025|1025|1021|1027|1021|1026|1026|1025|1036|1027|1021|1022|1036|1026|1021|1021|1021|1021|1041|1026|1021|1026|1037|1026|1026|1022|1026|1026|1022|1025|1027|1041|1027|1022|1026|1022|1020|1026|1037|1036|1037|1021|1021|1021|1021|1026|1026|1037|1021|1021|1027|1022|1021|1021|1020|1037|1021|1022|1025|1025|1022|1036|1036|1037|1022|1022|1036|1037|1022|1022|1037|1036|1020|1036|1036|1041|1027|1026|1026|1022|1025|1026|1022|1025|1036|1037|1022|1036|1026|1026|1026|1026|1036|1028|1025|1036|1041|1026|1022|1037|1037|1021|1022|1021|1021|1026|1026|1041|1022|1021|1036|1041|1026|1022|1021|1020|1026|1027|1026|1025|1025|1021|1041|1022|1036
Kakopetria,,2810|2811
Kato Deftera,,2456|2457
Kato Polemidia,,4153|4151|4150|4154|4154|4154|4170|4150|4151|4154|4156|4152|4150|4153|4152|4150|4150|4157|4152|4152|4156|4157|4157|4150|4156|4159|4170|4157|4157|4156|4158|4158|4159|4159|4159|4157|4159|4170|4159|4157|4151|4157|4156|4156|4159|4159|4159|4159|4159|4159|4159|4159|4159|4157|4170|4155|4155|4155|4155|4155|4155|4155|4155|4155|4155|4155|4155|4152|4152|4152|4152|4152|4152|4152|4152|4152|4152|4152|4152|4152|4152|4152|4152|4152|4152|4152|4152|4152|4159|4159|4159|4159|4159|4159|4159|4159|4159|4159|4159|4159|4159|4159|4155|4155|4155|4155|4155|4155|4159|4159|4170|4170|4159|4159|4159|4153|4153|4153|4153|4153|4153|4153|4153|4153|4152|4152|4152|4152|4152|4152|4152|4152|4153|4158|4158|4158|4158|4158|4158|4157|4170|4154|4150|4153|4158|4156|4156|4157|4150|4151|4151|4157|4154|4159|4152|4156|4170|4154|4150|4153|4153|4154|4151|4156|4156|4152|4151|4151|4159|4157|4159|4159|4150|4154|4152|4150|4150|4150|4152|4159|4152|4150|4150|4150|4159|4153|4150|4154|4154|4151|4159|4150|4151|4150|4151|4156|4156|4152|4170|4156|4154|4154|4154|4153|4151|4151|4151|4152|4153|4152|4157|4151|4152|4154|4153|4151|4151|4159|4159|4159|4158|4151|4152|4152|4154|4156|4154|4156|4153|4155|4151|4151|4170|4152|4150|4170|4170|4170|4170|4152|4152|4155|4156|4156|4152|4151|4170|4152|4154|4151|4170|4150|4153|4170|4156|4151|4159|4156|4150|4156|4150|4156|4156|4150|4152|4156|4151|4159|4152|4151|4170|4151|4153|4152|4156|4152|4154|4153|4156|4170|4170|4151|4156|4151|4150|4151|4151|4155|4152|4154|4150|4155|4150|4150|4152|4170|4152|4170|4151|4154|4156|4150|4153|4153|4153|4155|4156|4153|4152|4153|4154|4154|4152|4156|4150|4156|4150|4159|4150|4152|4170|4150|4154|4152|4156|4152|4152|4152|4150|4155|4155|4152|4151|4158|4152|4156|4156|4154|4152|4152|4154|4153|4151|4156|4151|4154|4156|4151|4153|4170|4153|4151|4151|4150|4151|4152|4158|4154|4154|4153|4155|4150|4150|4151|4151|4152|4155|4154|4154|4150|4155|4154|4152|4170|4156|4151|4151|4152|4150|4154|4156|4159|4156|4156|4156|4151|4155|4156|4158|4152|4150|4155|4153|4150|4150|4150|4156|4154|4150|4156|4152|4159|4152|4150|4150|4155|4156|4155|4150|4154|4150|4150|4151|4150|4157|4157|4159|4151|4150|4156|4154
Keryneia,,9610|9560|9500|9611|9390|9612|9541|9570|9613|9514|9576|9577|9530|9540|9614|9632|9551|9639|9571|9615|9512|9200|9513|9616|9511|9000|9543|9572|9617|9618|9544|9545|9300|9619|9633|9634|9546|9621|9573|9574|9635|9600|9547|9636|9637|9638|9548|9620|9550|9549|9515|9510|9575|9516|9631|9630|9542
Kiti,,7565|7566
Kokkinotrimithia,,2666
Koloni,,8310|8310|8310|8310|8310|8310|8310|8310|8310|8310|8310|8310|8310|8310|8310|8310|8310|8310|8310|8310|8310|8310|8310|8310|8310|8310|8310|8310|8310|8310|8310|8310|8310
Lakatameia,,2311|2323|2320|2326|2323|2300|2301|2310|2323|2320|2304|2322|2311|2311|2322|2301|2314|2314|2313|2314|2312|2310|2310|2322|2313|2322|2334|2311|2335|2321|2304|2311|2325|2324|2311|2311|2320|2305|2324|2304|2325|2334|2328|2325|2332|2324|2323|2303|2304|2311|2321|2312|2320|2314|2313|2326|2311|2331|2311|2321|2314|2311|2326|2321|2311|2311|2328|2324|2311|2311|2311|2302|2326|2328|2314|2325|2326|2333|2321|2334|2314|2305|2325|2313|2323|2303|2335|2330|2331|2304|2300|2304|2324|2334|2312|2311|2330|2322|2301|2312|2304|2334|2311|2306|2304|2335|2326|2311|2300|2314|2326|2326|2325|2302|2335|2304|2311|2326|2326|2312|2323|2326|2310|2326|2325|2326|2326|2331|2326|2310|2313|2330|2331|2304|2331|2326|2326|2311|2323|2326|2314|2311|2312|2323|2303|2323|2313|2326|2326|2300|2325|2304|2311|2314|2326|2328|2325|2323|2326|2322|2311|2322|2328|2335|2326|2324|2324|2326|2312|2325|2303|2328|2304|2310|2312|2324|2325|2335|2304|2300|2326|2326|2304|2334|2324|2322|2324|2324|2304|2321|2310|2311|2312|2320|2321|2320|2313|2335|2313|2311|2323|2313|2330|2314|2332|2311|2311|2322|2313|2314|2322|2328|2312|2300|2311|2334|2314|2310|2335|2320|2323|2312|2326|2320|2322|2325|2325|2321|2321|2302|2311|2311|2325|2335|2326|2322|2310|2330|2300|2311|2311|2313|2326|2326|2313|2331|2321|2302|2320|2312|2310|2300|2321|2330|2313|2312|2300|2311|2326|2324|2311|2325|2328|2335|2320|2320|2323|2311|2311|2332|2330|2313|2311|2335|2324|2325|2302|2311|2334|2313|2305|2311|2310|2335|2328|2326|2304|2325|2326|2326|2328|2313|2324|2325|2302|2326|2330|2324|2325|2330|2323|2324|2305|2301|2323|2334|2330|2302|2305|2311|2326|2303|2321|2304|2312|2326|2314|2313|2314|2324|2323|2311|2323|2322|2302|2311|2311|2313|2314|2328|2302|2330|2330|2312|2335|2333|2313|2305|2328|2322|2311|2322|2320|2335|2325|2333|2333|2335|2324|2328|2328|2325|2334|2302|2328|2300|2304|2312|2313|2313|2313|2333|2333|2324|2324|2306|2335|2323|2333|2321|2332|2323|2313|2311|2313|2313|2335|2313|2330|2313|2325|2335|2328|2311|2335|2322|2311|2312|2325|2311|2323|2330|2303|2301|2322|2323|2321|2325|2335|2322|2328|2314|2314|2322|2323|2310|2302|2324|2302|2311|2328|2313|2324|2323|2320|2321|2314|2321|2330|2334|2320|2320|2328|2302|2324|2335|2304|2323|2334|2320|2330|2324|2302|2303|2326|2330|2324|2326|2303|2314|2314|2312|2321|2333|2333|2334|2333|2328|2328|2323|2333|2325|2322|2324|2324|2302|2310|2312|2320|2324|2311|2322|2304|2304|2328|2328|2320|2310|2311|2323|2313|2311|2311|2321|2312|2311|2335|2320|2321|2312|2304|2322|2326|2320|2313|2301|2305|2334|2320|2323|2330|2320|2312|2328|2310|2320|2326|2311|2325|2303|2333|2311|2314|2332|2326|2330|2320|2314|2334|2325|2334|2301|2335|2324|2334|2320|2312|2326|2312|2314|2320|2301|2323|2311|2312|2328|2332|2311|2325|2335|2328|2333|2334|2332|2312|2312|2324|2321|2321|2326|2334|2332|2310|2300|2334|2313|2321|2320|2313|2325|2311|2321|2304|2328|2312|2330|2320|2332|2320|2311|2332|2304|2311|2335|2322|2323|2323|2330|2330|2330|2314|2320|2300|2304|2331|2314|2326|2324|2322|2323|2323|2320|2310|2311|2320|2331|2322|2314|2335|2325|2323|2333|2311|2323|2326|2335|2313|2314|2301|2335|2332|2302|2320|2311|2331|2321|2321|2302|2330|2321|2311|2326|2334|2325|2335|2313|2324|2323|2334|2323|2322|2321|2334|2313|2324|2312|2326|2311|2330|2328|2334|2332|2334|2311|2321|2320|2323|2312|2335|2311|2323|2326|2326|2311|2304|2300|2301|2311|2306|2324|2322|2311|2314|2334|2334|2323|2312|2311|2326|2325|2323|2313|2314|2312|2333|2305|2335|2331|2323|2304|2313|2320|2324|2334|2330|2322|2314|2312|2334|2331|2313|2330|2330|2303|2302|2303|2335|2301|2326|2310|2314|2325|2326|2325|2304|2313|2325|2303|2303|2325|2326|2303|2303|2303|2326|2324|2323|2334|2323|2322|2312|2313|2312|2305|2311|2312|2323|2311|2302|2303|2311|2333|2331|2330|2314|2334|2331|2313|2320|2321|2321|2335|2320|2325|2335|2313|2313|2312|2335|2325|2311|2310|2302|2326|2323|2324|2324|2305|2303|2322|2300|2323|2326|2326|2326|2326|2322|2330|2328|2326|2328|2321|2326|2311|2304|2332|2303|2311|2325|2304|2321|2320|2311|2325|2335|2304|2313|2300|2335|2313|2311|2320|2300|2332|2313|2320|2302|2335|2301|2326|2332|2311|2313|2323|2324|2314|2313|2322|2322|2311|2314|2326|2324|2328|2314|2314|2330|2314|2324|2314|2312|2325|2325|2325|2325|2325|2325|2311|2311|2323|2330|2334|2314|2324|2326|2324|2300|2306|2334|2326|2326|2325|2325|2312|2312|2326|2325|2326|2325|2322|2322|2322|2335|2312|2326|2324|2302|2300|2326|2324|2326|2326|2302|2320|2300|2314|2322|2323|2300
Lakatamia,,2340|2341|2342
Larnaka,,7641|7711|7730|7572|7570|7573|6370|7571|7574|See: Larnaka Streetnames|7620|7600|7501|7741|7502|7642|7722|7020|7714|7733|7643|7503|7550|7575|7576|7735|7640|7621|7715|See: Larnaka Streetnames|7710|7700|7060|7736|7737|7577|7716|7622|7000|7578|7644|7650|7717|7509|7646|7645|7647|7718|7719|7530|7040|7041|7721|7504|7560|7623|7506|7508|7743|7649|7080|7081|7648|7731|7561|7742|7734|7732|7562|7740|7624|7505|7738|7712|7713|7520|7510|7739|6300|6301|6302|6303|6304|6305|6399|6305|6306|6307|6398|6307|6308|6309|6500|6501|6502|6503|6530|6531|6532|6533|6534|6535|6650|6035|6018|6018|6052|6025|6057|6036|6036|6030|6057|6026|6010|6058|6020|6010|6046|6020|6045|6035|6031|6056|6037|6021|6053|6030|6052|6053|6037|6059|6056|6057|6056|6040|6040|6035|6040|6050|6013|6040|6040|6015|6050|6045|6046|6036|6037|6040|6012|6015|6050|6013|6036|6040|6020|6040|6011|6040|6036|6015|6056|6036|6036|6040|6040|6040|6047|6015|6036|6017|6040|6040|6045|6026|6036|6046|6041|6035|6031|6052|6037|6037|6030|6031|6045|6035|6020|6056|6026|6010|6042|6047|6052|6030|6026|6042|6052|6057|6035|6027|6047|6057|6021|6037|6056|6050|6052|6045|6031|6056|6045|6040|6052|6041|6027|6055|6018|6025|6036|6018|6050|6036|6025|6041|6050|6058|6040|6031|6027|6031|6041|6017|6056|6013|6021|6015|6045|6045|6057|6030|6056|6041|6056|6057|6016|6037|6052|6031|6056|6041|6052|6041|6052|6057|6056|6036|6058|6058|6056|6037|6041|6053|6056|6020|6025|6016|6021|6012|6012|6012|6012|6023|6023|6036|6051|6040|6036|6052|6036|6036|6016|6015|6050|6051|6021|6017|6041|6051|6031|6016|6031|6036|6045|6036|6041|6036|6056|6052|6041|6050|6035|6020|6052|6017|6031|6030|6053|6052|6022|6046|6013|6056|6036|6020|6030|6025|6031|6027|6051|6021|6047|6059|6058|6046|6050|6012|6021|6058|6023|6022|6058|6036|6041|6051|6045|6041|6030|6026|6026|6041|6026|6017|6026|6026|6056|6020|6037|6056|6031|6050|6045|6050|6030|6042|6041|6041|6050|6026|6026|6017|6035|6031|6047|6036|6050|6045|6047|6045|6045|6037|6013|6042|6041|6050|6015|6056|6041|6041|6050|6052|6031|6020|6030|6010|6057|6036|6015|6053|6056|6018|6021|6058|6050|6016|6037|6050|6041|6036|6021|6022|6013|6042|6053|6041|6043|6035|6016|6022|6058|6021|6020|6013|6017|6053|6057|6053|6046|6056|6031|6041|6016|6041|6046|6036|6015|6056|6035|6056|6027|6015|6031|6036|6037|6017|6050|6013|6051|6025|6046|6051|6030|6011|6045|6056|6030|6058|6043|6053|6036|6055|6053|6055|6046|6023|6022|6031|6051|6026|6050|6037|6050|6021|6027|6022|6056|6036|6031|6023|6051|6018|6059|6017|6057|6025|6031|6035|6037|6037|6050|6011|6042|6037|6056|6057|6023|6022|6045|6055|6041|6028|6021|6059|6025|6046|6036|6057|6030|6010|6056|6023|6058|6052|6052|6052|6057|6056|6051|6057|6016|6052|6057|6042|6043|6031|6017|6021|6058|6031|6016|6037|6030|6010|6050|6045|6035|6036|6046|6043|6027|6018|6018|6012|6050|6047|6017|6041|6041|6056|6017|6056|6037|6047|6045|6051|6027|6040|6050|6046|6045|6047|6051|6013|6031|6050|6028|6023|6017|6027|6040|6017|6045|6047|6043|6051|6045|6043|6023|6021|6052|6055|6051|6052|6043|6020|6027|6012|6042|6052|6021|6035|6037|6050|6057|6056|6041|6056|6043|6027|6056|6042|6043|6045|6052|6041|6042|6042|6018|6046|6042|6012|6017|6011|6050|6036|6059|6057|6041|6045|6031|6025|6046|6030|6057|6045|6057|6056|6036|6042|6036|6035|6057|6026|6051|6025|6026|6013|6052|6036|6036|6037|6042|6057|6017|6016|6037|6040|6052|6041|6056|6021|6056|6037|6017|6037|6042|6051|6053|6040|6031|6046|6037|6047|6025|6047|6018|6052|6036|6012|6026|6017|6016|6030|6015|6015|6020|6046|6042|6052|6016|6053|6022|6051|6050|6043|6018|6025|6018|6050|6040|6036|6022|6055|6046|6043|6027|6053|6053|6045|6046|6037|6012|6021|6047|6013|6021|6057|6036|6037|6035|6042|6011|6042|6047|6031|6051|6040|6043|6022|6042|6046|6028|6030|6041|6021|6016|6022|6025|6051|6016|6026|6047|6041|6030|6036|6036|6056|6041|6050|6015|6041|6037|6056|6041|6021|6036|6026|6040|6053|6056|6042|6056|6040|6030|6040|6022|6012|6056|6047|6013|6040|6040|6041|6042|6043|6046|6030|6030|6012|6047|6021|6045|6041|6036|6055|6018|6056|6012|6023|6015|6021|6037|6015|6025|6035|6056|6030|6030|6055|6052|6030|6055|6041|6017|6040|6041|6052|6017|6055|6057|6050|6030|6027|6018|6011|6057|6022|6026|6027|6059|6030|6040|6010|6050|6017|6027|6035|6026|6058|6045|6018|6028|6056|6015|6017|6020|6037|6043|6015|6055|6035|6017|6030|6037|6050|6056|6041|6043|6043|6041|6056|6036|6050|6010|6058|6056|6042|6042|6031|6011|6047|6018|6037|6011|6037|6036|6036|6052|6035|6017|6012|6012|6018|6017|6035|6021|6052|6050|6010|6035|6050|6022|6042|6021|6050|6013|6045|6021|6031|6041|6057|6036|6041|6028|6058|6052|6026|6057|6013|6030|6030|6058|6041|6025|6058|6046|6021|6058|6045|6025|6027|6059|6018|6015|6041|6040|6016|6010|6022|6027|6026|6027|6040|6022|6013|6025|6057|6056|6042|6042|6041|6013|6047|6026|6052|6021|6035|6037|6030|6059|6025|6055|6050|6013|6051|6052|6042|6043|6046|6046|6018|6026|6040|6042|6043|6021|6018|6055|6050|6056|6045|6030|6050|6047|6036|6056|6026|6027|6028|6027|6027|6027|6037|6057|6057|6057|6047|6051|6036|6015|6046|6043|6052|6018|6047|6027|6047|6041|6041|6042|6051|6052|6045|6047|6025|6013|6026|6051|6055|6018|6011|6051|6056|6013|6058|6059|6046|6036|6035|6052|6040|6057|6031|6030|6013|6011|6025|6047|6030|6036|6028|6025|6026|6027|6026|6017|6035|6030|6025|6027|6046|6053|6025|6041|6026|6059|6018|6015|6051|6051|6042|6057|6016|6036|6042|6025|6035|6056|6020|6042|6010|6030|6041|6028|6040|6025|6047|6040|6018|6053|6018|6058|6013|6051|6057|6053|6052|6047|6021|6020|6025|6023|6010|6050|6045|6017|6037|6036|6052|6051|6047|6045|6035|6056|6021|6046|6053|6041|6026|6030|6019|6057|6011|6045|6042|6041|6043|6057|6057|6015|6012|6047|6035|6040|6057|6041|6052|6017|6041|6042|6023|6030|6035|6057|6053|6035|6042|6021|6030|6037|6042|6036|6047|6026|6026|6045|6027|6056|6056|6037|6055|6037|6036|6047|6013|6036|6047|6037|6030|6031|6023|6041|6010|6041|6037|6040|6053|6023|6030|6030|6030|6023|6041|6030|6030|6052|6053|6056|6058|6037|6041|6037|6037|6023|6025|6036|6051|6041|6051|6030|6041|6040|6040|6030|6046|6052|6035|6053|6018|6056|6043|6052|6041|6026|6012|6018|6036|6041|6053|6025|6023|6022|6023
Latsia,,2250|2251|2252|2253|2254|2260|2261
Latsia (Lakkia),,2223|2235|2224|2224|2222|2220|2232|2220|2220|2220|2222|2235|2235|2223|2220|2236|2235|2232|2223|2236|2224|2236|2220|2224|2221|2235|2221|2235|2222|2235|2221|2221|2222|2235|2234|2236|2231|2236|2232|2222|2224|2232|2224|2222|2224|2220|2236|2231|2236|2234|2222|2235|2233|2232|2224|2224|2220|2230|2236|2235|2236|2224|2224|2222|2224|2221|2236|2231|2235|2232|2235|2236|2222|2220|2231|2223|2222|2231|2222|2235|2221|2236|2235|2230|2231|2236|2236|2231|2232|2235|2230|2236|2220|2230|2224|2222|2232|2236|2233|2233|2230|2223|2232|2221|2235|2235|2235|2235|2222|2220|2220|2233|2236|2224|2232|2224|2232|2231|2220|2235|2231|2234|2233|2221|2231|2235|2222|2235|2235|2235|2230|2230|2236|2237|2230|2231|2235|2224|2235|2234|2236|2236|2223|2236|2236|2230|2223|2224|2232|2231|2220|2237|2231|2235|2222|2234|2235|2222|2236|2222|2235|2222|2221|2222|2224|2231|2221|2231|2224|2231|2232|2234|2221|2221|2224|2222|2231|2231|2234|2230|2236|2230|2236|2231|2232|2236|2230|2235|2236|2224|2235|2235|2224|2223|2223|2231|2224|2222|2232|2220|2220|2221|2222|2224|2233|2224|2222|2234|2233|2232|2231|2235|2236|2235|2223|2224|2233|2235|2235|2236|2220|2221|2236|2223|2230|2236|2235|2222|2221|2236|2222|2235|2224|2221|2222|2238|2236|2236|2223|2224|2221|2235|2236|2235|2234|2232|2233|2231|2224|2224|2224|2222|2232|2235|2224|2235|2232|2236|2224|2236|2224|2235|2236|2232|2231|2233|2232|2236|2222|2221|2231|2231|2221|2221|2235|2236|2224|2237|2236|2224|2220|2236|2223|2235|2232|2235|2221|2224|2236|2224|2222|2236|2222|2235|2234|2230|2224|2224|2235|2236|2236|2221|2236|2224|2236|2223|2236|2223|2233|2236|2220|2222|2231|2235|2232|2220|2233|2233|2235|2231|2236|2220|2232|2220|2235|2235|2233|2230|2236|2222|2237|2235|2235|2231|2221|2224|2224|2230|2233|2223|2236|2231|2230|2220|2233|2238|2231|2237|2235|2221|2222|2224|2235|2236|2232|2220|2230|2232|2236|2222|2223|2221|2220|2220|2224|2238|2237|2223|2231|2224|2235|2236|2220|2235|2236|2236|2231|2236|2238|2222|2236|2221|2231|2220|2235|2236|2235|2234|2232|2221|2235|2236|2236|2235|2224|2234|2231|2222|2233|2236|2221|2222|2235|2221|2222|2220|2223|2232|2224|2223|2232|2232|2235|2222|2235|2238|2236|2232|2232|2237|2236|2237|2233|2231|2231|2236|2231|2220|2231|2232|2232|2232|2222|2232|2235|2231
Lefkara,,7705
Lefkosia,,2820|2561|2670|2772|2560|2952|2775|2671|See: Lefkosia Streetnames|2610|2821|2773|2822|2611|2824|2825|2562|2823|2951|2672|See: Lefkosia Streetnames|2617|2837|2720|2563|2953|2750|2751|2954|2920|2640|2641|1370|2826|2613|2614|2721|2778|2752|2722|2673|2527|2963|2534|2730|2540|2828|2782|2829|2450|2460|2675|2676|See: Lefkosia Streetnames|2830|1380|2522|2642|2643|2831|2521|2620|2623|2652|2684|2843|2844|2860|2758|2827|2922|2861|See: Lefkosia Streetnames|2674|2615|2546|2800|2832|2548|2833|2616|2862|2523|2619|2644|2863|2677|2834|2645|2726|2924|2646|2776|2725|2835|2923|2678|2600|2955|2660|2547|2836|2846|2524|2770|2771|2727|2500|2564|2753|See: Lefkosia Streetnames|See: Lefkosia Streetnames|2618|2900|See: Lefkosia Streetnames|2754|2956|2845|2567|2957|2566|2565|2612|2679|2958|2647|2569|2680|2568|2728|2525|2622|2648|2624|2649|2865|2621|2653|2570|2526|2700|2959|2866|2864|2549|2528|2925|2777|2926|2571|2867|2779|2681|2961|2740|2745|2529|2682|2850|2928|2572|2650|2731|2929|2838|2530|2962|2755|2651|2756|2780|2573|2930|2931|2630|2940|2950|2531|2757|2965|2964|2574|2839|2840|2683|2932|2841|2868|See: Lefkosia Streetnames|2729|2842|2470|2532|2869|2480|2533|2921|2520|2774|2927|2960|2781|2723|2724|1300|1399|1300|1390|1385|1389|1300|1301|1302|1303|1394|1303|1304|1397|1304|1305|1398|1305|1396|1305|1306|1307|1308|1309|1392|1309|1310|1395|1310|1391|1310|1311|1387|1311|1393|1311|1386|1311|1500|1595|1500|1501|1502|1503|1597|1503|1504|1505|1506|1507|1508|1509|1599|1509|1510|1511|1591|1511|1590|1511|1596|1511|1512|1589|1512|1513|1514|1515|1587|1515|1516|1598|1516|1517|1583|1517|1518|1588|1518|1519|1584|1585|1519|1520|1586|1520|1521|1522|1523|1524|1525|1705|1700|1701|1702|1703|1704|1680|1681|1682|1683|1684|1685|1686|1687|1620|1621|1622|1623|1624|1720|1721|1722|2085|2086|2087|2080|2081|2082|2083|2084|1600|1601|1640|1646|1647|1648|1641|1642|1643|1644|1645|2435|2430|2431|2432|2433|2434|2090|2091|2092|2093|2094|1660|1679|1678|1660|1661|1662|1663|1664|1665|1666|2153|2154|2155|2150|2151|2152|1102|1106|1057|1060|1061|1017|1056|1055|1071|1102|1020|1056|1066|1015|1101|1020|1086|1011|1020|1096|1077|1021|1017|1017|1085|1075|1085|1070|1070|1101|1055|1066|1055|1097|1055|1070|1061|1086|1085|1016|1011|1095|1077|1035|1061|1070|1075|1017|1086|1066|1080|1101|1095|1016|1057|1106|1021|1010|1010|1016|1056|1070|1101|1107|1015|1071|1077|1055|1080|1057|1055|1085|1016|1010|1011|1105|1107|1076|1016|1015|1095|1090|1076|1016|1070|1016|1106|1017|1087|1071|1056|1071|1085|1057|1065|1097|1066|1096|1101|1060|1061|1011|1087|1057|1057|1057|1087|1075|1011|1057|1100|1071|1061|1080|1011|1065|1010|1106|1065|1095|1107|1010|1071|1082|1066|1096|1080|1095|1090|1056|1066|1011|1082|1107|1080|1076|1107|1101|1082|1075|1071|1107|1065|1015|1095|1085|1086|1076|1095|1010|1010|1055|1096|1066|1080|1061|1055|1106|1082|1055|1085|1060|1101|1076|1101|1057|1055|1057|1090|1070|1090|1057|1076|1107|1076|1101|1082|1101|1077|1010|1106|1010|1011|1015|1017|1016|1016|1060|1061|1105|1016|1020|1016|1056|1105|1070|1071|1055|1071|1100|1017|1100|1077|1086|1100|1080|1055|1076|1087|1082|1016|1086|1015|1057|1102|1071|1015|1011|1016|1100|1107|1055|1061|1061|1085|1086|1105|1017|1066|1080|1100|1095|1011|1015|1086|1082|1061|1060|1102|1107|1105|1087|1101|1057|1076|1057|1010|1096|1071|1057|1082|1077|1080|1060|1061|1100|1010|1107|1061|1095|1082|1082|1087|1081|1095|1082|1020|1080|1011|1097|1020|1016|1016|1011|1105|1096|1100|1097|1011|1056|1020|1056|1057|1055|1105|1016|1057|1015|1011|1015|1080|1102|1102|1060|1010|1057|1057|1066|1100|1016|1070|1101|1095|1057|1071|1095|1096|1076|1106|1095|1075|1021|1082|1015|1056|1017|1065|1077|1021|1055|1097|1016|1011|1065|1066|1076|1055|1082|1055|1057|1100|1070|1087|1102|1010|1087|1016|1087|1086|1082|1080|1070|1071|1011|1066|1100|1100|1107|1107|1095|1106|1106|1086|1105|1017|1070|1071|1056|1057|1097|1011|1015|1056|1070|1016|1016|1106|1010|1010|1016|1010|1016|1095|1015|1010|1095|1020|1087|1097|1065|1082|1105|1011|1055|1016|1017|1100|1080|1016|1055|1057|1101|1101|1016|1076|1011|1010|1086|1016|1077|1011|1055|1057|1087|1102|1060|1010|1076|1017|1011|1010|1016|1075|1016|1090|1107|1056|1100|1015|1011|1011|1082|1065|1095|1090|1081|1085|1065|1016|1101|1010|1010|1011|1020|1087|1010|1102|1107|1056|1086|1070|1105|1102|1086|1011|1077|1106|1107|1080|1095|1075|1100|1066|1087|1011|1096|1011|1011|1095|1056|1016|1082|1107|1082|1090|1090|1020|1065|1075|1090|1060|1065|1056|1060|1055|1065|1105|1100|1085|1077|1080|1010|1080|1101|1107|1016|1066|1087|1016|1055|1016|1087|1085|1035|1016|1056|1066|1056|1101|1087|1061|1016|1065|1060|1016|1055|1071|1015|1057|1057|1016|1056|1085|1060|1015|1055|1011|1016|1105|1080|1055|1015|1016|1087|1016|1105|1087|1075|1087|1076|1077|1071|1106|1017|1101|1010|1017|1105|1096|1101|1066|1101|1107|1057|1101|1106|1080|1057|1080|1070|1076|1100|1015|1080|1087|1016|1071|1076|1100|1075|1100|1065|1016|1075
Lemesos,,4710|See: Lemesos Streetnames|4842|4740|4871|4561|4741|4562|4870|4711|4606|4521|See: Lemesos Streetnames|4872|4860|4501|4640|4522|4528|4712|4602|4810|4811|3370|4603|4541|4542|4563|4523|4770|4502|4645|4567|4600|4875|4841|4564|4774|4750|4873|4620|4506|4630|4551|4653|4814|4530|4543|See: Lemesos Streetnames|4773|4566|4843|4631|4544|4500|4775|4714|4715|4507|4776|4632|4636|4545|4743|4876|4744|See: Lemesos Streetnames|4844|4546|4716|4560|4777|4778|4547|See: Lemesos Streetnames|4745|4746|4524|4525|4526|4650|4548|4847|4812|4508|4747|4552|4527|See: Lemesos Streetnames|4874|4760|4700|4845|4549|4604|4540|4520|4533|4878|4528|4779|4607|4605|4503|4815|4820|See: Lemesos Streetnames|See: Lemesos Streetnames|4780|4879|4601|4505|4840|4511|4529|4534|4748|4877|4510|4848|4742|4633|4717|4550|4749|4751|4813|4568|4608|4635|4569|4634|4651|4846|4730|4800|4781|4652|4504|4771|4509|4772|See: Lemesos Streetnames|4713|4565|3300|3301|3302|3303|3399|3303|3317|3318|3304|3305|3306|3307|3308|3309|3310|3311|3312|3313|3314|3315|3316|3600|3601|3697|3601|3602|3698|3602|3699|3602|3603|3604|3605|3606|3607|3608|3609|3610|3611|3840|3841|3842|3843|3500|3501|3594|3501|3502|3595|3502|3503|3504|3505|3506|3507|3508|3509|3510|3820|3821|3720|3779|3720|3721|3722|3723|3724|3725|3726|3727|3728|3729|3730|3731|3732|3733|3734|3735|3780|3781|3782|3800|3801|3802|3803|4010|4011|4012|4060|4061|4062|4063|4064|4065|4160|4161|4162|3012|3066|3045|3081|3050|3017|3080|3048|3100|3081|3032|3110|3081|3050|3020|3045|3055|3045|3111|3070|3117|3011|3100|3115|3031|3080|3031|3065|3087|3080|3017|3051|3041|3055|3045|3112|3075|3050|3055|3086|3010|3075|3011|3036|3031|3055|3022|3035|3040|3120|3080|3022|3026|3117|3025|3117|3110|3091|3096|3101|3101|3050|3100|3110|3115|3022|3030|3106|3076|3110|3115|3040|3032|3061|3115|3056|3017|3110|3081|3070|3117|3082|3047|3107|3115|3041|3015|3117|3111|3015|3052|3045|3017|3047|3051|3052|3071|3071|3012|3051|3118|3035|3071|3051|3101|3056|3120|3080|3065|3045|3047|3110|3045|3113|3090|3117|3020|3020|3095|3096|3113|3107|3036|3120|3036|3061|3081|3096|3076|3012|3100|3082|3036|3022|3066|3060|3051|3111|3051|3060|3115|3111|3117|3022|3065|3100|3022|3021|3022|3095|3046|3045|3080|3110|3116|3021|3025|3047|3046|3118|3048|3075|3050|3082|3046|3083|3115|3076|3117|3042|3031|3118|3071|3055|3110|3070|3110|3117|3048|3010|3116|3042|3041|3022|3056|3116|3047|3060|3105|3012|3112|3117|3083|3045|3096|3042|3035|3046|3117|3040|3077|3036|3041|3015|3071|3042|3120|3100|3070|3115|3117|3110|3017|3096|3031|3022|3060|3041|3110|3050|3075|3070|3070|3050|3026|3086|3050|3056|3115|3021|3071|3086|3100|3011|3116|3086|3075|3055|3111|3055|3110|3100|3075|3075|3113|3115|3083|3111|3111|3042|3011|3118|3051|3050|3117|3012|3052|3032|3015|3022|3025|3026|3027|3042|3081|3111|3106|3030|3031|3110|3070|3050|3045|3032|3012|3116|3107|3077|3082|3031|3060|3015|3015|3017|3071|3045|3117|3110|3050|3116|3076|3117|3086|3048|3076|3048|3011|3015|3106|3076|3012|3107|3075|3010|3115|3042|3087|3110|3016|3110|3031|3021|3020|3041|3116|3117|3085|3032|3052|3111|3085|3075|3117|3048|3116|3077|3077|3119|3048|3086|3116|3115|3075|3066|3027|3112|3051|3012|3011|3045|3046|3150|3017|3075|3055|3055|3075|3048|3056|3015|3011|3052|3115|3082|3110|3116|3120|3036|3116|3070|3046|3061|3112|3030|3070|3085|3090|3115|3061|3041|3035|3106|3101|3107|3060|3105|3035|3032|3120|3036|3120|3117|3101|3040|3115|3115|3016|3081|3055|3085|3017|3032|3107|3046|3027|3120|3021|3040|3111|3020|3091|3081|3111|3085|3115|3066|3119|3036|3035|3071|3100|3017|3047|3012|3080|3117|3110|3042|3117|3096|3110|3112|3060|3120|3042|3060|3120|3046|3120|3117|3120|3012|3042|3110|3046|3046|3041|3040|3032|3091|3070|3110|3110|3021|3025|3026|3027|3070|3117|3016|3017|3011|3106|3050|3077|3021|3025|3026|3120|3061|3087|3106|3047|3071|3020|3112|3091|3082|3107|3110|3070|3087|3021|3025|3045|3117|3083|3077|3115|3083|3082|3035|3012|3036|3115|3048|3115|3067|3120|3048|3075|3115|3017|3117|3051|3110|3015|3056|3048|3086|3056|3050|3117|3096|3086|3117|3110|3010|3077|3012|3012|3032|3032|3081|3022|3027|3026|3067|3082|3022|3050|3085|3120|3021|3085|3016|3120|3115|3080|3091|3021|3077|3060|3087|3048|3071|3071|3050|3050|3111|3012|3075|3010|3048|3111|3071|3067|3022|3040|3027|3016|3083|3070|3027|3027|3026|3036|3106|3052|3116|3055|3012|3095|3050|3040|3048|3081|3047|3031|3042|3052|3052|3012|3017|3083|3017|3048|3012|3110|3107|3077|3051|3077|3081|3050|3117|3086|3050|3048|3086|3101|3117|3075|3091|3117|3035|3116|3048|3060|3060|3060|3055|3086|3106|3115|3048|3101|3110|3052|3115|3115|3082|3011|3021|3020|3070|3090|3048|3117|3115|3048|3115|3115|3115|3083|3066|3017|3048|3045|3067|3100|3010|3086|3011|3107|3047|3051|3011|3017|3060|3111|3042|3042|3107|3075|3111|3060|3111|3051|3047|3095|3060|3042|3040|3010|3046|3060|3083|3036|3041|3010|3115|3117|3096|3087|3060|3106|3085|3042|3083|3083|3027|3015|3086|3051|3115|3081|3017|3077|3087|3091|3041|3119|3076|3115|3095|3106|3117|3080|3117|3011|3120|3050|3012|3106|3111|3096|3047|3065|3118|3112|3081|3085|3077|3080|3080|3041|3080|3046|3010|3040|3012|3080|3046|3085|3030|3075|3118|3115|3118|3115|3020|3095|3036|3046|3025|3115|3070|3012|3086|3111|3083|3107|3110|3012|3087|3110|3081|3115|3036|3120|3100|3110|3100|3070|3012|3115|3110|3110|3110|3046|3052|3051|3040|3040|3116|3101|3047|3070|3115|3065|3115|3015|3106|3118|3076|3066|3010|3115|3100|3100|3115|3027|3117|3021|3045|3013|3081|3077|3106|3086|3081|3107|3070|3075|3046|3071|3021|3076|3077|3075|3020|3075|3086|3076|3020|3041|3025|3060|3051|3048|3096|3110|3051|3120|3117|3065|3066|3083|3050|3051|3065|3112|3012|3119|3116|3015|3020|3055|3110|3065|3115|3065|3076|3105|3100|3118|3110|3112|3075|3030|3065|3117|3055|3110|3036|3015|3111|3086|3055|3012|3052|3066|3111|3117|3060|3070|3071|3096|3091|3096|3115|3041|3110|3083|3048|3115|3030|3110|3107|3055|3071|3041|3071|3110|3110|3117|3091|3115|3030|3052|3077|3017|3080|3095|3017|3117|3046|3040|3050|3060|3061|3047|3112|3055|3051|3065|3096|3120|3107|3106|3041|3083|3071|3118|3116|3100|3117|3083|3115|3110|3083|3100|3081|3048|3110|3015|3071|3117|3032|3083|3111|3042|3017|3083|3070|3080|3086|3111|3071|3117|3086|3015|3091|3055|3031|3115|3051|3031|3030|3060|3080|3047|3075|3091|3120|3046|3110|3048|3021|3016|3120|3096|3051|3050|3047|3047|3115|3111|3017|3016|3082|3115|3116|3118|3107|3090|3082|3071|3046|3071|3020|3071|3071|3110|3116|3012|3071|3091|3112|3015|3090|3016|3025|3096|3022|3016|3120|3117|3035|3118|3110|3047|3086|3050|3048|3051|3025|3070|3055|3012|3115|3115|3091|3041|3096|3081|3115|3111|3056|3060|3055|3117|3076|3115|3111|3117|3091|3055|3046|3040|3030|3095|3096|3051|3095|3027|3110|3020|3060|3117|3100|3035|3020|3042|3021|3017|3036|3041|3016|3036|3076|3117|3091|3042|3115|3115|3071|3070|3016|3051|3120|3027|3026|3046|3051|3065|3082|3010|3012|3055|3117|3046|3110|3117|3110|3070|3046|3101|3120|3116|3096|3032|3083|3060|3015|3117|3101|3046|3048|3046|3055|3012|3035|3016|3021|3095|3091|3096|3052|3070|3052|3048|3045|3075|3075|3110|3061|3045|3025|3070|3082|3096|3022|3035|3015|3045|3110|3032|3010|3047|3110|3117|3052|3051|3056|3046|3047|3046|3095|3017|3047|3016|3060|3011|3112|3101|3075|3040|3111|3096|3020|3115|3050|3105|3100|3115|3031|3071|3120|3048|3110|3090|3115|3056|3012|3120|3080|3101|3116|3077|3115|3101|3061|3055|3117|3048|3047|3111|3031|3085|3040|3055|3046|3115|3083|3100|3082|3055|3110|3101|3110|3040|3021|3080|3016|3075|3077|3021|3081|3111|3015|3012|3077|3031|3083|3047|3105|3116|3115|3065|3080|3055|3107|3052|3116|3021|3075|3076|3077|3048|3055|3095|3075|3047|3077|3095|3035|3060|3101|3083|3101|3071|3066|3118|3011|3066|3027|3090|3012|3081|3060|3096|3082|3085|3081|3082|3118|3083|3117|3090|3077|3011|3095|3020|3011|3095|3065|3012|3025|3027|3047|3083|3065|3083|3060|3110|3091|3060|3048|3048|3115|3041|3047|3065|3077|3055|3011|3027|3055|3117|3077|3120|3107|3046|3120|3081|3060|3046|3080|3041|3046|3100|3020|3042|3120|3095|3091|3035|3115|3082|3046|3061|3082|3048|3082|3115|3100|3046|3117|3017|3048|3115|3067|3067|3076|3115|3048|3083|3077|3075|3066|3067|3046|3046|3042|3041|3118|3042|3036|3110|3046|3071|3065|3017|3048|3048|3100|3118|3055|3010|3115|3012|3013|3112|3115|3046|3042|3115|3067|3065|3118|3048|3117|3120|3086|3042|3115|3060|3042|3100|3046|3065|3082|3091|3041|3022|3077|3096|3086|3075|3110|3120|3055|3046|3060|3046|3077|3046|3012|3021|3082|3031|3036|3015|3113|3081|3017|3035|3091|3115|3067|3016|3066|3118|3050|3035|3046|3115|3021|3055|3047|3115|3091|3076|3048|3047|3016|3120|3120|3116|3021|3041|3060|3100|3071|3077|3106|3077|3036|3070|3076|3077|3083|3051|3082|3117|3118|3032|3026|3100|3096|3012|3117|3046|3080|3055|3031|3117|3117|3117|3087|3117|3083|3091|3101|3107|3066|3047|3020|3052|3067|3117|3091|3118|3048|3048|3010|3036|3077|3046|3020|3048|3011|3075|3012|3082|3116|3013|3115|3081|3118|3077|3076|3055|3061|3055|3101|3055|3015|3077|3096|3011|3015|3086|3011|3017|3111|3048|3010|3030|3036|3117|3011|3051|3050|3045|3032|3120|3111|3110|3115|3083|3075|3080|3111|3066|3117|3091|3052|3071|3027|3026|3048|3041|3110|3015|3061|3025|3086|3015|3052|3025|3026|3052|3011|3013|3060|3066|3041|3060|3011|3120|3075|3015|3011|3076|3076|3111|3067|3066|3076|3115|3118|3118|3080|3118|3081|3120|3036|3115|3046|3050|3046|3071|3105|3016|3086|3076|3060|3045|3067|3050|3032|3042|3115|3048|3010|3042|3115|3011|3081|3090|3036|3042|3012|3042|3120|3106|3101|3042|3091|3051|3091|3110|3076|3091|3110|3020|3020|3040|3075|3087|3066|3095|3115|3061|3077|3075|3076|3077|3080|3052|3047|3077|3026|3120|3042|3040|3085|3115|3117|3076|3116|3111|3071|3052|3012|3117|3012|3022|3021|3110|3055|3091|3076|3083|3012|3112|3026|3065|3116|3015|3117|3022|3050|3091|3115|3045|3046|3117|3041|3111|3087|3087|3107|3101|3117|3065|3010|3111|3111|3055|3115|3111|3082|3100|3100|3111|3048|3110|3052|3100|3105|3020|3120|3012|3082|3115|3020|3107|3022|3112|3050|3101|3010|3071|3110|3036|3035|3110|3040|3040|3082|3105|3045|3011|3060|3048
Liopetri,,5325|5326
Meneou,,7000|7000|7000|7000|7000|7000|7000|7000|7000|7000|7000|7000|7000|7000|7000|7000|7000|7000|7000|7000|7000|7000|7000|7000|7000|7000|7000|7000|7000|7000|7000|7000|7000|7000|7000|7000|7000|7000|7000|7000|7000|7000|7000|7000|7000|7000|7000|7000|7000|7000|7000|7000|7000|7000|7000|7000|7000|7000|7000|7000|7000|7000|7000|7000|7000|7000|7000|7000|7000|7000|7000|7000|7000|7000|7000|7000|7000|7000|7000|7000
Mesa Geitonia,,4005|4004|4004|4001|4000|4007|4001|4001|4005|4003|4000|4004|4002|4001|4005|4006|4007|4000|4007|4007|4005|4007|4006|4003|4002|4002|4000|4002|4002|4004|4003|4002|4001|4003|4002|4002|4001|4007|4002|4007|4003|4000|4002|4007|4004|4006|4002|4004|4007|4001|4002|4005|4003|4001|4003|4001|4005|4003|4004|4006|4003|4002|4004|4001|4005|4007|4007|4008|4007|4003|4007|4007|4008|4007|4007|4004|4000|4007|4003|4001|4002|4002|4004|4005|4001|4001|4005|4004|4001|4002|4007|4007|4005|4006|4007|4002|4006|4007|4007|4001|4007|4001|4007|4001|4004|4007|4003|4001|4002|4002|4006|4006|4002|4001|4000|4000|4007|4003|4007|4002|4007|4008|4003|4003|4007|4007|4007|4001|4006|4000|4007|4003|4002|4002|4002|4007|4007|4002|4001|4001|4004|4001|4002|4006|4007|4004|4000|4001|4003|4007|4002|4007|4001|4004|4000|4004|4004|4006|4001|4004|4007|4000|4005|4000|4004|4002|4007|4001|4001|4006|4005|4006|4008|4006|4004|4001|4000|4002|4004|4000|4001|4003|4004|4006|4003|4007|4004|4002|4001|4003|4002|4001|4004|4007|4008|4004|4005|4005|4003|4006|4006|4003|4007|4007|4008|4007|4002|4003|4007|4002|4002|4007|4005|4004|4003|4003|4007|4002|4008|4008|4004
Mouttagiaka Touristiki Periochi,,4531|4531|4531|4531|4531|4531|4531|4531|4531
Ormideia,,7540
Oroklini,,7040|7040|7040|7040|7040|7040|7040|7040|7040|7040|7040|7040|7040|7040|7040|7040|7040|7040|7040|7040|7040|7040|7040|7040|7040|7040|7040|7040|7040|7040|7040|7040|7040|7040|7040|7040|7040|7040|7040|7040|7040|7040|7040|7040|7040|7040|7040|7040|7040|7040|7040|7040|7040|7040|7040|7040|7040|7040|7040|7040|7040|7040|7040|7040|7040|7040|7040|7040|7040|7040|7040|7040|7040|7040|7040|7040|7040|7040|7040|7040|7040|7040|7040|7040|7040|7040|7040|7040|7040|7040|7040|7040|7040|7040|7040|7040|7040|7040|7040|7040|7040|7040|7040|7040|7040|7040|7040|7040|7040|7040|7040|7040|7040|7040|7040|7040|7040|7040|7040|7040|7040|7040|7040|7040|7040|7040|7040|7040|7040|7040|7040|7040|7040|7040|7040|7040|7040|7040|7040|7040|7040|7040|7040|7040|7040|7040|7040|7040|7040|7040|7040|7040|7040|7040|7040|7040|7040|7040|7040|7040|7040|7040|7040|7040|7040|7040|7040|7040|7040|7040|7040|7040|7040|7040|7040|7040|7040|7040
Oroklini Touristiki Periochi,,7041|7041|7041|7041|7041|7041|7041|7041|7041|7041|7041|7041|7041|7041|7041|7041|7041|7041|7041|7041|7041|7041|7041|7041|7041|7041|7041|7041|7041|7041|7041|7041|7041|7041|7041|7041|7041|7041|7041|7041|7041|7041|7041|7041|7041|7041|7041|7041|7041|7041|7041|7041|7041|7041|7041|7041|7041|7041|7041|7041|7041|7041|7041|7041|7041|7041|7041|7041
Pafos,,8503|8881|8641|8240|8501|8741|8652|8607|8570|8621|8872|8801|8623|8721|8722|8572|8642|8653|8802|8502|8701|8602|8603|8873|8625|8522|8702|8703|8643|8521|8510|See: Pafos Streetnames|8526|8730|8552|8855|8803|8804|8700|8742|8743|8523|8250|8524|8805|8654|8706|8609|8811|8629|8508|8748|8645|See: Pafos Streetnames|8874|8875|8720|8850|8704|8541|8746|8851|8573|8626|8627|8807|8574|8543|8646|8310|8575|8300|8500|8544|8747|8724|8876|8628|8647|8740|8840|8878|8545|8260|8546|8877|8725|8509|8853|8800|8571|8879|8622|8600|8648|8504|8520|8604|8808|8745|8809|8290|8631|8280|8744|8726|8883|8727|8576|8649|8542|8605|8525|8880|8852|8505|See: Pafos Streetnames|8871|8548|8640|8560|8882|8650|8624|8810|8547|8705|8549|8820|8870|8630|8606|8854|8749|8620|8814|8812|8728|8506|8651|8601|8884|8550|8551|8577|8729|8723|8507|8608|8270|8813|8540|8644|8806|8060|8061|8062|8063|8098|8063|8064|8099|8064|8065|8066|8067|8068|8069|8070|8071|8072|8073|8074|8075|8076|8077|8078|8079|8080|8081|8100|8124|8100|8123|8100|8125|8100|8101|8129|8101|8128|8101|8126|8101|8102|8103|8127|8103|8104|8105|8106|8107|8130|8131|8132|8133|8134|8135|8136|8137|8138|8011|8047|8047|8047|8026|8015|8011|8016|8046|8010|8015|8020|8027|8041|8049|8021|8041|8036|8021|8021|8041|8040|8046|8041|8047|8041|8041|8046|8021|8041|8046|8045|8041|8048|8049|8041|8021|8021|8021|8036|8036|8049|8036|8049|8021|8021|8021|8049|8021|8036|8036|8046|8040|8036|8049|8036|8021|8010|8021|8049|8036|8021|8049|8048|8021|8049|8047|8026|8036|8036|8036|8049|8010|8047|8045|8027|8028|8049|8011|8042|8016|8048|8011|8048|8047|8020|8048|8028|8020|8027|8010|8027|8041|8011|8041|8015|8027|8021|8020|8025|8021|8045|8021|8027|8015|8047|8025|8025|8015|8026|8020|8010|8028|8015|8047|8021|8025|8046|8010|8025|8047|8021|8046|8021|8020|8028|8020|8010|8020|8025|8047|8021|8035|8020|8028|8010|8025|8011|8020|8010|8048|8028|8036|8046|8046|8010|8048|8047|8020|8028|8049|8015|8015|8026|8020|8041|8021|8011|8046|8040|8011|8011|8010|8041|8041|8028|8026|8028|8010|8015|8015|8015|8036|8020|8011|8025|8025|8011|8011|8047|8011|8027|8041|8046|8016|8025|8020|8011|8010|8035|8048|8046|8015|8048|8035|8049|8011|8010|8016|8027|8016|8027|8046|8035|8020|8010|8028|8025|8020|8021|8020|8015|8027|8020|8047|8028|8028|8035|8021|8047|8046|8025|8047|8020|8021|8021|8048|8025|8041|8046|8049|8042|8049|8041|8021|8025|8026|8026|8042|8011|8025|8027|8010|8010|8025|8010|8047|8046|8025|8048|8047|8020|8016|8028|8026|8025|8042|8020|8025|8025|8011|8047|8041|8028|8016|8026|8048|8016|8048|8047|8042|8016|8027|8010|8049|8045|8025|8016|8045|8021|8026|8016|8020|8020|8016|8028|8016|8028|8016|8045|8021|8028|8025|8042|8011|8025|8016|8046|8025|8010|8021|8010|8021|8020|8011|8027|8028|8028|8027|8047|8035|8048|8016|8016|8020|8015|8016|8016|8010|8016|8047|8025|8047|8020|8025|8036|8041|8028|8035|8020|8016|8049|8035|8046|8015|8021|8046|8021|8047|8036|8020|8010|8011|8028|8020|8046|8020|8021|8035|8035|8011|8046|8046|8021|8021|8015|8020|8035|8016|8016|8015|8046|8011|8047|8027|8010|8027|8028|8011|8046|8047|8026|8020|8041|8015|8025|8049|8041|8041|8027|8049|8021|8027|8049|8047|8042|8016|8021|8047|8035|8011|8025|8047|8021|8049|8020|8016|8027|8025|8042|8010|8010|8011|8049|8046|8011|8026|8048|8025|8016|8028|8047|8049|8026|8047|8021|8047|8025|8020|8035|8035|8021|8025|8027|8015|8028|8028|8015|8028|8028|8021|8010|8027|8027|8016|8046|8046|8027|8027|8026|8016|8028|8015|8016|8015|8047|8028|8041|8011|8011|8011|8015|8049|8021|8020|8042|8041|8020|8020|8027|8041|8010|8046|8011|8046|8035|8011|8027|8028|8011|8010|8010|8010|8035|8025|8025|8011|8047|8028|8047|8016|8027|8028|8020|8028|8028|8028|8025|8020|8046|8046|8021|8015|8021|8015|8010|8041|8041|8026|8048|8028|8041|8011|8020|8020|8025|8049|8015|8028|8028|8026|8048|8015|8010|8010|8021|8021|8041|8028|8028|8025|8010|8041|8011|8036|8011|8047|8046|8020|8021|8028|8021|8035|8035|8016|8049|8025|8025|8010|8036|8020|8036|8011|8011|8047|8010|8035|8011|8010|8016|8016|8015|8016|8028|8020|8041|8011|8035|8035|8021|8020|8020|8021|8025|8020|8046|8046|8021|8028|8020|8015|8027|8047|8020|8041|8016|8011|8047|8036|8011|8020|8049|8015|8047|8021|8028|8025|8021|8035|8035|8016|8047|8016|8011|8028|8020|8011|8016|8026|8047|8020|8011|8042|8046|8035|8035|8046|8010|8026|8048|8011|8035|8010|8016|8028|8010|8035|8010|8025|8011|8048|8010|8046|8021|8021|8035|8035|8020|8036|8020|8020|8049|8011|8020|8011|8025|8010|8020|8042|8021|8020|8041|8020|8027|8025|8016|8042|8041|8010|8010|8011|8036|8046|8027|8046|8016|8047|8020|8049|8021|8016|8020|8046|8028|8049|8045|8021|8021|8028|8035|8048|8035|8021|8011|8042|8028|8048|8035|8047|8047|8021|8015|8035|8027|8049|8027|8011|8026|8016|8020|8020|8020|8010|8047|8010|8028|8015|8020|8021|8028|8021|8011|8049|8020|8036|8020|8040|8041|8042|8027|8025|8041|8042|8020|8028|8049|8040|8028|8041|8021|8048|8046|8046|8020|8025|8046|8027|8011|8011|8016|8027|8020|8028|8025|8025|8027|8026|8016|8028|8028|8027|8025|8040|8027|8020|8020|8016|8016|8016|8016|8016|8027|8027|8010|8015|8021|8021|8021|8035|8036|8020|8020|8021|8036|8026|8010|8020|8036|8027|8021|8027|8027|8020|8021|8025|8016|8041|8010|8020|8021|8028|8020|8016|8020|8046|8021|8041|8046|8027|8020|8028|8016|8016|8016|8027|8045|8046|8015|8016|8011|8035|8015|8036|8036|8035|8036|8021|8041|8047|8027|8015|8010|8028|8042|8028|8021|8046|8011|8020|8046|8026|8041|8048|8026|8025|8010|8035|8028|8027|8016|8011|8028|8011|8048|8045|8025|8036|8027|8028|8010|8035|8025|8028|8041|8027|8047|8010|8010|8010|8021|8010|8026|8040|8045|8021|8011|8035|8016|8042|8010|8021|8028|8035|8025|8048|8020|8048|8020|8048|8021|8011|8016|8021|8011|8046|8028|8047|8011|8015|8026|8010|8025
Paliometocho,,2690
Pallouriotissa,,1041|1041|1040|1040|1040|1041|1047|1045|1047|1035|1048|1040|1048|1040|1047|1036|1035|1041|1048|1041|1046|1040|1048|1047|1041|1046|1041|1036|1046|1047|1045|1046|1048|1040|1048|1040|1046|1049|1048|1047|1048|1036|1040|1040|1048|1046|1048|1040|1046|1041|1048|1035|1040|1047|1047|1046|1048|1046|1049|1048|1035|1041|1048|1041|1041|1041|1048|1041|1036|1035|1041|1048|1040|1040|1048|1048|1035|1049|1035|1040|1036|1048|1035|1047|1040|1035|1048|1041|1035|1046|1048|1047|1041|1040|1036|1046|1048|1041|1047|1041|1040|1047|1036|1049|1045|1041|1046|1042|1040|1048|1048|1046|1041|1049|1036|1048|1040|1048|1049|1046|1048|1048|1047|1041|1035|1048|1036|1040|1040|1041|1040|1041|1040|1040|1040|1047|1040|1048|1040|1047|1041|1048|1040|1048|1041|1041|1046|1041|1045|1035|1035|1045|1048|1045|1046|1041|1045|1045|1035|1048|1040|1040|1048|1049|1048|1048|1048|1045|1049|1035|1035|1046|1040|1035|1035|1040|1048|1046|1035|1040|1041|1046|1048|1048|1047|1048|1040|1046|1035|1036|1041|1046|1040|1047|1041|1035|1046|1047|1046|1035|1048|1045|1045|1041|1048|1040|1047|1040|1040|1041|1048
Pano Platres,,4825
Pano Polemidia,,4130|4130|4130|4130|4130|4131|4130|4130|4130|4130|4130|4130|4130|4130|4130|4130|4130|4130|4130|4130|4130|4130|4130|4130|4130|4130|4130|4131|4131|4131|4131|4131|4131|4131|4130|4130|4131|4130|4130|4130|4131|4131|4131|4130|4130|4130|4131|4130|4131|4131|4131|4130|4131|4130|4130|4130|4131|4130|4130|4131|4130|4130|4130|4130|4131
Paralimni,,5310|5311|5312|5313|5314|5315|5316|5317|5318|5319|5309|5400|5401|5402|5403|5404|5405|5306|5307|5308
Pegeia,,8590|8591|8592|8593
Pissouri,,4610|4610
Poli Chrysochous,,8830|8831|8832
Pyla Touristiki Periochi,,7081|7081|7081|7081|7081|7081|7081|7081|7081|7081|7081|7081|7081|7081|7081|7081|7081|7081|7081|7081|7081|7081|7081|7081|7081|7081|7081|7081|7081|7081|7081|7081|7081|7081|7081|7081|7081|7081|7081|7081|7081|7081|7081|7081|7081|7081
Sotira,,5390
Strovolos,,2057|2050|2019|2047|2000|2032|2047|2047|2060|2023|2015|2014|2015|2014|2042|2066|2062|2015|2015|2012|2057|2014|2060|2012|2024|2047|2014|2013|2047|2034|2018|2060|2064|2034|2045|2045|2023|2035|2045|2015|2013|2045|2054|2019|2045|2019|2023|2023|2045|2023|2035|2045|2045|2045|2054|2027|2002|2013|2013|2058|2031|2034|2031|2031|2000|2024|2024|2013|2013|2025|2033|2037|2045|2045|2045|2034|2019|2062|2045|2045|2027|2024|2045|2045|2060|2054|2062|2045|2045|2034|2045|2012|2023|2023|2023|2028|2023|2045|2066|2066|2059|2003|2003|2048|2058|2050|2040|2003|2044|2057|2018|2046|2057|2051|2050|2043|2057|2007|2057|2060|2048|2050|2050|2007|2003|2063|2001|2042|2066|2003|2054|2057|2054|2015|2057|2003|2050|2051|2034|2057|2008|2049|2057|2051|2003|2048|2057|2057|2057|2048|2003|2062|2007|2066|2001|2050|2001|2057|2012|2019|2057|2023|2057|2048|2057|2048|2057|2003|2057|2007|2064|2064|2003|2048|2064|2048|2034|2048|2036|2036|2008|2039|2066|2036|2036|2036|2059|2025|2036|2036|2036|2039|2036|2036|2036|2036|2006|2036|2036|2049|2036|2036|2036|2036|2036|2036|2036|2036|2036|2036|2066|2036|2036|2036|2036|2014|2014|2036|2015|2036|2040|2036|2062|2036|2033|2034|2034|2057|2044|2047|2047|2047|2008|2047|2047|2047|2047|2047|2047|2040|2014|2012|2047|2024|2008|2023|2040|2047|2020|2047|2054|2047|2047|2047|2028|2012|2014|2040|2047|2047|2023|2047|2047|2047|2025|2047|2047|2054|2047|2038|2047|2047|2047|2024|2047|2047|2054|2047|2047|2054|2047|2038|2047|2047|2040|2043|2037|2014|2024|2047|2027|2036|2021|2000|2023|2040|2006|2023|2021|2063|2023|2015|2000|2044|2015|2000|2066|2028|2028|2045|2058|2007|2003|2027|2060|2029|2049|2045|2020|2003|2042|2040|2013|2029|2060|2038|2021|2049|2028|2034|2028|2038|2003|2048|2048|2040|2029|2015|2038|2006|2040|2013|2024|2023|2028|2027|2034|2035|2012|2000|2021|2029|2006|2040|2012|2040|2060|2028|2062|2034|2049|2045|2028|2040|2029|2038|2029|2040|2058|2049|2028|2066|2066|2002|2032|2033|2052|2039|2066|2044|2013|2066|2052|2034|2064|2039|2039|2013|2036|2039|2002|2029|2044|2002|2014|2030|2046|2066|2042|2049|2043|2044|2051|2052|2046|2028|2052|2052|2028|2045|2052|2046|2062|2021|2028|2062|2021|2060|2058|2060|2002|2058|2044|2028|2008|2007|2028|2040|2039|2028|2062|2008|2002|2028|2048|2001|2006|2052|2043|2060|2052|2028|2063|2021|2021|2021|2058|2066|2052|2003|2066|2060|2028|2066|2066|2062|2039|2021|2059|2063|2023|2040|2045|2039|2038|2047|2037|2044|2047|2028|2008|2008|2028|2062|2012|2014|2040|2050|2050|2058|2050|2050|2006|2050|2057|2066|2028|2054|2057|2049|2066|2046|2002|2052|2040|2021|2028|2021|2060|2028|2028|2048|2062|2062|2039|2058|2012|2012|2063|2002|2046|2058|2060|2028|2040|2052|2034|2052|2063|2037|2028|2023|2028|2021|2001|2034|2034|2028|2027|2052|2040|2028|2028|2035|2059|2023|2045|2023|2020|2034|2064|2018|2054|2066|2012|2023|2031|2003|2014|2015|2025|2029|2046|2007|2035|2028|2062|2021|2028|2018|2001|2043|2035|2023|2028|2028|2046|2057|2045|2028|2027|2062|2013|2064|2027|2023|2066|2001|2007|2034|2036|2044|2049|2035|2027|2042|2058|2057|2034|2042|2036|2038|2051|2043|2044|2057|2036|2036|2036|2036|2054|2012|2036|2060|2028|2063|2020|2032|2055|2054|2027|2060|2034|2055|2054|2047|2044|2060|2007|2049|2032|2064|2032|2015|2008|2018|2036|2008|2000|2064|2018|2024|2057|2036|2001|2044|2028|2028|2020|2008|2042|2008|2020|2049|2054|2034|2054|2043|2060|2055|2049|2008|2062|2055|2043|2019|2049|2060|2066|2038|2021|2020|2021|2045|2045|2043|2043|2035|2035|2035|2058|2021|2045|2045|2045|2035|2045|2039|2045|2012|2040|2035|2043|2043|2038|2038|2024|2038|2038|2049|2038|2038|2038|2020|2038|2039|2045|2013|2023|2045|2013|2007|2045|2045|2045|2024|2045|2057|2058|2045|2045|2045|2038|2037|2042|2040|2063|2037|2037|2037|2037|2037|2035|2037|2063|2054|2035|2037|2018|2019|2037|2008|2037|2018|2035|2037|2015|2037|2035|2046|2037|2037|2037|2035|2034|2020|2037|2018|2008|2058|2064|2037|2057|2060|2038|2057|2033|2047|2051|2038|2042|2051|2027|2034|2042|2059|2018|2020|2008|2040|2008|2045|2020|2057|2047|2023|2008|2055|2051|2038|2057|2057|2018|2012|2038|2051|2012|2038|2024|2057|2051|2043|2007|2062|2020|2021|2049|2047|2008|2045|2062|2050|2025|2042|2057|2055|2057|2000|2027|2051|2039|2051|2051|2064|2045|2023|2047|2038|2047|2045|2019|2027|2035|2057|2038|2013|2057|2057|2040|2051|2020|2021|2027|2036|2006|2033|2040|2049|2047|2015|2019|2019|2047|2057|2044|2057|2023|2008|2035|2051|2038|2047|2051|2050|2027|2050|2040|2047|2008|2023|2047|2033|2047|2047|2047|2038|2047|2051|2033|2047|2033|2047|2018|2008|2043|2051|2038|2049|2035|2051|2047|2063|2064|2000|2047|2027|2047|2033|2033|2008|2051|2051|2051|2051|2059|2038|2038|2038|2051|2057|2042|2051|2057|2012|2051|2040|2042|2039|2039|2039|2027|2039|2042|2049|2039|2046|2042|2062|2039|2039|2063|2060|2039|2062|2044|2044|2044|2046|2003|2035|2044|2007|2043|2060|2043|2035|2058|2014|2064|2046|2044|2046|2023|2040|2035|2035|2049|2046|2044|2046|2044|2021|2035|2035|2049|2035|2035|2044|2043|2044|2049|2008|2008|2049|2046|2037|2063|2046|2035|2046|2046|2046|2015|2035|2018|2013|2042|2040|2035|2051|2000|2044|2055|2055|2052|2051|2046|2044|2047|2045|2037|2038|2035|2033|2034|2063|2058|2057|2046|2060|2034|2014|2003|2002|2035|2035|2035|2034|2024|2035|2046|2032|2059|2046|2054|2011|2018|2020|2040|2042|2048|2049|2051|2052|2049|2046|2019|2044|2035|2027|2057|2049|2044|2044|2035|2037|2039|2044|2062|2019|2006|2044|2051|2062|2039|2039|2001|2001|2020|2013|2011|2060|2063|2020|2021|2059|2038|2006|2039|2043|2007|2044|2007|2043|2043|2020|2019|2040|2043|2042|2059|2006|2043|2043|2040|2014|2039|2039|2039|2038|2039|2039|2038|2039|2039|2030|2047|2039|2008|2044|2039|2052|2015|2023|2039|2039|2023|2039|2012|2040|2042|2045|2043|2044|2046|2047|2038|2038|2038|2038|2008|2038|2033|2038|2039|2000|2042|2039|2015|2060|2063|2001|2040|2060|2044|2052|2055|2048|2038|2060|2008|2038|2002|2030|2066|2023|2042|2059|2032|2042|2033|2033|2015|2038|2049|2060|2060|2033|2044|2060|2060|2033|2038|2033|2014|2033|2038|2064|2052|2062|2052|2052|2052|2052|2052|2043|2000|2066|2014|2045|2062|2060|2027|2015|2018|2048|2064|2048
Synikismos Anthoupolis,,2350|2350|2350|2350|2350|2350|2350|2350|2350|2350|2350|2350|2350|2350|2350|2350|2350|2350|2350|2350|2350|2350|2350|2350|2350|2350|2350|2350|2350|2350|2350|2350|2350|2350|2350|2350|2350|2350|2350|2350
Tala,,8588|8589
Tseri,,2495|2496|2497
Xylofagou,,7525|7526
Ypsonas,,4190|4187|4180|4193|4185|4194|4194|4191|4189|4191|4188|4186|4193|4183|4193|4183|4183|4188|4186|4184|4190|4189|4182|4194|4194|4186|4182|4185|4183|4193|4194|4187|4180|4185|4194|4188|4181|4186|4181|4191|4194|4194|4188|4184|4189|4182|4183|4192|4188|4184|4194|4183|4185|4194|4194|4187|4192|4181|4182|4193|4185|4184|4185|4191|4193|4187|4182|4186|4193|4188|4181|4180|4193|4191|4180|4193|4188|4194|4185|4184|4180|4194|4181|4194|4181|4184|4181|4189|4191|4188|4186|4185|4187|4191|4193|4187|4186|4189|4180|4185|4193|4194|4191|4186|4191|4186|4193|4189|4192|4189|4182|4181|4186|4187|4193|4187|4190|4192|4183|4185|4188|4192|4192|4191|4185|4183|4181|4191|4183|4188|4183|4185|4186|4187|4187|4185|4187|4181|4193|4185|4186|4182|4188|4183|4184|4194|4184|4184|4184|4187|4189|4194|4192|4192|4182|4180|4184|4187|4182|4180|4189|4181|4189|4187|4191|4183|4184|4185|4184|4192|4188|4181|4184|4187|4181|4192|4184|4188|4192|4194|4180|4184|4187|4193|4184|4187|4180|4184|4182|4192|4188|4180|4180|4191|4187|4184|4184|4181|4193|4189|4184|4185|4190|4184|4189|4183|4182|4180|4190|4191|4184|4192|4184|4186|4185|4183|4184|4184|4185|4187|4180|4183|4188|4191|4181|4191|4182|4194|4188|4194|4194|4194|4192|4186|4184|4194|4180|4186|4186|4192|4180|4181|4192|4181|4187|4190|4193|4186|4184|4193|4190|4183|4192|4191|4193|4184|4190|4192|4184|4184|4184|4182|4187|4186|4187|4194|4188|4182|4192|4182|4193|4193|4192|4192|4182|4181|4185|4186|4182|4184|4181|4182|4192|4185|4184|4184|4187|4182|4184|4185|4193|4185|4183|4184|4183|4187|4180|4188|4188|4193|4193|4194|4180|4189|4185|4186|4182|4184|4193|4187|4188|4188|4182|4191|4188|4192|4180|4194|4189|4192|4191|4193|4184|4194|4188|4194|4190|4180|4187|4194|4189|4181|4186|4181|4182|4187|4182|4182|4187|4191|4184|4185|4187|4187|4191|4187|4180|4180|4190|4194|4182|4180|4186|4187|4191|4184|4186|4187|4194|4182|4194|4184|4181|4185|4184|4187|4183|4183|4187|4192
