﻿name,districts,zipcodes
Aabenraa,Denmark,6200
Aabybro,Denmark,9440|9440|9440
Aakirkeby,Denmark,3720
Aalborg,Denmark,9000
Aalborg Øst,Denmark,9220
Aalborg SØ,Denmark,9210
Aalborg SV,Denmark,9200
Aalestrup,Denmark,9620|9620|9620|9620
Aarhus C,Denmark,8000
Aarhus N,Denmark,8200
Aarhus V,Denmark,8210
Aars,Denmark,9600|9600
Aarup,Denmark,5560|5560|5560
Åbyhøj,Denmark,8230
Ærøskøbing,Denmark,5970
Agedrup,Denmark,5320
Agerbæk,Denmark,6753|6753
Agerskov,Denmark,6534|6534|6534
Ålbæk,Denmark,9982|9982
Albertslund,Denmark,2620|2620
Allerød,Denmark,3450|3450|3450
Allingåbro,Denmark,8961
Allinge,Denmark,3770
Almind,Denmark,6051
Ålsgårde,Denmark,3140
Anholt,Denmark,8592
Ans By,Denmark,8643|8643
Ansager,Denmark,6823|6823
Arden,Denmark,9510|9510
Årre,Denmark,6818|6818
Årslev,Denmark,5792
Asaa,Denmark,9340|9340
Askeby,Denmark,4792
Asnæs,Denmark,4550
Asperup,Denmark,5466
Assens,Denmark,5610
Augustenborg,Denmark,6440
Aulum,Denmark,7490
Auning,Denmark,8963|8963
Bække,Denmark,6622
Bækmarksbro,Denmark,7660|7660
Bælum,Denmark,9574
Bagenkop,Denmark,5935
Bagsværd,Denmark,2880|2880|2880
Balle,Denmark,8444|8444
Ballerup,Denmark,2750|2750|2750
Bandholm,Denmark,4941
Barrit,Denmark,7150
Beder,Denmark,8330
Bedsted Thy,Denmark,7755
Bevtoft,Denmark,6541|6541
Billum,Denmark,6852
Billund,Denmark,7190|7190
Bindslev,Denmark,9881|9881
Birkerød,Denmark,3460|3460|3460
Bjæverskov,Denmark,4632
Bjerringbro,Denmark,8850|8850
Bjert,Denmark,6091
Blåvand,Denmark,6857
Blokhus,Denmark,9492
Blommenslyst,Denmark,5491|5491
Boeslunde,Denmark,4242
Bogense,Denmark,5400
Bogø By,Denmark,4793
Bolderslev,Denmark,6392
Bording,Denmark,7441|7441
Børkop,Denmark,7080
Borre,Denmark,4791
Borup,Denmark,4140|4140|4140
Bøvlingbjerg,Denmark,7650
Brabrand,Denmark,8220
Brædstrup,Denmark,8740|8740
Bramming,Denmark,6740
Brande,Denmark,7330|7330|7330
Branderup J,Denmark,6535
Bredebro,Denmark,6261
Bredsten,Denmark,7182
Brenderup Fyn,Denmark,5464
Broager,Denmark,6310
Broby,Denmark,5672
Brøndby,Denmark,2605
Brøndby Strand,Denmark,2660|2660
Brønderslev,Denmark,9700|9700
Brønshøj,Denmark,2700
Brørup,Denmark,6650
Brovst,Denmark,9460
Bryrup,Denmark,8654|8654|8654
Bylderup-Bov,Denmark,6372
Charlottenlund,Denmark,2920
Christiansfeld,Denmark,6070|6070
Dalby,Denmark,5380
Dalmose,Denmark,4261|4261
Dannemare,Denmark,4983
Daugård,Denmark,8721
Dianalund,Denmark,4293|4293
Dragør,Denmark,2791|2791
Dronninglund,Denmark,9330|9330
Dronningmølle,Denmark,3120
Dybvad,Denmark,9352|9352
Dyssegård,Denmark,2870
Ebberup,Denmark,5631
Ebeltoft,Denmark,8400
Egå,Denmark,8250
Egernsund,Denmark,6320
Egtved,Denmark,6040|6040
Ejby,Denmark,5592
Ejstrupholm,Denmark,7361|7361
Engesvang,Denmark,7442|7442
Errindlev,Denmark,4895
Erslev,Denmark,7950
Esbjerg,Denmark,6700
Esbjerg N,Denmark,6715
Esbjerg Ø,Denmark,6705
Esbjerg V,Denmark,6710
Eskebjerg,Denmark,4593
Eskilstrup,Denmark,4863
Espergærde,Denmark,3060|3060
Faaborg,Denmark,5600
Fanø,Denmark,6720
Fårevejle,Denmark,4540
Farsø,Denmark,9640
Farum,Denmark,3520|3520|3520
Fårup,Denmark,8990|8990
Fårvang,Denmark,8882|8882
Faxe,Denmark,4640|4640
Faxe Ladeplads,Denmark,4654
Fejø,Denmark,4944
Ferritslev Fyn,Denmark,5863|5863
Fjenneslev,Denmark,4173|4173
Fjerritslev,Denmark,9690
Flemming,Denmark,8762|8762
Føllenslev,Denmark,4591|4591
Føvling,Denmark,6683|6683
Fredensborg,Denmark,3480|3480|3480
Fredericia,Denmark,7000|7007|7000
Frederiksberg,Denmark,1810|2000|1800|1801|1802|1803|1804|1805|1806|1807|1808|1809|1810|1811|1812|1813|1814|1815|1816|1817|1818|1819|1820|1822|1823|1824|1825|1826|1827|1828|1829|1850|1851|1852|1853|1854|1855|1856|1857|1860|1861|1862|1863|1864|1865|1866|1867|1868|1870|1871|1872|1873|1874|1875|1876|1877|1878|1879|1900|1901|1902|1903|1904|1905|1906|1908|1909|1910|1911|1912|1913|1914|1915|1916|1917|1920|1921|1922|1923|1924|1925|1926|1927|1928|1950|1951|1952|1953|1954|1955|1956|1957|1958|1959|1960|1961|1962|1963|1964|1965|1966|1967|1970|1971|1972|1973|1974|2000
Frederikshavn,Denmark,9900|9900
Frederikssund,Denmark,3600|3600|3600
Frederiksværk,Denmark,3300|3300
Frørup,Denmark,5871
Frøstrup,Denmark,7741
Fuglebjerg,Denmark,4250|4250
Fur,Denmark,7884
Gadbjerg,Denmark,7321
Gadstrup,Denmark,4621
Galten,Denmark,8464|8464
Gandrup,Denmark,9362
Gedser,Denmark,4874
Gedsted,Denmark,9631|9631
Gedved,Denmark,8751|8751
Gelsted,Denmark,5591
Gentofte,Denmark,2820|2820
Gesten,Denmark,6621
Gilleleje,Denmark,3250
Gislev,Denmark,5854|5854
Gislinge,Denmark,4532
Gistrup,Denmark,9260|9260
Give,Denmark,7323|7323
Gjerlev J,Denmark,8983
Gjern,Denmark,8883
Glamsbjerg,Denmark,5620
Glejbjerg,Denmark,6752
Glesborg,Denmark,8585
Glostrup,Denmark,2600|2600|2600
Glumsø,Denmark,4171
Gørding,Denmark,6690|6690
Gørlev,Denmark,4281
Gørløse,Denmark,3330
Græsted,Denmark,3230|3230|3230
Gram,Denmark,6510
Gråsten,Denmark,6300
Gredstedbro,Denmark,6771
Grenaa,Denmark,8500
Greve,Denmark,2670
Grevinge,Denmark,4571
Grindsted,Denmark,7200|7200|7200
Gudbjerg Sydfyn,Denmark,5892
Gudhjem,Denmark,3760|3760
Gudme,Denmark,5884
Guldborg,Denmark,4862
Haarby,Denmark,5683
Haderslev,Denmark,6100|6100
Haderup,Denmark,7540|7540|7540
Hadsten,Denmark,8370
Hadsund,Denmark,9560|9560
Hals,Denmark,9370|9370
Hammel,Denmark,8450|8450
Hampen,Denmark,7362|7362
Hanstholm,Denmark,7730
Harboøre,Denmark,7673
Hårlev,Denmark,4652|4652
Harlev J,Denmark,8462
Harndrup,Denmark,5463
Harpelunde,Denmark,4912
Hasle,Denmark,3790
Haslev,Denmark,4690|4690|4690
Hasselager,Denmark,8361
Havdrup,Denmark,4622|4622
Havndal,Denmark,8970|8970
Hedehusene,Denmark,2640|2640|2640|2640
Hedensted,Denmark,8722
Hejls,Denmark,6094|6094
Hejnsvig,Denmark,7250
Hellebæk,Denmark,3150
Hellerup,Denmark,2900|2900
Helsinge,Denmark,3200|3200
Helsingør,Denmark,3000
Hemmet,Denmark,6893
Henne,Denmark,6854
Herfølge,Denmark,4681
Herlev,Denmark,2730|2730|2730|2730
Herlufmagle,Denmark,4160|4160
Herning,Denmark,7400|7400|7400
Hesselager,Denmark,5874|5874
Hillerød,Denmark,3400|3400|3400
Hinnerup,Denmark,8382|8382
Hirtshals,Denmark,9850
Hjallerup,Denmark,9320|9320
Hjerm,Denmark,7560|7560
Hjørring,Denmark,9800
Hjortshøj,Denmark,8530
Hobro,Denmark,9500|9500|9500
Højbjerg,Denmark,8270
Højby,Denmark,4573
Høje Taastrup,Denmark,800
Højer,Denmark,6280
Højslev,Denmark,7840|7840
Holbæk,Denmark,4300
Holeby,Denmark,4960
Holmegaard,Denmark,4684|4684
Holstebro,Denmark,7500|7500|7500
Holsted,Denmark,6670|6670
Holte,Denmark,2840|2840
Høng,Denmark,4270|4270
Horbelev,Denmark,4871
Hornbæk,Denmark,3100|3100
Hørning,Denmark,8362|8362
Hornslet,Denmark,8543|8543
Hornsyld,Denmark,8783|8783
Horsens,Denmark,8700|8700
Hørsholm,Denmark,2970|2970|2970
Horslunde,Denmark,4913
Hørve,Denmark,4534|4534
Hovborg,Denmark,6682|6682|6682
Hovedgård,Denmark,8732
Humble,Denmark,5932
Humlebæk,Denmark,3050|3050
Hundested,Denmark,3390
Hundslund,Denmark,8350
Hurup Thy,Denmark,7760|7760
Hvalsø,Denmark,4330|4330|4330
Hvide Sande,Denmark,6960
Hvidovre,Denmark,2650|2650
Idestrup,Denmark,4872
Ikast,Denmark,7430
Ishøj,Denmark,2635
Jægerspris,Denmark,3630
Janderup Vestj,Denmark,6851
Jelling,Denmark,7300
Jerslev J,Denmark,9740|9740
Jerslev Sjælland,Denmark,4490
Jerup,Denmark,9981
Jordrup,Denmark,6064
Juelsminde,Denmark,7130
Jyderup,Denmark,4450|4450
Jyllinge,Denmark,4040
Jystrup Midtsj,Denmark,4174|4174
Kalundborg,Denmark,4400
Kalvehave,Denmark,4771
Karby,Denmark,7960
Karise,Denmark,4653|4653
Karlslunde,Denmark,2690|2690
Karrebæksminde,Denmark,4736
Karup J,Denmark,7470|7470|7470
Kastrup,Denmark,2770|2770
Kerteminde,Denmark,5300
Kettinge,Denmark,4892
Kibæk,Denmark,6933|6933
Kirke Eskilstrup,Denmark,4360|4360
Kirke Hyllinge,Denmark,4070
Kirke Såby,Denmark,4060
Kjellerup,Denmark,8620|8620
Klampenborg,Denmark,2930|2930
Klarup,Denmark,9270
Klemensker,Denmark,3782
Klippinge,Denmark,4672
Klovborg,Denmark,8765|8765
Knebel,Denmark,8420
København,Denmark,1000|1050|1051|1052|1053|1054|1055|1056|1057|1058|1059|1060|1061|1062|1063|1064|1065|1066|1067|1068|1069|1070|1071|1072|1073|1074|1092|1093|1095|1098|1100|1101|1102|1103|1104|1105|1106|1107|1110|1111|1112|1113|1114|1115|1116|1117|1118|1119|1120|1121|1122|1123|1124|1125|1126|1127|1128|1129|1130|1131|1140|1147|1148|1150|1151|1152|1153|1154|1155|1156|1157|1158|1159|1160|1161|1162|1164|1165|1166|1167|1168|1169|1170|1171|1172|1173|1174|1175|1200|1201|1202|1203|1204|1205|1206|1207|1208|1209|1210|1211|1213|1214|1215|1216|1217|1218|1219|1220|1221|1240|1250|1251|1252|1253|1254|1255|1256|1257|1259|1260|1261|1263|1264|1265|1266|1267|1268|1270|1271|1291|1300|1301|1302|1303|1304|1306|1307|1308|1309|1310|1311|1312|1313|1314|1315|1316|1317|1318|1319|1320|1321|1322|1323|1324|1325|1326|1327|1328|1329|1349|1350|1352|1353|1354|1355|1356|1357|1358|1359|1360|1361|1362|1363|1364|1365|1366|1367|1368|1369|1370|1371|1400|1401|1402|1403|1406|1407|1408|1409|1410|1411|1412|1413|1414|1415|1416|1417|1418|1419|1420|1421|1422|1423|1424|1425|1426|1427|1428|1429|1430|1431|1432|1433|1434|1435|1436|1437|1438|1439|1440|1441|1448|1450|1451|1452|1453|1454|1455|1456|1457|1458|1459|1460|1462|1463|1464|1466|1467|1468|1470|1471|1472|1500|1550|1551|1552|1553|1554|1555|1556|1557|1558|1559|1560|1561|1562|1563|1564|1566|1567|1568|1569|1570|1571|1572|1573|1574|1575|1576|1577|1592|1599|1600|1601|1602|1603|1604|1606|1607|1608|1609|1610|1611|1612|1613|1614|1615|1616|1617|1618|1619|1620|1621|1622|1623|1624|1630|1631|1632|1633|1634|1635|1640|1650|1651|1652|1653|1654|1655|1656|1657|1658|1659|1660|1661|1662|1663|1664|1665|1666|1667|1668|1669|1670|1671|1672|1673|1674|1675|1676|1677|1699|1700|1701|1702|1703|1704|1705|1706|1707|1708|1709|1710|1711|1712|1714|1715|1716|1717|1718|1719|1720|1721|1722|1723|1724|1725|1726|1727|1728|1729|1730|1731|1732|1733|1734|1735|1736|1737|1738|1739|1749|1750|1751|1752|1753|1754|1755|1756|1757|1758|1759|1760|1761|1762|1763|1764|1765|1766|1770|1771|1772|1773|1774|1775|1777|1780|1785|1786|1787|1790|1799|2100|2200|2300|2400|2450|2200|917|1532|1533|2300
København C,Denmark,900|999
Køge,Denmark,4600|4600
Kokkedal,Denmark,2980|2980
Kolding,Denmark,6000
Kolind,Denmark,8560|8560
Kongens Lyngby,Denmark,2800|2800|2800|2800
Kongerslev,Denmark,9293|9293
Korsør,Denmark,4220
Kruså,Denmark,6340
Kværndrup,Denmark,5772|5772
Kvistgård,Denmark,3490|3490
Læsø,Denmark,9940
Langå,Denmark,8870|8870
Langebæk,Denmark,4772
Langeskov,Denmark,5550|5550|5550
Låsby,Denmark,8670
Lejre,Denmark,4320|4320|4320
Lem St,Denmark,6940
Lemming,Denmark,8632
Lemvig,Denmark,7620
Lille Skensved,Denmark,4623|4623|4623
Lintrup,Denmark,6660
Liseleje,Denmark,3360
Løgstør,Denmark,9670|9670
Løgstrup,Denmark,8831
Løgumkloster,Denmark,6240
Løkken,Denmark,9480|9480|9480
Løsning,Denmark,8723
Lundby,Denmark,4750|4750
Lunderskov,Denmark,6640
Lynge,Denmark,3540|3540|3540|3540
Lystrup,Denmark,8520
Malling,Denmark,8340|8340
Måløv,Denmark,2760
Mariager,Denmark,9550|9550
Maribo,Denmark,4930|4930
Mårslet,Denmark,8320
Marslev,Denmark,5290
Marstal,Denmark,5960
Martofte,Denmark,5390
Melby,Denmark,3370
Mern,Denmark,4735
Mesinge,Denmark,5370
Middelfart,Denmark,5500
Millinge,Denmark,5642|5642
Møldrup,Denmark,9632|9632
Mørke,Denmark,8544
Mørkøv,Denmark,4440
Morud,Denmark,5462
Munke Bjergby,Denmark,4190|4190
Munkebo,Denmark,5330|5330
Nærum,Denmark,2850
Næstved,Denmark,4700
Nakskov,Denmark,4900
Nexø,Denmark,3730
Nibe,Denmark,9240|9240|9240
Nimtofte,Denmark,8581|8581
Nivå,Denmark,2990
Nørager,Denmark,9610|9610
Nordborg,Denmark,6430|6430
Nordhavn,Denmark,2150
Nørre Aaby,Denmark,5580
Nørre Alslev,Denmark,4840
Nørre Asmindrup,Denmark,4572
Nørre Nebel,Denmark,6830|6830
Nørre Snede,Denmark,8766|8766
Nørreballe,Denmark,4951
Nørresundby,Denmark,9400
Nyborg,Denmark,5800
Nykøbing F,Denmark,4800
Nykøbing M,Denmark,7900
Nykøbing Sj,Denmark,4500
Nyrup,Denmark,4296|4296
Nysted,Denmark,4880
Odder,Denmark,8300|8300
Odense,Denmark,5000
Odense M,Denmark,5230
Odense N,Denmark,5270|5270
Odense NØ,Denmark,5240
Odense NV,Denmark,5210
Odense S,Denmark,5260
Odense SØ,Denmark,5220
Odense SV,Denmark,5250
Odense V,Denmark,5200
Oksbøl,Denmark,6840
Ølgod,Denmark,6870|6870
Ølsted,Denmark,3310|3310
Ølstykke,Denmark,3650
Ørbæk,Denmark,5853|5853
Ørnhøj,Denmark,6973|6973
Ørsted,Denmark,8950
Ørum Djurs,Denmark,8586
Østbirk,Denmark,8752
Øster Assels,Denmark,7990
Øster Ulslev,Denmark,4894|4894
Østermarie,Denmark,3751
Østervrå,Denmark,9750|9750|9750
Otterup,Denmark,5450
Oure,Denmark,5883
Outrup,Denmark,6855
Padborg,Denmark,6330
Pandrup,Denmark,9490
Præstø,Denmark,4720
Randbøl,Denmark,7183
Randers C,Denmark,8900
Randers NØ,Denmark,8930
Randers NV,Denmark,8920
Randers SØ,Denmark,8960|8960
Randers SV,Denmark,8940|8940
Ranum,Denmark,9681
Rask Mølle,Denmark,8763
Redsted M,Denmark,7970
Regstrup,Denmark,4420
Ribe,Denmark,6760
Ringe,Denmark,5750
Ringkøbing,Denmark,6950
Ringsted,Denmark,4100|4100|4100|4100|4100|4100
Risskov,Denmark,8240
Risskov Ø,Denmark,8245
Rødby,Denmark,4970
Rødding,Denmark,6630|6630
Rødekro,Denmark,6230
Rødkærsbro,Denmark,8840|8840
Rødovre,Denmark,2610|2610|2610
Rødvig Stevns,Denmark,4673
Rømø,Denmark,6792
Rønde,Denmark,8410
Rønne,Denmark,3700
Rønnede,Denmark,4683|4683
Rørvig,Denmark,4581
Roskilde,Denmark,4000|4000|4000
Roslev,Denmark,7870
Rude,Denmark,4243|4243
Rudkøbing,Denmark,5900
Ruds Vedby,Denmark,4291|4291
Rungsted Kyst,Denmark,2960
Ry,Denmark,8680|8680|8680
Rynkeby,Denmark,5350
Ryomgård,Denmark,8550|8550
Ryslinge,Denmark,5856
Sabro,Denmark,8471|8471|8471
Sæby,Denmark,9300
Sakskøbing,Denmark,4990
Saltum,Denmark,9493
Samsø,Denmark,8305
Sandved,Denmark,4262|4262
Sejerø,Denmark,4592
Silkeborg,Denmark,8600|8600|8600
Sindal,Denmark,9870|9870
Sjællands Odde,Denmark,4583
Sjølund,Denmark,6093
Skælskør,Denmark,4230
Skærbæk,Denmark,6780
Skævinge,Denmark,3320|3320
Skagen,Denmark,9990
Skals,Denmark,8832
Skamby,Denmark,5485
Skanderborg,Denmark,8660|8660|8660|8660
Skårup Fyn,Denmark,5881
Skibby,Denmark,4050
Skive,Denmark,7800|7800|7800
Skjern,Denmark,6900
Skodsborg,Denmark,2942
Skødstrup,Denmark,8541
Skørping,Denmark,9520
Skovlunde,Denmark,2740|2740
Slagelse,Denmark,4200|4200|4200|4200
Slangerup,Denmark,3550|3550|3550|3550
Smørum,Denmark,2765
Snedsted,Denmark,7752
Snekkersten,Denmark,3070
Snertinge,Denmark,4460|4460
Søborg,Denmark,2860|2860
Søby Ærø,Denmark,5985
Solbjerg,Denmark,8355
Søllested,Denmark,4920
Solrød Strand,Denmark,2680
Sommersted,Denmark,6560|6560
Sønder Felding,Denmark,7280|7280
Sønder Omme,Denmark,7260|7260
Sønder Stenderup,Denmark,6092
Sønderborg,Denmark,6400
Søndersø,Denmark,5471
Sorø,Denmark,4180|4180|4180
Sorring,Denmark,8641|8641
Sørvad,Denmark,7550
Spentrup,Denmark,8981
Spjald,Denmark,6971
Sporup,Denmark,8472|8472|8472
Spøttrup,Denmark,7860
Stakroge,Denmark,7270|7270|7270
Stege,Denmark,4780
Stenderup,Denmark,8781|8781
Stenlille,Denmark,4295|4295
Stenløse,Denmark,3660
Stenstrup,Denmark,5771|5771
Stensved,Denmark,4773
Stoholm Jyll,Denmark,7850
Stokkemarke,Denmark,4952
Store Fuglede,Denmark,4480
Store Heddinge,Denmark,4660
Store Merløse,Denmark,4370|4370|4370
Storvorde,Denmark,9280
Stouby,Denmark,7140
Støvring,Denmark,9530|9530
Strandby,Denmark,9970
Strøby,Denmark,4671
Struer,Denmark,7600|7600|7600
Stubbekøbing,Denmark,4850
Suldrup,Denmark,9541|9541
Sulsted,Denmark,9381|9381
Sunds,Denmark,7451|7451
Svaneke,Denmark,3740
Svebølle,Denmark,4470|4470
Svendborg,Denmark,5700
Svenstrup J,Denmark,9230|9230
Svinninge,Denmark,4520
Sydals,Denmark,6470
Taastrup,Denmark,2630
Tappernøje,Denmark,4733|4733|4733
Tarm,Denmark,6880|6880
Tårs,Denmark,9830|9830
Terndrup,Denmark,9575
Them,Denmark,8653
Thisted,Denmark,7700
Thorsø,Denmark,8881|8881
Thyborøn,Denmark,7680
Thyholm,Denmark,7790
Tikøb,Denmark,3080
Tilst,Denmark,8381
Tim,Denmark,6980
Tinglev,Denmark,6360
Tistrup,Denmark,6862
Tisvildeleje,Denmark,3220
Tjæreborg,Denmark,6731
Tjele,Denmark,8830
Toftlund,Denmark,6520|6520
Tølløse,Denmark,4340|4340
Tommerup,Denmark,5690
Tønder,Denmark,6270
Toreby L,Denmark,4891
Torrig L,Denmark,4943
Tørring,Denmark,7160|7160|7160
Tranbjerg J,Denmark,8310
Tranekær,Denmark,5953
Trige,Denmark,8380|8380
Trustrup,Denmark,8570|8570
Tune,Denmark,4030|4030
Tureby,Denmark,4682|4682|4682
Tylstrup,Denmark,9382|9382|9382
Udland,Denmark,960
Ugerløse,Denmark,4350
Uldum,Denmark,7171
Ulfborg,Denmark,6990|6990|6990|6990
Ullerslev,Denmark,5540|5540
Ulstrup,Denmark,8860|8860|8860
Vadum,Denmark,9430|9430
Væggerløse,Denmark,4873
Værløse,Denmark,3500|3500|3500|3500|3500
Valby,Denmark,2500|2500
Vallensbæk,Denmark,2625
Vallensbæk Strand,Denmark,2665
Vamdrup,Denmark,6580
Vandel,Denmark,7184
Vanløse,Denmark,2720|2720
Varde,Denmark,6800
Vedbæk,Denmark,2950|2950
Veflinge,Denmark,5474
Vejby,Denmark,3210
Vejen,Denmark,6600
Vejers Strand,Denmark,6853
Vejle,Denmark,7100|7100
Vejle Øst,Denmark,7120|7120
Vejstrup,Denmark,5882
Veksø Sjælland,Denmark,3670|3670
Vemb,Denmark,7570|7570
Vemmelev,Denmark,4241
Vesløs,Denmark,7742
Vestbjerg,Denmark,9380
Vester Skerninge,Denmark,5762|5762
Vesterborg,Denmark,4953
Vestervig,Denmark,7770
Viborg,Denmark,8800|8800
Viby J,Denmark,8260
Viby Sjælland,Denmark,4130|4130
Videbæk,Denmark,6920
Vig,Denmark,4560
Vildbjerg,Denmark,7480|7480
Vils,Denmark,7980
Vinderup,Denmark,7830|7830|7830|7830
Vipperød,Denmark,4390
Virum,Denmark,2830|2830
Vissenbjerg,Denmark,5492|5492|5492
Viuf,Denmark,6052|6052
Vodskov,Denmark,9310
Vojens,Denmark,6500
Vonge,Denmark,7173|7173
Vorbasse,Denmark,6623|6623|6623
Vordingborg,Denmark,4760
Vrå,Denmark,9760|9760
