name,districts,zipcodes
Abja,,105
Aegviidu,,112
Ahja,,117
Alajõe,,122
Alatskivi,,126
Albu,,129
Ambla,,134
Anija,,140
Antsla,,143
Are,,149
Aseri,,154
Audru,,159
Avanduse,,161
Avinurme,,164
Elva,,170
Emmaste,,175
Haanja,,181
Haapsalu,,183
Haaslava,,185
Halinga,,188
Haljala,,190
Halliste,,192
Hanila,,195
Harku,,198
Helme,,203
Hummuli,,208
Häädemeeste,,213
Iisaku,,224
Illuka,,229
Imavere,,234
Juuru,,240
Järva-Jaani,,257
Järvakandi,,260
Jõelähtme,,245
Jõgeva,,248
Jõgeva,,249
Jõhvi,,253
Kaarma,,270
Kabala,,271
Kadrina,,273
Kaisma,,276
Kaiu,,277
Kallaste,,279
Kambja,,282
Kanepi,,285
Kareda,,288
Karksi,,600
Karula,,289
Kasepää,,657
Kehtna,,292
Keila,,295
Keila,,296
Kernu,,297
Kihelkonna,,301
Kihnu,,303
Kiili,,304
Kilingi-Nõmme,,306
Kiviõli,,309
Koeru,,314
Kohila,,317
Kohtla,,320
Kohtla-Järve,,322
Kohtla-Nõmme,,323
Koigi,,325
Kolga-Jaani,,328
Konguta,,331
Koonga,,334
Kose,,337
Kullamaa,,342
Kunda,,345
Kuressaare,,349
Kuusalu,,352
Käina,,368
Kärdla,,371
Kärla,,373
Käru,,375
Kõlleste,,354
Kõo,,357
Kõpu,,360
Kõrgessaare,,392
Kõue,,363
Laekvere,,381
Laeva,,383
Laheda,,385
Laimjala,,386
Lasva,,389
Lavassaare,,395
Lehtse,,400
Leisi,,403
Lihula,,411
Lohusuu,,420
Loksa,,423
Loksa,,424
Luunja,,432
Lüganuse,,437
Lümanda,,440
Maardu,,446
Maidla,,449
Martna,,452
Meeksi,,454
Meremäe,,460
Mikitamäe,,465
Misso,,468
Mooste,,473
Muhu,,478
Mustjala,,483
Mustvee,,485
Mäetaguse,,498
Mäksa,,501
Märjamaa,,504
Mõisaküla,,490
Mõniste,,493
Narva,,511
Narva-Jõesuu,,513
Nissi,,518
Noarootsi,,520
Nõo,,528
Nõva,,531
Oisu,,537
Olustvere,,545
Orava,,547
Orissaare,,550
Oru,,552
Otepää,,636
Padise,,562
Paide,,565
Paide,,566
Paikuse,,568
Paistu,,570
Pajusi,,573
Pala,,576
Palamuse,,578
Paldiski,,580
Palupera,,582
Peipsiääre,,587
Pihtla,,592
Puhja,,605
Puka,,608
Puurmani,,611
Pärnu,,625
Pärsti,,629
Põdrala,,613
Põltsamaa,,616
Põltsamaa,,617
Põlva,,619
Põlva,,620
Pöide,,634
Pühalepa,,639
Püssi,,645
Raasiku,,651
Rae,,653
Raikküla,,654
Rakke,,660
Rakvere,,662
Rakvere,,663
Rannu,,666
Rapla,,669
Ridala,,674
Risti,,680
Roosna-Alliku,,684
Ruhnu,,689
Räpina,,707
Rõngu,,694
Rõuge,,697
Saarde,,711
Saare,,713
Saarepeedi,,715
Saku,,718
Salme,,721
Sangaste,,724
Saue,,727
Saue,,728
Sauga,,730
Sillamäe,,735
Sindi,,741
Sonda,,751
Surju,,756
Suure-Jaani,,759
Suure-Jaani,,760
Sõmerpalu,,767
Sõmeru,,770
Tabivere,,773
Taebla,,776
Taheva,,779
Tahkuranna,,848
Tali,,782
Tallinn,,784
Tamsalu,,787
Tamsalu,,788
Tapa,,791
Tartu,,794
Tartu,,795
Tarvastu,,797
Toila,,802
Tootsi,,805
Torgu,,807
Tori,,808
Torma,,810
Tudulinna,,815
Tähtvere,,831
Tõlliste,,820
Tõrva,,823
Tõstamaa,,826
Türi,,836
Türi,,837
Urvaste,,843
Vaivara,,851
Valgjärve,,856
Valjala,,858
Vara,,861
Varbla,,863
Varstu,,865
Vasalemma,,868
Vastemõisa,,870
Vastse-Kuuste,,872
Vastseliina,,874
Veriora,,879
Vigala,,884
Vihula,,887
Viimsi,,890
Viiratsi,,892
Viljandi,,897
Vinni,,900
Viru-Nigula,,902
Vormsi,,907
Väike-Maarja,,927
Vändra,,930
Vändra (alevi),,931
Värska,,934
Väätsa,,937
Võhma,,912
Võnnu,,915
Võru,,918
Võru,,919
Õru,,943
Ülenurme,,949
