name,districts,zipcodes
Ääne-Koivisto,,44250
Äänekoski,,44007|44100|44101|44120|44150|44151
Aapajärvi,,98570
Aapajoki,,95560
Aappola,,71810
Aavasaksa,,95620
Äetsä,,32740|32741
Ahjola,,89730
Ahkionlahti,,71760
Ahlainen,,29700
Ahmas,,91660
Ahmovaara,,83950
Aho,,43610
Ahokylä,,92920
Aholansaari,,73890
Aholanvaara,,98770
Ahomäki,,54490
Ahonkylä,,83480
Ähtäri,,63700|63701
Ähtärin eläinpuisto,,63706
Ähtärinranta,,63660
Ähtävä,,68820
Ahvenainen,,52980
Ahveninen,,81260
Ahvenkoski,,7960
Ahvensalmi,,58140
Ahvenselkä,,98630
Ahvio,,46950
Aijala,,25550
Äijälä,,41390
Äijänneva,,34910
Aikkila,,93820
Ainali,,86630
Ainastalo,,85560
Airaksela,,71490
Aitakumpu,,97740
Aitoo,,36720
Äitsaari,,56140
Aittaniemi,,97860
Aittojärvi,,74740
Äkäsjoensuu,,95930
Äkäslompolo,,95970|95971
Akkaansilta,,61540
Akonlahti,,78890
Ala-Hella,,62140
Ala-Honkajoki,,38910
Ala-Joutseno,,54160
Ala-Kieri,,27220
Ala-Luosta,,73850
Ala-Pihlaja,,49960
Ala-Särkilahti,,58690
Ala-Seppä,,62620
Ala-Siikajärvi,,73880
Ala-Siurua,,93187
Ala-Temmes,,91930
Ala-Valli,,61640
Ala-Veteli,,68410
Ala-Viirre,,68240
Ala-Vuokki,,89830
Alajärvi,,62900|62901
Alakylä,,97470
Alaniemi,,95255
Alapitkä,,71910
Alaskylä,,39780
Alastaipale,,63780
Alastaro,,32440|32441
Alavieska,,85200|85201
Alavus,,63300|63301
Alavus As,,63400|63401
Alhojärvi,,42250
Alkkia,,39990
Alpua,,86460
Alvajärvi,,44860
Alvettula,,14680
Åminnefors,,10410|10411
Ämmänsaari,,89601|89607
Anetjärvi,,97980
Angelniemi,,25230
Ängeslevä,,91810
Anjalankoski,,46800|46801|46810|46860|46861|46900|46901|46910|46920
Anjalankoski 7,,46907
Änkilä,,56830
Annonen,,86530
Antskog,,10480
Anttila,,7130
Anttola,,52100
Apt 4,,95580
Arkala,,91310
Arkkukari,,92210
Aro,,46230
Arpela,,95590
Arrakoski,,17530
Artjärvi,,16200|16201
Artjärvi Kk,,16230
Asikkala,,17320
Asila,,51730
Aska,,99550
Askainen,,21240
Askola,,7500
Asunta,,42520
Aulanko,,13230
Aura,,21380|21381
Aura Kk,,21370
Aureskoski,,39770
Autioniemi,,98390
Autti,,97655
Auttoinen,,17610
Auvainen,,21860
Åvist,,66880
Äyrinmäki,,92250
Äystö,,64770
Bäckby,,68830
Barösund,,10270
Bergö,,66220
Bertby,,66660
Björkboda,,25860
Björköby,,65870
Böle,,64240
Bollsta,,10440|10441
Bomba,,75550
Bosund,,68555
Bromarv,,10570
Dagsmark,,64320
Dalen,,64470
Degerby,,10161
Degerby Ul,,10160
Dragsfjärd,,25870
Dragsvik,,10640|10641
Edsevö,,68870
Eerikkilä,,31370
Eilu,,23940
Ekola,,62350
Elämäjärvi,,44910
Eliaksela,,72220
Elimäki,,47200|47201
Ellivuori,,38130
Ellola,,54610
Emäsalo,,6950
Emsalö,,6951
Enäjärvi,,46450
Ennyinen,,23240
Eno,,81200|81201
Enonkoski,,58175
Enonlahti,,71320
Enontekiö,,99400|99401
Epoo,,7340
Erä,,56250
Eräjärvi,,35220
Ervasti,,93320
Ervelä,,25530
Eskola,,69150
Espoo,,2002|2003|2007|2100|2101|2110|2111|2120|2130|2131|2140|2141|2150|2151|2160|2170|2171|2180|2181|2200|2201|2210|2211|2230|2231|2240|2241|2260|2261|2270|2271|2280|2281|2290|2300|2320|2321|2330|2340|2341|2360|2361|2380|2600|2601|2610|2611|2620|2621|2630|2631|2660|2661|2680|2710|2711|2720|2721|2730|2731|2740|2741|2750|2760|2761|2770|2771|2780|2781|2810|2811|2820|2821|2860|2861|2920|2921|2940|2941|2970|2971|2980|2981
Etelä-Portimojärvi,,95655
Eteläinen,,14470|14770
Etelämaa,,29740
Eteläpetruma,,79885
Eugmo,,68560
Eura,,27510|27511
Eurajoki,,27100|27101
Eurajoki As,,27130
Evijärvi,,62500|62501
Evitskog,,2550
Evo,,16970
Fagervik,,10250
Filpus,,95210
Fiskari,,10470
Förby,,25640
Forsby,,68920
Forssa,,30003|30007|30100|30101|30300|30420|30421|30740|31003|31100|31999|32003
Furuholmen,,68580
Gäddrag,,7350
Gammelby,,7740
Gråböle,,25690
Gumbostrand,,1130
Haapa-Kimola,,47310
Haapajärvi,,85800|85801
Haapakallio,,58410
Haapakoski,,77520
Haapala,,66460
Haapalahti,,81295
Haapaluoma,,61180
Haapamäki,,42800|42801|42899
Haapaniemi,,40820
Haapaoja,,59320
Haapavesi,,86600|86601
Haapovaara,,89750
Haarajärvi,,82395
Haarajoki,,4480
Haarala,,44690
Haaralanniemi,,83815
Haaroinen,,32420
Haataja,,93670
Haatala,,71745
Haavisto,,42330
Häijää,,38420
Haikala,,1850
Haikara,,85530
Hailuoto,,90480
Hajala,,25240
Hakasuo,,88320
Häkkilä,,43170
Hakko,,66330
Hakojärvi,,63680
Halikko,,24800|24801
Halikko As,,24910
Halkia,,7190
Halkivaha,,31830
Halkokumpu,,77240
Halkosaari,,60560
Halla,,48920
Halli,,35600|35601
Hällinmäki,,77340
Halmeniemi,,52850
Halmesmäki,,62270
Halosenniemi,,90860
Halsua,,69510
Haluna,,73350
Hämäläinen,,54670
Hamari,,6550|6650
Hämeenkoski,,16800|16801
Hämeenkyrö,,39100|39101
Hämeenlinna,,13007|13100|13101|13110|13111|13130|13131|13160|13200|13201|13210|13211|13220|13250|13270|13300|13400|13430|13500|13501|13530|13600|14999
Hämeenmäki,,52580
Hamina,,49400|49401|49407|49420|49460|49461|49899
Hamina leirintä,,49818
Hammaslahti,,82200|82201
Hamula,,71890
Hangastenmaa,,52340
Hangonkylä,,10940
Hanhikoski,,61460
Hanhimaa,,99190
Hanhisuo,,31150
Hanka,,41585
Hankasalmi,,41520|41521
Hankasalmi As,,41500|41501
Hanko,,10900|10901
Hanko Pohjoinen,,10960|10961
Hännilä,,51340
Hannula,,41550
Häntälä,,25350|31450
Hapuoja,,38740
Harinjärvi,,83460
Harja,,61860
Harjamäki,,71870
Harjavalta,,29200|29201
Harju,,45330
Harjumaa,,51420
Harjunpää,,28260
Harjunsalmi,,17840
Härkälä,,51940
Härkäpää,,7780
Härkmeri,,64460
Härmä,,62300|62301
Härmänkylä,,88740
Harmoinen,,17780
Harola,,27450
Harrström,,66290
Hartola,,19600|19601
Hartosenpää,,19480
Harviala,,13330
Hästbacka,,68710
Hasula,,47830
Hatsola,,51820
Hattu,,82967
Hattula,,13880
Hattulan vanha kirkko,,13806
Hattuvaara,,81650
Hauhala,,52150
Hauho,,14700|14701
Haukijärvi,,38490
Haukila,,37740
Haukipudas,,90830|90831|90840
Haukivaara,,82830
Haukivuori,,51600|51601
Haukkala,,62730
Hauklappi,,56370
Haunia,,38660
Hausjärvi,,12210
Hautajärvi,,98995
Hautakylä,,63890
Hautalahti,,58250
Hautjärvi,,4840
Haveri,,21890
Haviokoski,,31910
Havumäki,,41750
Heikinkylä,,7850
Heikkilänjoki,,64840
Heikkilänniemi,,93980
Heimari,,52330
Heinäaho,,82810
Heinäkylä,,74630
Heinämaa,,16330
Heinävaara,,82110
Heinävesi,,79700|79701
Heinävesi As,,79710
Heinistö,,46250
Heinlahti,,49200
Heinola,,18100|18101|18111|18120|18130|18150|18200|19999
Heinola Kk,,18300
Heinola leirintä,,18108
Heinoniemi,,82490
Heinoo,,38150
Heituinlahti,,54770
Hellanmaa,,62130
Helppi,,97440
Helsingby,,65520
Helsinki,,100|101|120|121|130|131|140|141|150|151|160|161|170|171|180|181|190|191|200|201|210|211|230|231|240|241|250|251|260|270|271|280|281|290|300|301|310|320|321|330|331|340|341|350|351|360|370|371|380|381|390|391|400|401|410|411|420|421|430|431|440|441|500|501|510|511|520|521|530|531|550|551|560|561|570|571|580|581|600|601|610|611|620|621|630|640|641|650|660|661|670|671|680|681|690|691|700|701|710|711|720|721|730|731|740|741|750|751|760|761|770|771|780|781|800|801|810|811|819|820|821|830|831|840|841|850|851|860|861|870|880|881|900|901|910|911|920|921|930|931|940|941|950|951|960|970|971|980|981|990|3999
Heraniemi,,81190
Hernejärvi,,74420
Hernesmaa,,63540
Herrala,,16500
Herttuala,,39180
Hetejärvi,,93160
Hevonlahti,,79530
Hevonpää,,21510
Hietama,,44170
Hietamäki,,23140
Hietana,,16260
Hietanen,,52510
Hietoinen,,12170
Hiidenniemi,,86850
Hiirola,,51520
Hiisi,,25370
Hiisijärvi,,88460
Hiisiö,,47460
Hiitelä,,16210
Hiittinen,,25940
Hikiä,,12240
Hillilä,,68150
Hillosensalmi,,47910|52940
Hiltula,,58850
Hiltulanlahti,,70870|70871
Himanka,,68100|68101
Hinnerjoki,,26700|27600
Hinthaara,,7110
Hirsilä,,35320
Hirsjärvi,,31460|31461
Hirvas,,97130
Hirvasvaara,,98760
Hirvelä,,25385
Hirvelänkylä,,46610
Hirvensalmi,,52550|52551
Hirvihaara,,4680
Hirvijärvi,,61630
Hirvijoki,,62260
Hirvikoski,,75810
Hirvikylä,,62290
Hirvilahti,,71650
Hirvivuori,,29850
Hirvlax,,66970
Hiukkajoki,,58520
Högbacka,,10620
Högnabba,,68740
Högsåra,,25960
Hoikankylä,,41260
Hoikka,,89430
Hoilola,,82760
Hoisko,,62940
Hoivamäki,,35260
Höljäkkä,,75990
Holkeri,,31670
Hollola,,15861|15870|15871|16710
Hollola 2,,15860
Hollola 3,,15880|15881
Honka,,31360
Honkajoki,,38950|38951
Honkakoski,,29640
Honkalampi,,80420
Honkaranta,,74610
Honkilahti,,27650
Honkilahti Kk,,27640
Honkola,,31730
Hormajärvi,,8450
Hormakumpu,,99270
Hormisto,,29270
Horo,,64740
Horontaipale,,72380
Horsmanaho,,83780
Horsmanmäki,,73160
Houtskär,,21760
Hovi,,81140
Hovinmäki,,71780
Höytiä,,41220
Huhdasjärvi,,47760
Huhmari,,3150
Huhmarkoski,,62240
Huhtamäki,,62320
Huhtamo,,32770
Huhtilampi,,82180
Huhus,,81450
Huissi,,61350
Huittinen,,32700|32701|32899
Hujakkala,,54430
Hukkala,,83830
Humaloja,,86610
Hummovaara,,82460
Humppi,,43640
Humppila,,31640|31641
Huopanankoski,,44580
Huosiovaara,,82720
Huovilansalmi,,79340
Huovinrinne,,27910|27911
Hurissalo,,52230
Hurskaala,,77320
Hurttala,,49720
Huruksela,,46930
Husula,,49510
Huttula,,41970
Huuhanaho,,51740
Huumala,,77140
Huutjärvi,,49210
Huutokoski,,79620
Huutomäki,,44160
Huutotöyry,,19160
Huuvari,,7590
Hyllykallio,,60510|60511
Hyönölä,,3870
Hypönniemi,,82320
Hyrsynummi,,9710
Hyry,,32320
Hyrynsalmi,,89400|89401
Hyryoja,,95130
Hytölä,,44330
Hytti,,54310
Hyvinkää,,5460|5470|5510|5620|5720|5800|5801|5820|5821|5830|5831|5840|5841|5850|5860|5880|5881|5900|5901|5950|5999
Hyvinkää 7,,5807
Hyynilä,,38470
Hyyppä,,61940
Ihala,,20270
Ihamaniemi,,58180
Ihastjärvi,,50970
Ihode,,27320
Ii,,91100|91101
Ii As,,91110
Ii leirintä,,91108
Iinattijärvi,,93277
Iisalmi,,74007|74100|74101|74120|74121|74130|74131|74999
Iisvesi,,77800
Iittala,,14500|14501
Iitti,,47520
Iivantiira,,88760
Ikaalinen,,39500|39501|39510
Ikkala,,3810
Ikkeläjärvi,,61880
Ikosenniemi,,93180
Illo,,38280
Ilmajoki,,60800|60801
Ilmakka,,77160
Ilmarinen,,21350
Ilmola,,95360
Ilmolahti,,44530
Ilola,,7280|7281
Ilomantsi,,82900|82901
Iltasmäki,,36640
Ilvesjoki,,61760
Ilveskorpi,,86360
Imanne,,75910
Imatra,,55007|55100|55101|55120|55121|55400|55420|55510|55610|55611|55700|55800|55801|55910|55950|56999
Impiö,,97765
Impola,,25310
Inari,,99870|99871
Ingermaninkylä,,7810
Inget,,93470
Inha,,63920|63921
Inhan Tehtaat,,63910
Iniö,,23390
Inkere,,24520|25190|25191
Inkerilä,,46350
Inkoo,,10210|10211
Inkoo As,,10230
Irjanne,,27110
Irni,,93790
Iskmo,,65760
Isnäs,,7750
Iso-Äiniö,,17450
Iso-Evo,,16960
Iso-Oksala,,41460
Iso-Röyhiö,,39420
Iso-Vimma,,27820|27821
Isoharju,,69810
Isojoki,,64900|64901
Isokoski,,60640
Isokylä,,98400
Isokyrö,,61500|61501
Isorehto,,61430
Istunmäki,,44350|77980
Itä-Aure,,34550
Itä-Karttula,,72140
Itä-Soisalo,,79350
Itäkoski,,95370
Itäkylä,,62660
Itäsalmi,,1100|1101
Ivalo,,99800|99801
Ivo,,1019
Jäähdyspohja,,34850
Jääkärinkangas,,99790
Jaala,,47710
Jaalanka,,91740
Jääli,,90940|90941
Jaara,,38350
Jääskö,,97350
Jaatila,,97170
Jakari,,7320
Jakkukylä,,91210
Jakkula,,66450
Jakokoski,,81220
Jälä,,71860
Jalasjärvi,,60601|61600|61601
Jalasjoki,,31940
Jalasto,,61250
Jamali,,81810
Jämijärvi,,38800|38801
Jäminkipohja,,34450|34451
Jämsä,,42100|42101|42120|42999
Jämsänkoski,,42300|42301
Janakkala,,14240
Jäniksenlinna,,4390
Jännevirta,,70940|70941
Jäppilä,,77570
Jarhoinen,,95720
Järvelä,,16600|16601
Järvenpää,,4400|4401|4407|4410|4420|4430|4431|4440|4441
Järvimaa,,29280
Jaurakkajärvi,,93350
Javarus,,98330
Jean sibeliuksen syntymäkoti,,13103
Jeesiö,,99770
Jeesiöjärvi,,99230
Jeppo,,68850
Jepua,,66850
Jerisjärvi,,99380
Joenkylä,,85450
Joensuu,,80007|80100|80101|80110|80120|80130|80131|80140|80141|80150|80160|80161|80170|80200|80201|80210|80220|80230|80260|80261|81999
Jokela,,5400|5401
Joki-Vuolle,,68340
Jokihaara,,41210
Jokijärvi,,72510
Jokikunta,,3430
Jokikylä,,88440
Jokimaa,,14140
Jokiniemi,,12640
Jokioinen,,31600|31601
Jokipii,,61280
Jokirinne,,91410
Jokisalo,,66490
Jongunjoki,,81970
Jormua,,87970
Joroinen,,79600|79601
Jorvas,,2420|2421
Joukokylä,,89320
Joutenniva,,86660
Joutsa,,19650|19651
Joutseno,,54100|54101
Joutsijärvi,,98710
Juankoski,,73500|73501
Jukaja,,66470
Julkujärvi,,39160
Jumaliskylä,,89610
Jumesniemi,,39170
Jumisko,,97870
Jungsund,,65730
Juojärvi,,79870
Juoksenki,,95640
Juokslahti,,42140
Juonikylä,,61950
Juorkuna,,91630
Juornaankylä,,7680
Juotas,,97650
Jurmu,,93420
Jurva,,66300|66301
Jurvansalo,,44520
Juttila,,14870
Juujärvi,,97645
Juuka,,83900|83901
Juuka 7,,83907
Juuniemi,,97635
Juupajoki,,35540
Juurikka,,82580
Juurikkalahti,,88670
Juurikkamäki,,71260
Juurikorpi,,49340
Juva,,51900|51901
Jylänki,,71695
Jylhä,,62230
Jylhämä,,91710
Jylhänkylä,,72810
Jylli,,39540
Jyrävä,,93875
Jyri,,80410|80411
Jyrinki,,85340
Jyrkkä,,74380
Jyskä,,40420
Jyväskylä,,40003|40007|40100|40101|40109|40200|40250|40251|40320|40321|40340|40341|40350|40351|40400|40401|40450|40500|40520|40521|40530|40531|40600|40620|40621|40630|40631|40640|40660|40700|40701|40720|40740|41999
Kaakamo,,94430
Kaamanen,,99910
Kaarenkylä,,7220
Kaarina,,20780|20781
Käärmelahti,,71720
Kaarnalampi,,83340
Kaaro,,26410|26411
Kaartilankoski,,58720
Kaasmarkku,,29310
Kaatamo,,83330
Käävänkylä,,52890
Kaavi,,73600|73601
Käenkoski,,81460
Kähärilä,,54180
Kähtävä,,85210
Kaihlamäki,,51335
Kaikkonen,,89780
Kainasto,,61820
Kainuunkylä,,95610
Kainuunmäki,,74285
Kaipiainen,,46400
Kaipio,,39195
Kaipola,,42220
Kairala,,98560
Kaisajoki,,95330
Kaislastenlahti,,71520
Kaitainen,,79690
Kaitjärvi,,46550
Kaitsor,,66710
Kaiturinpää,,56410
Kaivanto,,36570
Kajaani,,87007|87100|87101|87140|87150|87200|87250|87300|87400|87401|87500|87600|87601|87700|87701|87750|88999
Kajoo,,83880
Kakkuri,,27840
Kalajoen hiekkasärkät,,85106
Kalajoki,,85100|85101
Kalakangas,,85880
Kalakoski,,61650
Kalaniemi,,44460
Kalanti,,23600|23601
Kalanti As,,23660
Kalax,,64210
Kaleton,,42540|42541
Kalhonkylä,,19630
Kalkkinen,,17240
Kalkkiranta,,1180
Kallaanvaara,,98440
Kalliala,,38670
Kalliojoki,,88950
Kalliokoski,,49750
Kalliokylä,,74770
Kalliola,,17110
Kalliosuo,,74345
Kallislahti,,58810
Kallo,,99120
Kallträsk,,64450
Kallunki,,98980
Kalmari,,43270
Kalmo,,52350
Kaloinen,,14330
Kälviä,,68300|68301
Kalvitsa,,51540
Kämmenniemi,,34240
Kanala,,69550
Kangasaho,,43490
Kangasala,,36200|36201|36241|36270
Kangasala 2,,36220|36221
Kangasala 4,,36240
Kangasala As,,36100
Kangashäkki,,41290
Kangaskylä,,85930
Kangaslahti,,73990
Kangaslampi,,79480
Kangasniemi,,51200|51201
Kangasto,,62370
Kangosjärvi,,99360
Kankaanpää,,38700|38701|38710|38711
Kankaanpää 7,,38707
Kankainen,,41410
Kankari,,91730
Kankkila,,7690
Kannonjärvi,,43340
Kannonkoski,,43300
Kannus,,69100|69101|69199|69999
Kannusjärvi,,49570
Kannuskoski,,46530
Kantala,,77380
Kanteenmaa,,31970
Kantele,,7565
Kantola,,61660
Kantomaanpää,,95660
Kantti,,39940
Kantvik,,2460
Kanunki,,25340
Karankamäki,,52720
Karesuvanto,,99470
Karhe,,39340
Karhi,,68220
Karhukangas,,86480
Karhula,,48600|48601|48710|48770|48771|48800|48810
Karhunkylä,,62160
Karhunmäki,,62195
Karhunpää,,75710
Karhunselkä,,27240
Karhuvaara,,89560
Karigasniemi,,99950|99951
Karijoki,,64350|64351
Karikannas,,64340
Karilanmaa,,19310
Karinainen,,21840
Karinkanta,,92330
Karjaa,,10300|10301|10320
Karjakumpu,,82270
Karjalaisenniemi,,97890
Karjalohja,,9120
Kärjenkoski,,64820
Kärjenniemi,,37860
Karkkila,,3600|3601|3607|3620|3621
Karkku,,38100
Kärklax,,66630
Kärkölä,,16610
Kärnä,,44610
Kärpänkylä,,93990
Karperö,,65630
Kärppälä,,38140
Kärrby,,6880|6881
Kärsämäki,,86710|86711
Karsanlahti,,73270
Karsikas,,86690
Karsimus,,98220
Karstu,,8480
Karstula,,43500|43501
Karttula,,72100|72101
Karuna,,21590
Karunki,,95530
Karvala,,62630
Karvasalmi,,71930
Kärväsjärvi,,44950
Karvat,,66720
Karvia,,39930|39931
Karviankylä,,39965
Karvila,,58160
Karvion Kanava,,79810
Karvonen,,69570
Karvoskylä,,85580
Kasala,,29930
Käsämä,,83430
Kasiniemi,,17740
Kaskinen,,64260|64261
Kaskisto,,31480
Kasnäs,,25930
Katajamäki,,42930
Katajaranta,,81120
Katerma,,88820
Katinala,,13800
Kätkänjoki,,63430
Kätkäsuvanto,,99320
Kätkytniemi,,86840
Kattelus,,63320
Kauhajärvi,,62295
Kauhajoki,,61800|61801
Kauhajoki As,,61850
Kauhajoki as,,61851
Kauhava,,62200|62201
Kauhava Kk,,62210
Kaukalampi,,4820
Kaukonen,,99110
Kaukoranta,,64960
Kaulinranta,,95635
Kauniainen,,2700|2701
Kaunislahti,,10380
Kaunispää,,99820
Kauppila,,64750
Kauppilanmäki,,74270
Kaurajärvi,,66680
Kaurila,,82670
Kausala,,47400|47401
Kaustinen,,69600|69601
Kautiainen,,62520
Kauttua,,27500|27501
Kauvatsa,,32920
Kauvatsa As,,32910
Käylä,,93850
Käyrämö,,97560
Kehro,,31750
Keihärinkoski,,44760
Keikyä,,32730
Keisala,,63830
Keitele,,72600|72601
Keitelepohja,,44740
Kekkonen,,34430
Kelankylä,,97785
Kellahti,,29580
Kello,,90820|90821
Kellokoski,,4500|4501
Kelloselkä,,98920
Kelontekemä,,99290
Kelujärvi,,99620
Kelvä,,81570
Kemi,,94007|94100|94101|94130|94200|94300|94600|94601|94700|94701|94720|94800|94830|94831|94900|95999
Kemijärvi,,98007|98100|98101|98120|98121|98310|98999
Kemilä,,93720
Keminmaa,,94400|94401
Keminmaa 2,,94450|94451
Kemiö,,25700|25701
Kempele,,90440|90441|90450|90451
Kerava,,4200|4201|4207|4220|4221|4230|4231|4250|4251|4260|4261
Kerimäki,,58200|58201
Kerisalo,,79660
Kerisalonsaari,,79650
Kerkkoo,,6530
Kerkonjoensuu,,77930
Kerma,,79910
Kersilö,,99660
Kesälahti,,59800|59801
Keski-Palokka,,40220
Keskijärvi,,82120
Keskukylä,,29870
Kesti,,66360
Kestilä,,92700|92701|92710
Kesusmaa,,59420
Kettula,,25430
Ketvelniemi,,42730
Keurusselkä,,42760
Keuruu,,42700|42701|42720|42721
Kianta,,89740
Kierinki,,97390
Kihlanki,,95950
Kihniö,,39820|39821
Kihniö As,,39880
Kiihtelysvaara,,82140
Kiikala,,25390|25391
Kiikka,,38300|38301
Kiikoinen,,38360
Kiila,,25760
Kiimajärvi,,38320
Kiiminki,,90900|90901
Kiiskilampi,,85470
Kiistala,,99250
Kiljava,,5250
Killanmaa,,29220
Killinkoski,,34980
Kilpisjärvi,,99490
Kilpua,,86350
Kilvakkala,,39530
Kiminki,,43520
Kimo,,66810
Kimola,,47650
Kimonkylä,,47350
Kinahmo,,83825
Kinkomaa,,40930|40931
Kinnas,,82855
Kinnasniemi,,82850
Kinni,,52870
Kinnula,,43900|43901
Kinnulanlahti,,71730
Kintaus,,41920
Kipinä,,93140
Kirjala,,21610
Kirjavala,,59410
Kirkkonummi,,2400|2401|2410|2411
Kirkniemi,,8800
Kisakallio,,8360
Kisko,,25470
Kitee,,82500|82501
Kiteenlahti,,82510
Kitinoja,,61470
Kitka,,93830
Kittilä,,99100|99101
Kitula,,63630
Kiukainen,,27400|27401
Kiuruvesi,,74700|74701|74899
Kivelä,,49470
Kivesjärvi,,88350
Kiviapaja,,58650
Kivihuhta,,62360
Kivijärvi,,43800|43801
Kivikangas,,69910
Kivikylä,,23170
Kivilahti,,81430
Kiviniemi,,90810
Kiviranta,,95410
Kivisaari,,60530
Kivisuo,,41730
Kivitaipale,,97670
Klamila,,49860
Klaukkala,,1800|1801|1820
Knaapila,,25540
Kodesjärvi,,64930
Kodiksami,,27250
Kodisjoki,,27310
Kohtavaara,,75970
Koijärvi,,30760|31130
Koikkala,,51880
Koirakivi,,52730
Koirakoski,,74490
Koisjärvi,,9630
Koitsanlahti,,59130
Koittankoski,,29960
Koitti,,19540
Koivisto,,85430
Koivu,,95355
Koivujoki,,72880
Koivukylä,,31570
Koivula,,51360
Koivulahti,,66530
Koivumäki,,79750
Kojola,,44890
Kojonkulma,,32250
Kojonperä,,32260
Kokemäki,,32800|32801
Kokinvaara,,82865
Kokkila,,14760
Kokkoaho,,82435
Kokkokylä,,93195
Kokkola,,67007|67100|67101|67200|67300|67400|67401|67410|67600|67601|67700|67701|67800|67801|67900|67901|68999
Kokonvaara,,83550
Kolari,,95900|95901
Kolho,,35990
Koli,,83960
Koljonvirta,,74160
Kolkanlahti,,43250
Kolkki,,42840
Kolkontaipale,,58920
Kolla,,26560
Kollaja,,93145
Kolma,,79630
Kolppi,,68800|68801
Kolvaa,,21970
Komi,,39360
Komossa,,66820
Komsi,,61620
Köngäs,,99140
Konginkangas,,44400|44401
Konnevesi,,44300
Konnunniemi,,82725
Konnunsuo,,54190
Konnuslahti,,79150
Kontio,,90910
Kontiolahti,,80770|81100|81101
Kontiomäki,,88470
Kontioniemi,,80780
Kontioranta,,80790|80791
Kontiovaara,,82450
Konttajärvi,,95760
Köörtilä,,29760
Koppeloharju,,74840
Kopravaara,,83955
Kopsa,,92260
Korholanmäki,,88110|88620
Koria,,45610|45611
Korkeakoski,,35500|35501
Korkeaoja,,32860
Kormu,,12520
Koro,,34740
Korpijärvi,,73250
Korpikoski,,50770
Korpikylä,,95540
Korpilahti,,41800|41801
Korpiranta,,85520
Korpoström,,21720
Korppinen,,44970
Korppoo,,21710|21711
Korsbäck,,66230
Korsnäs,,66200|66201
Kortejoki,,71130
Kortela,,26840
Kortesalmi,,51330
Kortesjärvi,,62420|62421
Kortjärvi,,68730
Kortteinen,,73620
Kortteiskylä,,73630
Korttia,,7540
Korvatunturi,,77777|99999
Koskenkorva,,61330|61331
Koskenkylän Saha,,7700|7701
Koskenpää,,42440
Koskenranta,,29360
Koskenvarsi,,62740
Koski As,,25560
Koski Tl,,31500|31501
Koskioinen,,31850
Koskislahti,,71580
Koskö,,65650
Koskue,,61720
Kosolankylä,,62380
Kostamo,,98450
Kostamus,,88925
Kostula,,39220
Kosula,,71280
Kotala,,42870
Kotalahti,,79140
Kotalankylä,,98930
Kotalato,,25170
Kotamäki,,77540
Kotikylä,,74540
Kotila,,89140
Kotimäki,,54820
Kotka,,48007|48100|48101|48130|48200|48201|48210|48220|48221|48230|48231|48251|48300|48310|48350|48351|48400|48401|48410|48750|48901|48910|48911|49999
Kotvala,,44790
Koura,,61160
Kourilehto,,95565
Kouvola,,45007|45100|45101|45120|45121|45130|45131|45140|45141|45150|45151|45160|45161|45200|45201|45251|46999
Kovelahti,,39610
Kovero,,82710
Kovesjoki,,39620
Kovjoki,,66930
Köyhäjoki,,69660
Köyhänperä,,85980
Köyliö,,27710|27711
Krääkkiö,,37380
Kråkö,,7410
Kristiinankaupunki,,64100|64101|64120|64999
Kronvik,,65430
Kruunupyy,,68500|68501
Kruusila,,25110
Kuggom,,7945
Kuha,,97750
Kuhmalahti,,36810
Kuhmo,,88899|88900|88901
Kuhmoinen,,17800|17801
Kuhnusta,,83980
Kuikka,,41140
Kuikkalampi,,82950
Kuismavaara,,81320
Kuitula,,52620
Kuivajärvi,,19530
Kuivakangas,,95630
Kuivalahti,,27170
Kuivaniemi,,95100|95101
Kuivaniemi Kk,,95110
Kuivanto,,16280
Kuivasalmi,,99240
Kuivasjärvi,,39750
Kuivaskylä,,63360
Kuivasmäki,,41980
Kujala,,66860
Kukasranta,,97380
Kukkila,,15270
Kukko,,43420
Kukkola,,95520
Kukonharja,,32650
Kukonkylä,,63880
Kulennoinen,,58430
Kulho,,80910
Kullaa,,29340
Kullanperä,,27210
Kulloby,,6831
Kulloo,,6820|6850
Kulloonkylä,,6830
Kulma,,61670
Kuloharju,,97960
Kulovesi,,37210
Kultakero,,98540
Kultela,,31430
Kuluntalahti,,87950
Kumila,,21820
Kumiseva,,85860
Kummunkylä,,59710
Kumpula,,72430
Kumpulainen,,43720
Kumpumäki,,44630
Kumpuranta,,58260
Kuni,,66580
Kuninkaankylä,,7980
Kunnasniemi,,80580
Kuohijoki,,14980
Kuohu,,41930
Kuokanvaara,,75960
Kuolimaa,,27260
Kuoliovaara,,93630
Kuomiokoski,,52780
Kuona,,85840
Kuopio,,70007|70009|70100|70101|70110|70111|70150|70151|70200|70201|70210|70211|70240|70260|70280|70300|70301|70340|70341|70400|70420|70421|70460|70461|70500|70501|70600|70601|70620|70621|70700|70701|70750|70780|70781|70800|70820|70821|71999|79400
Kuopio leirintä,,70408
Kuoppa,,62340
Kuoppa-Aho,,62510
Kuorevaara,,83720
Kuorevesi,,35630
Kuortane,,63100|63101
Kuortaneen Urheiluopisto,,63170
Kuortti,,19410
Kuosku,,98850
Kuosmala,,51780
Kurejoki,,62710
Kurenlahti,,79510
Kurenpolvi,,74590
Kurhila,,17430
Kurikka,,61300|61301
Kurjala,,79255
Kurjenkylä,,34770
Kurkela,,25450
Kurkimäki,,71480
Kurolanlahti,,71670
Kursu,,98600
Kurtakko,,95990
Kuru,,34300|34301
Kurvisenkylä,,93770
Kustavi,,23360
Kutajärvi,,16730
Kutala,,38120
Kutemajärvi,,51270
Kuttanen,,99460
Kuukanniemi,,54850
Kuukasjärvi,,97780
Kuumu,,88940
Kuurila,,14580
Kuusa,,41370
Kuusamo,,93600|93601|93607|93620|93999
Kuusamo leirintä,,93608
Kuusankoski,,45700|45701|45720|45721|45730|45740|45741
Kuusela,,72630
Kuusenmäki,,86920
Kuusisto,,21620
Kuusivaara,,98260
Kuusjärvi,,83630
Kuusjoki,,25330
Kuuslahti,,71840
Kuusvaara,,82255
Kuutsalo,,48180
Kuvansi,,78880
Kuvaskangas,,29940
Kvevlax,,66531
Kyläjoki,,95440
Kylämä,,17950
Kyläniemi,,56350
Kylänlahti,,81820
Kylänpää,,61450
Kylmäkoski,,37910|37911|39710
Kylmäkoski As,,37900
Kylmälä,,2540
Kylmälänkylä,,91560
Kymenlaakson lajittelukeskus,,45250
Kymentaka,,47610
Kymi,,48720
Kyminlinna,,48700|48701
Kymönkoski,,44640
Kynsilä,,97965
Kyrö,,21800|21801
Kyrönlahti,,34150
Kyrönlatva,,61960
Kyröskoski,,39200|39201
Kyrsyä,,58740
Kytökoski,,88250
Kytökylä,,86650
Kyyjärvi,,43700|43701
Kyynämöinen,,41240
Kyynärö,,36930
Laakajärvi,,74390
Laakkola,,92650
Laanila,,99835
Laasalanmäki,,63810
Lahela,,4330
Lahnajärvi,,25420
Lahnalahti,,79680
Lahnanen,,44680
Lahti,,15007|15100|15101|15110|15111|15140|15141|15150|15151|15170|15171|15200|15201|15210|15211|15230|15240|15241|15250|15251|15300|15320|15321|15340|15500|15501|15520|15610|15611|15650|15680|15700|15701|15780|15781|15800|15801|15810|15820|15830|15840|15850|15851|15900|15901|15950|15951|16999
Laihia,,66400|66401
Laihia As,,66410
Laikko,,56730
Laitala,,69310
Laitikkala,,36660
Laitila,,23800|23801
Lakaluoma,,62170
Lakaniemi,,62840
Lakiala,,34110|34111
Lakiasuo,,47240
Laksiainen,,54720
Lålby,,64170
Lammasaho,,71950
Lammi,,16900|16901
Lamminaho,,86820
Lamminmäki,,76780
Lamminperä,,95170
Lampikangas,,54110
Lampinsaari,,86440
Lamppi,,29720
Lampsijärvi,,95790
Långåminne,,66160
Längelmäki,,35400|35480
Langinkosken kalastusmaja,,48223
Lankojärvi,,95770
Lannevesi,,41270
Länsi-Aure,,34530
Länsi-Teisko,,34180
Länsikylä,,63530
Länsiranta,,63140
Lantula,,38230
Lapalie,,81580
Lapaluoto,,92180
Lapijoki,,27150
Lapinjärvi,,7800
Lapinkangas,,90740
Lapinkylä,,2520
Lapinlahti,,73100|73101
Lapinneva,,39660
Lappajärvi,,62600|62601
Lappea,,95910
Lappeenranta,,53007|53100|53101|53130|53200|53300|53301|53400|53420|53440|53500|53501|53600|53601|53650|53800|53810|53830|53850|53851|53900|53901|53920|53950|54999
Lappers,,2590
Lappfjärd,,64301
Lappi,,27230|27231
Lappila,,16670
Lappohja,,10820
Lapua,,62100|62101
Lapväärtti,,64300
Larsmo,,68570
Läsäkoski,,51430
Lasikangas,,92240
Laskunet,,40063
Lassila,,29680
Latovainio,,30630|31620
Latva,,32520
Lauhala,,38970
Laukaa,,41340|41341
Laukaa As,,41350
Laukka-Aho,,71170
Laukkala,,72740
Laukkavirta,,41325
Laukkoski,,7150
Launonen,,12540
Lautaporras,,31240
Lauteala,,51980
Lautiosaari,,94500
Lautjärvi,,29970
Lavajärvi,,39380
Lavia,,38600|38601
Läyliäinen,,12600
Lehmäjoki,,61520
Lehmikylä,,81660
Lehmo,,80710
Lehtimäki,,63500|63501
Lehtimäki Kk,,63510
Lehtiniemi,,97840
Lehtoi,,81235
Lehtola,,43240
Lehtovaara,,82960
Leineperi,,29320
Leinolanlahti,,71660
Leinovaara,,82470
Leivonmäki,,41770
Lemi,,54710|54711
Lemmenjoki,,99885
Lempäälä,,33880|37500|37501|37530|37550|37560
Lempyy,,77630
Lemu,,21230
Lentiira,,88930
Lentilä,,63230
Lepaa,,14610
Lepikkomäki,,79880
Lepistö,,31330
Lepistönmäki,,62530
Leppäjärvi,,99440
Leppäjoki,,71790
Leppäkaarre,,71850
Leppäkorpi,,9930
Leppäkoski,,12380
Leppälahti,,41450
Leppälänkylä,,63120
Leppämäki,,79290
Leppävesi,,41310
Leppävirta,,79100|79101|79899
Leppiaho,,95290
Leppiniemi,,91430
Lepplax,,68530
Lepsala,,19510
Lepsämä,,1830
Leskelä,,92640
Lestijärvi,,69440
Leteensuo,,14530
Letku,,30940|31380
Levä,,51310
Levänen,,54930
Levanpelto,,29330
Levanto,,4940
Leväsjoki,,29880
Levijoki,,62920
Liedakkala,,95310
Liedenpohja,,34930
Lieksa,,81700|81701|81707|81720|81730|81899
Lielahti Tl,,21630
Liesjärvi,,31350|42790
Lieso,,16940
Lieto,,21420|21421
Lieto As,,21360
Lievestuore,,41400|41401
Lieviskä,,58640
Lihavanpää,,19470
Liikasenvaara,,93855
Liikkala,,46750
Liikola,,19740
Liimattala,,44420
Liljendal,,7880|7881
Lillandet,,21650
Lillby,,68940
Liminka,,91900|91901
Liminpuro,,91750
Lindkoski,,7840
Linnankylä,,39810
Linnantaus,,87910
Linnavuori,,37240|37241
Liperi,,83100|83101
Lisma,,99890
Litmaniemi,,71360
Littilä,,82685
Littoinen,,20660|20661
Livo,,93220
Livonsaari,,21180
Lohijärvi,,95680
Lohikko,,38770
Lohikoski,,58630
Lohilahti,,58620
Lohiluoma,,61370
Lohiniva,,97420
Lohiranta,,97940
Lohja,,8007|8100|8101|8150|8151|8200|8201|8550|9999
Lohja As,,8500|8501
Lohtaja,,68230|68231
Loimaa,,32200|32201|32999
Loimaa Kk,,32210
Loimaa kk,,32211
Lokakylä,,43390
Lokalahti,,23450|23451
Lokka,,99645
Loma-Koli,,83965
Lompolo,,99160
Loppi,,12700|12701
Losomäki,,73730
Lotlax,,66620
Loue,,95340
Louhi,,58220
Louhioja,,81210
Louko,,61120
Loukusa,,93440
Loviisa,,7899|7900|7901|7920|7940
Löyä,,63450
Löytänä,,44730
Löytty,,47110
Luhalahti,,39410
Luhanka,,19950
Luhtajoki,,1810
Luhtapohja,,81330
Luhtikylä,,16510
Luikonlahti,,73670
Luiro,,98580
Lukana,,14370
Lukkarila,,71960
Lumijoki,,91980|91981
Lumimetsä,,86470
Lunkkaus,,98810
Luode,,34510
Luohua,,92450
Luola-Aapa,,95140
Luoma,,2440
Luoma-Aho,,62830
Luomajoki,,86770
Luomankylä,,61810
Luopa,,61230
Luopajärvi,,61270
Luopioinen,,36760|36761
Luostanlinna,,75690
Luostarinen,,59910
Luosto,,99555
Luoto,,68571
Lusi,,19210
Luumäki,,54530
Luusniemi,,51460
Luusua,,98230
Luutalahti,,82870
Luvia,,29100|29101
Lyly,,35530|35531
Lylykylä,,89350
Lyöttilä,,45540|47540
Maakeski,,17470
Maaninka,,71750
Maaninkavaara,,98780
Maanselkä,,88690
Maantiekylä,,1560
Maarianvaara,,83540
Määttälä,,69330
Määttälänvaara,,93920
Maavesi,,77460
Mahlu,,43220
Mahnala,,39120
Maisala,,1590
Maivala,,51810
Majavesi,,52110
Mäkelä,,15460
Mäki-Paavola,,62185
Makkola,,58150
Maksamaa,,66641
Maksniemi,,95230
Malax,,66100|66101
Maliskylä,,85640
Malkkila,,79780
Mallusjoki,,16450
Malmgård,,7720
Manamansalo,,88340
Mankala,,47490
Mankila,,92530
Mannervaara,,82880
Mannila,,27670
Mansikkamäki,,19420
Manskivi,,16790
Mantila,,61680
Mäntlahti,,49840
Mäntsälä,,4600|4601
Mänttä,,35800|35801|35807|35820|35821|35830
Mäntyharju,,52700|52701
Mäntyharju Kk,,52710
Mäntylä,,72570
Mäntylahti,,73110
Mäntymäki,,44370
Marinkainen,,68210
Marjakylä,,19380
Marjotaipale,,52660
Marjovaara,,82815
Marjusaari,,69540
Mark,,25810
Markkula,,85320
Marrasjärvi,,97320
Marraskoski,,97290
Marskinmaja,,12706
Martinkylä,,4150
Martinniemi,,90850
Martonvaara,,83855
Martti,,98830
Marttila,,21490
Marttisenjärvi,,74240
Märynummi,,25250
Masala,,2430|2431
Masku,,21250|21251
Mätäsvaara,,81850
Mathildedal,,25660
Matkaniva,,86510
Matku,,31110
Mattilanperä,,92230
Mattnäs,,21670
Maukkula,,82820
Maula,,95365
Maxmo,,66640
Mäyry,,63130
Meijerhovi,,76720
Melalahti,,88310
Melkoniemi,,59210
Mellakoski,,95690
Mellilä,,32300|32301
Meltaus,,97340
Meltolan Sairaala,,10350
Meltosjärvi,,95675
Menesjärvi,,99880
Menkijärvi,,62760
Menonen,,31140
Merijärvi,,86220
Merikaarto,,66510
Merikarvia,,29900|29901
Merilä,,75850
Merimasku,,21160
Merstola,,29210
Mertie,,16540
Messilä,,15980
Metsä,,2020|85120
Metsäkansa,,37850
Metsäkorpi,,32280
Metsäkylä,,49540
Metsälä,,64440
Metsämaa,,32270
Mickelspiltom,,7890
Miehikkälä,,49700|49701
Mieluskylä,,86550
Mieskonmäki,,19670
Mieslahti,,88380
Mieto,,61360
Mietoinen,,23120
Miettilä,,56710
Miiluranta,,86760
Mikkeli,,50007|50100|50101|50120|50130|50131|50150|50151|50160|50170|50171|50180|50190|50500|50501|50520|50600|51999
Mikkolanniemi,,59530
Millola,,9520
Minkiö,,31630
Misi,,97580
Mjösund,,25730
Möhkö,,82980
Moisio,,37551
Moisiovaara,,89540
Moksi,,41840
Möksy,,62990
Molpe,,66210
Mommila,,12130
Monå,,66980
Moninmäki,,79230
Mönkö,,85540
Monnanummi,,26720
Mönni,,81230
Monninkylä,,7230|7231
Montola,,77350
Morottaja,,98740
Moskuvaara,,99665
Mossala,,21770
Möttönen,,69980
Mouhijärvi,,38460
Mourujärvi,,97895
Möykky,,64850
Muhniemi,,46960
Muhola,,43940
Muhos,,91500|91501
Muijala,,8680|8681
Mujejärvi,,75940
Multia,,42600|42601
Munakka,,60450
Munsala,,66950
Munteenkylä,,54620
Muonio,,99300|99301
Murakka,,19610
Murole,,34410
Muroleen Kanava,,34420
Murto,,31660
Murtovaara,,93760
Mustajärvi,,34640
Mustalahti,,35850
Mustamaa,,62280
Mustasaari,,65610|65611
Mustiala,,31310
Mustinlahti,,71380
Mustio,,10360
Mustosenvaara,,93695
Mutala,,34140
Mutalahti,,82997
Mutkanvaara,,83820
Muurame,,40950|40951
Muurame 7,,40957
Muurasjärvi,,44880
Muurikkala,,49730
Muurla,,25130
Muurola,,97140
Muuruvesi,,73460
Myhinpää,,77770
Myllykangas,,95120
Myllykarttu,,39550
Myllymäki,,63900
Myllyniemi,,74680
Myllyoja,,18600
Myllysalo,,61220
Mynämäki,,23100|23101
Mynämäki As,,23110
Mynttilä,,52760
Myrkky,,64370
Myrskylä,,7600|7601
Näädänmaa,,79330
Naamijoki,,95710
Naantali,,21100|21101|21110|21111
Naarajärvi,,76850|76851
Näärinki,,51830
Naarva,,81470
Näätämö,,99940|99941
Nahkela,,4350
Nahkiala,,37820
Nakertaja,,87830
Nakkila,,29250|29251
Näljänkä,,89670
Nampa,,97520
Nämpnäs,,64510
Napapiiri Rovaniemi,,96930
Närhilä,,72360
Narila,,51860
Narkaus,,97675
Närpes,,64200|64201
Närpes St,,64230
Närsäkkälä,,82590
Naruska,,98960
Narva,,37370
Närvijoki,,66370
Naskarla,,21520
Nastola,,15560|15561
Nastola 2,,15550|15551
Nastola Kk,,15570
Nåtö,,21780
Nauvo,,21660|21661
Näverrys,,95280
Nederlappfors,,68840
Nehvonniemi,,82995
Neittävä,,91780
Nellim,,99860
Nenonen,,34620
Nenonpelto,,76940
Nerkoo,,73120
Nerohvirta,,74530
Neuvola,,77220
Neuvoton,,49490
Nevaintausta,,51840
Niemenharju,,44820
Niemenkylä,,66320
Nieminen,,82290
Niemisjärvi,,41490|42490
Niemiskylä,,74720
Niinijoki,,32410
Niinikoski,,16350
Niinilahti,,44480
Niinimaa,,63210
Niinimäki,,79410
Niinisalo,,38840|38841
Niinivaara,,73645
Niinivesi,,72310
Niirala,,82675
Niittylahti,,82220
Nikkaroinen,,19320
Nikkilän Sairaala,,4110
Nikula,,69610
Nilsiä,,73300|73301
Niska-Pietilä,,56550
Niskamäki,,77210
Nisola,,54715
Nissilä,,74250
Niukkala,,59720
Nivala,,85500|85501
Nivelax,,25840
Nohkua,,38110
Nokia,,37007|37100|37101|37120|37121|37130|37140|37141|37150
Nokia 10/PSP,,37105
Nokka,,19560
Nokkala,,54480
Nolimo,,97880
Noormarkku,,29600|29601
Nopankylä,,61340
Norinkylä,,61840
Norola,,50350
Norra Vallgrund,,65920
Norrnäs,,64530
Norrskata,,21750
Nötö,,21680
Nousiainen,,21270|21271
Nousu,,98860
Nuijamaa,,54230
Nukari,,5450|5451
Nummela,,3007|3100|3101
Nummenkylä,,4460
Nummi,,9810
Nummijärvi,,61910
Nummikoski,,61920
Numminen,,4660
Nunnanen,,99430
Nunnanlahti,,83940
Nuojua,,91790
Nuoramoinen,,19370
Nuorgam,,99990
Nuppulinna,,5430
Nurmaa,,52960
Nurmela,,54450
Nurmes,,75500|75501|75520
Nurmes 3,,75530|75531
Nurmes 7,,75507
Nurmijärvi,,1900|1901
Nurmo,,60550|60551
Nuutajärvi,,31160
Nuutilanmäki,,51760
Nuvvus,,99970
Nyby,,66250
Nykälä,,51670
Nyrölä,,41945
Nyystölä,,17510
Ohkola,,4530
Ohriluoma,,64330
Ohtola,,34950
Oijärvi,,95160
Oikarainen,,97610
Oikari,,43740
Oinaankylä,,98470
Oitmäki,,2510
Oitti,,12100|12101
Oittila,,19980|41880
Öja,,68550|68551
Ojakkala,,3250
Ojankorva,,19350
Okkeri,,16160
Oksakoski,,69920
Oksava,,85820
Olavinlinna,,57150
Olhava,,91140
Olkiluoto,,27160
Ollikkala,,52770
Ollila,,21560|31560
Öllölä,,82750
Onkamaa,,49780
Onkamo,,82360|82361
Onkamojärvi,,98970
Onkemäki,,37450
Onkilahti,,73140
Onkimaa,,7530
Onkiniemi,,19230
Onnivaara,,73655
Ontojoki,,88640
Onttola,,80510|80511
Opas,,61240
Orajärvi,,95750
Orakylä,,99560
Oravainen,,66800|66831
Oravais,,66801
Oravaisten Tehdas,,66830
Oravala,,45940
Oravasaari,,41630
Oravi,,58130
Oravikoski,,71470
Oravisalo,,82310
Orimattila,,16300|16301
Oriniemi,,31810
Oripää,,32500|32501
Orisberg,,61560
Orismala,,61550
Orisuo,,31960
Orivesi,,35300|35301
Orivesi As,,35100
Osara,,39230
Oskola,,82160
Oskolankoski,,82165
Österby,,7380
Österhankmo,,66560
Otajoki,,27920
Otalampi,,3300
Otamo,,29860
Otanmäki,,88200|88201
Otava,,50670
Oterma,,91720
Oulainen,,86300|86301|86999
Oulaskangas,,86310
Oulu,,90003|90007|90009|90100|90101|90120|90121|90140|90141|90150|90151|90160|90210|90220|90221|90230|90231|90240|90241|90250|90251|90310|90360|90400|90401|90420|90500|90501|90520|90521|90530|90540|90550|90551|90560|90570|90571|90580|90581|90600|90630|90631|90650|90651|90800|91999
Oulu leirintä,,90508
Oulun kaupunki,,90015
Oulun yliopisto,,90014
Oulunsalo,,90460|90461
Outakoski,,99960
Outokumpu,,83500|83501|83520
Övermalax,,66140|66141
Övermark,,64610|64611
Överpurmo,,68970
Oxkangar,,66730
Oys,,90029
Pääjärvi,,43480
Paakki,,88530
Paakkila,,71240
Paakkola,,95325
Paalasmaa,,83910
Paalijärvi,,62950
Paappala,,51350
Paaso,,19260
Paatela,,51930
Paattinen,,21330
Paavola,,92430
Padasjoki,,17500|17501
Pahajoki,,63330
Pahkakoski,,91260
Pahkakumpu,,98620
Paihola,,80850
Päijälä,,17930
Paijärvi,,49640
Paimela,,17120
Paimio,,21530|21531
Paippinen,,4170
Päiviälä,,58840
Päivinen,,58440
Päivölä,,10140
Pajakkakylä,,88910
Pajujärvi,,71920
Pajukoski,,75740
Pajulahti,,73360
Pajulankylä,,51450
Pakaa,,16390
Pakankylä,,64430
Pakarila,,77960
Palikkala,,32110
Paljakka,,75570
Pälkäne,,36600|36601
Pallastunturi,,99330
Palo,,82150
Paloharju,,74790
Paloinen,,74470
Palojoensuu,,99450
Palojoki,,1940
Palokangas,,51960
Palokka,,40270|40271
Palokki,,79830
Palonurmi,,73810
Paloperä,,98790
Paloselkä,,97460
Paltamo,,88300|88301
Paltanen,,77110
Paltaniemi,,87850
Palus,,29350
Panelia,,27430
Panelia As,,27420
Panka,,72480
Pankajärvi,,81950
Pankakoski,,81750
Pankalahti,,52970
Pännäinen,,68910|68911
Päntäne,,61980
Panttila,,61310
Papinsalmi,,13930
Pappinen,,19920
Parainen,,21600|21601
Parantala,,44190
Parhalahti,,86110
Parikkala,,59100|59101|59999
Pärjänsuo,,93225
Parkano,,39700|39701
Parkkila,,85710
Parkkuu,,34320
Parkumäki,,58830
Pärnämäki,,52650
Parola,,13720|13721
Parolan panssarimuseo,,13706
Parolannummi,,13700|13701
Partaharju,,76280
Partakko,,99920
Partakoski,,54880
Partalankoski,,42280
Pasala,,44720
Pasmajärvi,,95860
Pasto,,61140
Patana,,69850
Patokoski,,97310
Patoniemi,,93840
Patsola,,82650
Pattijoki,,92140
Paukarlahti,,71460
Paukkaja,,81270
Pederså,,25780
Peipohja,,32810
Pekanpää,,95615
Pekkala,,97630
Pekola,,13900
Pekurila,,51770
Pelkosenniemi,,98500
Pellinki,,7370
Pello,,95700|95701|95793
Pellosniemi,,52420
Pelsonsuo,,92810
Peltola,,64760
Peltosalmi,,74510
Peltotupa,,62430
Peltovuoma,,99420
Peninki,,44920
Pennala,,16320
Pensala,,66840
Pentinmäki,,61710
Pentti,,54640
Penttilänvaara,,93640
Perä-Posio,,97820
Perälä,,64720
Peranka,,89770
Peränkylä,,29180
Peränne,,63770
Peräseinäjoki,,61100|61101
Peräsilta,,34120
Perheniemi,,47450
Perho,,69950|69951
Perkiömäki,,62440
Pernaa,,62220
Pernaja,,7930
Perniö,,25500|25501
Perniö As,,25520
Pernu,,97815
Perttaus,,97360
Pertteli,,25360
Perttula,,1860
Pertunmaa,,19430
Perus,,64310
Peruspohja,,59220
Pesiökylä,,89640
Pessalompolo,,95670
Petäiskylä,,75930
Petäjäinen,,97160
Petäjäjärvi,,97770
Petäjäkylä,,72980
Petäjäskoski,,86210
Petäjävesi,,41900|41901
Petalax,,66240|66241
Petkula,,99670
Petrovaara,,83875
Petsmo,,66540
Petterinmäki,,62395
Pettilä,,54950
Peura,,95350
Piehinki,,92220
Pieksämäki,,76007|76100|76101|76120|76130|76131|76140|76150|76151|77999
Pieksänkoski,,73410
Pielavesi,,72400|72401
Pienola,,72350
Pietarsaari,,68600|68601|68607|68620|68630|68660
Pietilä,,17220
Pihlaisto,,35610
Pihlajakoski,,17850
Pihlajalahti,,58770
Pihlajavesi,,42910
Pihtipudas,,44800|44801
Piikkiö,,21500|21501
Piippola,,92620
Piispajärvi,,89760
Piispanristi,,20760|20761
Piittisjärvi,,97660
Pikkala,,2490
Pikonlinna,,36280
Pilkanmaa,,45810
Pilpala,,12750
Pinjainen,,10330
Pinsiö,,39150
Pintamo,,93290
Piojärvi,,58680
Pirkkala,,33920|33940|33950|33960|33961|33970|33980
Pirkkiö,,95470
Pirttiaho,,82840
Pirttikangas,,35520
Pirttikoski,,86160
Pirttinen,,62435
Pisa,,97190
Pisankoski,,73750
Pitämä,,89620
Pitkäaho,,51620
Pitkäjärvi,,31520
Pitkäkumpu,,99210
Pitkäniemi,,33380
Pjelax,,64250
Pohela,,19620
Pohja,,36840
Pohja-Lankila,,56440
Pohjalahti,,36480
Pohjankuru,,10420|10421
Pohjansaha,,29750
Pohjaslahti,,42850
Pohjasperä,,97665
Pohjavaara,,88490
Pohjoinen,,14810
Pohjoisjärvi,,42560
Poikelus,,34330
Poikiinaho,,79970
Poikko,,21130
Poitsila,,49410|49411
Pojanluoma,,60760
Pokela,,62850
Pokka,,99195
Pöljä,,71820
Polvela,,83870
Polvenkylä,,61380
Polvi,,64920
Polvijärvi,,83700|83701
Pomarkku,,29630|29631
Pori,,28003|28007|28100|28101|28120|28130|28131|28190|28191|28200|28201|28220|28221|28230|28240|28280|28300|28330|28331|28360|28361|28370|28371|28430|28431|28500|28501|28540|28560|28580|28600|28601|28610|28611|28640|28660|28760|28800|28801|28840|28880|28881|28900|29999
Porlammi,,7820
Pornainen,,7170|7171
Porras,,31340
Pörsänmäki,,74550
Pörtom,,66270|66271
Porttila,,72950
Porvoo,,6100|6101|6150|6151|6200|6400|6401|6450|6451|6500|7999
Posio,,97900|97901
Poussu,,93730
Pöytyä,,21880
Preitilä,,21540
Prunkila,,21480
Pudasjärvi,,93100|93101|93117|93899
Puhos,,82430
Puhoskylä,,93390
Puhossalo,,82440
Pukaro,,7830
Pukkila,,7560
Pulju,,99170
Pulkkila,,92600|92601
Pulkkinen,,69830
Pulkonkoski,,71680
Pulp,,54120
Pulsa,,54390
Punkaharju,,58450|58500|58501
Punkalaidun,,31900|31901
Punkuharju,,58451
Punnonmäki,,71590
Puntala,,56510
Puokiovaara,,89210
Puolanka,,89200|89201
Puponmäki,,79265
Purmo,,68930
Purmojärvi,,62470
Purnujärvi,,56640
Purnuvaara,,93650
Purola,,49240
Puromäki,,83140
Purontaka,,69340
Purujärvi,,59820
Pusula,,3850
Putaja,,38540
Putikko,,58550
Putkijärvi,,19850
Putkilahti,,19970|41870
Putkimäki,,97667
Puukari,,75770
Puukkoinen,,17970
Puumala,,52200|52201
Puuppola,,41120
Puutikkala,,14960
Pyhäjärvi,,86810
Pyhäjoki,,86100|86101
Pyhäkumpu,,86900
Pyhältö,,49660
Pyhämaa,,23930
Pyhänkoski,,86240
Pyhäntä,,92930|92931
Pyhäranta,,23950
Pyhäsalmi,,86800|86801
Pyhätunturi,,98530
Pyhitty,,76620
Pyhtää,,49270
Pykälikkö,,73860
Pylkönmäki,,43440
Pyöli,,31530
Raahe,,92007|92100|92101|92120|92130|92150
Raahensalo,,92170
Raajärvi,,97590
Rääkkylä,,82300|82301
Raala,,5310
Raanujärvi,,97250
Raatala,,25320
Raattama,,99340
Raatti,,73820
Radiolinja,,2050
Rahikkala,,47210
Rahja,,85180
Rahkio,,21830
Rahkonen,,68390
Rahula,,51720
Räihä,,44440
Raikku,,36520
Raikuu,,58320
Räinä,,91270
Raippaluoto,,65800|65801
Raippo,,54340
Räisälänmäki,,85940
Raisio,,20260|21003|21120|21200|21201|21207|21210|21211|21220|21260|21280
Raiskio,,97715
Raitoo,,31120
Raja-Aho,,35860
Rajala,,72650
Rajamäki,,5200|5201
Rajavaara,,59620
Rämsöö,,37350
Rangsby,,64550
Rannila,,41860
Rantakylä,,43540
Rantala,,63250
Rantasalmi,,58900|58901
Rantasalmi As,,58910
Rantatöysä,,63410
Rantsila,,92500|92501
Ranua,,97700|97701
Rapakkojoki,,74670
Rapattila,,54250
Räsälä,,71330
Rasilampi,,73610
Rasivaara,,82335
Rattosjärvi,,97330
Ratula,,47260
Raudanjoki,,99510
Rauha,,55300|55320
Rauhala,,99135
Raulio,,23910
Rauma,,26003|26007|26100|26101|26130|26131|26200|26201|26510|26511|26660|26661|26820|27003|27999
Raussila,,47150
Rautajärvi,,36910
Rautalampi,,77700|77701
Rautavaara,,73900|73901
Rautila,,23260
Rautio,,85160
Rautionsaari,,97110
Rautjärvi,,56610
Rautusjärvi,,99180
Ravattula,,20640
Ravijoki,,49980
Ravioskorpi,,19340
Räyrinki,,69820
Räyskälä,,12820
Reijola,,80330
Reila,,27340
Reisjärvi,,85900|85901
Reitkalli,,49520
Rekijoki,,25380
Rekipelto,,66690
Reku,,25770
Remeskylä,,74940
Renko,,14300|14301
Repola,,82250
Revonkylä,,81390
Revonlahti,,92350
Riihiaho,,81130
Riihikallio,,4321
Riihikangas,,81150
Riihikoski,,21870|21871
Riihimäki,,11007|11100|11101|11110|11111|11120|11130|11131|11310|11311|11710|11711|11910|12999
Riihioja,,16380
Riihivalkama,,30920
Riiho,,42820
Riipi,,99720
Riispyy,,29920
Riistavesi,,71160|71161
Riitasalo,,73970
Riitiala,,39580
Rimal,,65470
Rimmi,,67500
Rimmilä,,14450
Rintakangas,,62150
Rintala,,62410
Rinteelä,,83250
Ristakallio,,35240
Riste,,32830
Risteys,,9140
Risti,,83320
Ristiina,,52300|52301
Ristijärvi,,88400|88401
Ristilä,,97850
Ristimäki,,41540
Ristinpohja,,83350
Risulahti,,51890
Ritola,,63640
Ritvala,,37720
Riuttala,,38610
Riuttasenpää,,71630
Roikola,,69210
Roismala,,38250
Rökiö,,66610
Rokua,,91670
Romakkaniemi,,97270
Romppala,,81160
Romsila,,24540|25180
Ronkeli,,75920
Rönkönvaara,,58390
Ronni,,16980
Rönni,,93690
Röölä,,21150
Rosala,,25950
Roukalahti,,83150
Rousamo,,97745
Routio,,8350
Rova,,91510
Rovaniemi,,96007|96100|96101|96190|96200|96201|96300|96301|96320|96400|96420|96440|96441|96460|96500|96580|96600|96700|96800|96910|96911|96960|96961|97999
Rovastinaho,,95295
Röyhiö,,39430
Röykän Sairaala,,5130|5131
Röykkä,,5100
Röyttä,,95490
Rudanmaa,,29670
Ruha,,62190
Ruhala,,34610
Ruhtinansalmi,,89920
Ruhvana,,58570
Rukatunturi,,93825
Rummukkala,,79770
Rumo,,75790
Runni,,74595
Ruohola,,95180
Ruokojärvi,,95850
Ruokolahti,,56100|56101
Ruokotaipale,,52240
Ruolahti,,17870
Ruona,,63150
Ruorasmäki,,19460
Ruotila,,46730
Ruotsalo,,68320
Ruotsinkylä,,7990
Ruotsinpyhtää,,7970
Ruovesi,,34600|34601
Ruskila,,71270
Rusko,,21290|21291
Rusutjärvi,,4370
Rutalahti,,41710
Rutava,,32620
Ruto,,66420
Ruuhijärvi,,15580
Ruuhimäki,,41440
Ruuhivaara,,97335
Ruukki,,92400|92401
Ruunamäki,,82530
Ruuponsaari,,44550
Ruuskankylä,,85660
Ruusupuro,,61510
Ruutana,,36110|36111
Ruuvaoja,,98840
Ruvanaho,,93860
Ruvaslahti,,83835
Ryhälä,,52270
Rymättylä,,21140
Ryönänjoki,,74620
Ryti-Lehtola,,98420
Rytinki,,93240
Ryttylä,,12310
Saakoski,,41820
Sääksjärvi,,33881
Sääkskylä,,4630
Sääksmäki,,37700
Sääksvesi,,62880
Saamaiskylä,,79160
Saaramaa,,46570
Saarela,,72840
Saarenkylä,,96900
Saarenmaa,,27440
Saarensalmi,,43960
Saarentaus,,4920
Saaresmäki,,88260
Saari,,59510|59511|59520
Saari-Kämä,,97680
Saariharju,,97760
Saarijärvi,,43100|43101
Saarikoski,,92440
Saarilahti,,41470
Saarilampi,,82780
Saarinen,,72490
Saarineva,,29890
Saaripudas,,95920
Saariselkä,,99830|99831
Saarivaara,,83840
Sääskilahti,,97755
Sääskiniemi,,61170
Sadonmaa,,31950
Sahakylä,,4770
Sahalahti,,36420|36430
Sahi,,62860
Sahrajärvi,,42660
Saija,,98950
Säikkä,,97950
Saimaanharju,,54915
Saimaanranta,,54980
Säimen,,58360
Sairaalamäki,,45750
Sairakkala,,16740
Sairiala,,14840
Sajaniemi,,12630
Sakara,,89440
Säkinmäki,,41560
Säkylä,,27800|27801
Salahmi,,74230
Salajärvi,,19520
Salamajärvi,,69970
Sälinkää,,4740
Salla,,98900|98901
Salmentaka,,36450
Salmi,,63160
Salmijärvi,,87930
Salmivaara,,98660
Salo,,24003|24007|24100|24101|24130|24240|24241|24260|24261|24280|25003|25999
Salo 10/Yritysposti,,24105
Salo-Miehikkälä,,49770
Saloinen,,92160
Salokunta,,35550
Salokylä,,83130
Salonkulma,,71610
Salonkylä,,69620
Salosaari,,56120
Salpakangas,,5870
Sammakkovaara,,83845
Sammale,,98280
Sammaljoki,,38270
Sammalvaara,,95810
Sammatti,,9220
Sammi,,29830
Sampo,,20075
Sampu,,32710
Sanginkylä,,91620
Sannäs,,7310
Santtio,,23960
Sappee,,14930
Sapsalampi,,63340
Sara,,39980
Säräisniemi,,91760
Sarajärvi,,93250
Saramo,,75890
Sarja,,85620
Sarjanahde,,85630
Särkiharju,,41680
Särkijärvi,,91640
Särkilä,,62570
Särkilampi,,19730
Särkimo,,66760
Särkisalmi,,59310
Särkisalo,,25630
Sarkola,,37180
Sarvela,,39960
Sarvijoki,,66340
Sarvikumpu,,79895
Sarvinki,,81360
Sasi,,39130
Sassali,,99750
Satalinna,,29230
Sattanen,,99650
Sattasvaara,,99655
Saukkoaapa,,98520
Saukkola,,9430
Saukonkylä,,62750
Saunavaara,,98510
Sauvamäki,,41580
Sauvo,,21570|21571
Savero,,45460
Säviä,,72550
Säviäntaipale,,72530
Savijoki,,31170
Savikylä,,75650
Savilahti,,56130
Saviselkä,,86750
Savitaipale,,54800|54801
Savonjoki,,62810
Savonkylä,,62640
Savonlinna,,57007|57100|57101|57120|57130|57131|57170|57200|57201|57210|57220|57230|57231|57310|57510|57600|57710|57810|58999
Savonranta,,58300
Savukoski,,98800
Savuniemi,,77480
Säynätsalo,,40900
Säyneinen,,73770
Säynetkoski,,79720
Seikanlampi,,58240
Seinäjärvi,,63355
Seinäjoki,,60007|60100|60101|60110|60120|60150|60200|60201|60220|60280|60320|60420|61999
Seipäjärvi,,99520
Selänpää,,47810
Selki,,3320
Sevettijärvi,,99930
Sidbäck,,66275
Sieppijärvi,,95800
Sievi,,85410|85411
Sievi As,,85310
Sievi as.,,83510
Siika-Kämä,,97685
Siikainen,,29810|29811
Siikajärvi,,73830
Siikajoki,,92320
Siikamäki,,77430
Siikaranta,,89605
Siilinjärvi,,70801|71800|71801|71807
Siipyy,,64490
Siitama,,36160
Siivikkala,,33450
Siivikko,,93340
Sikovaara,,81640
Sikuri,,39520
Sillanpää,,69750
Siltakylä,,49220
Siltasuo,,19810
Silvola,,58420
Simanala,,58170
Simo,,95200|95201
Simola,,54330
Simoniemi,,95220
Simpele,,56800|56801
Simpele As,,56810
Simuna,,39110
Simunankoski,,41480
Sinettä,,97220
Singsby,,65710
Sipola,,92520
Sipoo,,4130|4131
Sipoo-Box,,1190
Sippola,,46710
Sirkka,,99130|99131
Sirkkakoski,,95780
Sirkkamäki,,44320
Sirniö,,97970
Sisättö,,39450
Sissala,,62720
Siuntio,,2581
Siuntio as,,2580
Siuntio kk,,2570
Siuro,,37200
Siurunmaa,,99610
Sivakka,,75860
Sivakkavaara,,73640
Sivatti,,49610
Skaftung,,64480
Skinnarby,,7870
Skogby,,10680
Småbönders,,68750
Snappertuna,,10710
Sodankylä,,99600|99601|99607
Söderkulla,,1150|1151
Söderudden,,65970
Södra Vallgrund,,65930
Soidinmäki,,43410
Soikko,,95250
Soini,,63800|63801
Soinlahti,,74170
Sokala,,12950
Soklot,,66910
Sola,,83760
Solkei,,54940
Someenjärvi,,52360
Somerharju,,54580
Somerkylä,,85240
Somerniemi,,31470
Somero,,31400|31401
Sompala,,43840
Sonka,,97240
Sonkaja,,82915
Sonkajärvi,,74300|74301
Sonkakoski,,74360
Söörmarkku,,29570
Sorsakoski,,79130
Sotkajärvi,,93270
Sotkamo,,88600|88601|88607
Sotkia,,37960
Sotkuma,,83750
Soukainen,,23840
Sourunsalo,,74560
Stormi,,38220
Strömma,,25650
Suhmura,,82210
Suinula,,36120
Sukeva,,74340|74341
Sulaoja,,97690
Sulasalmi,,77760
Sulkava,,58700|58701
Sulkavanjärvi,,74640
Sulkavankylä,,63350
Sulva,,65450|65451
Sumiainen,,44280
Summa,,49480
Summassaari,,43140
Sundby,,68690
Sundom,,65410
Sunila,,48900
Suninsalmi,,63550
Suo-Anttila,,54550
Suodenniemi,,38510|38511
Suojapuro,,83710
Suolahti,,44200|44201|44220
Suolijärvi,,89330
Suomenniemi,,52830
Suomijärvi,,39920
Suomulahti,,98720
Suomusjärvi,,25410
Suomussalmi,,89600|89999
Suomussalmi kk,,89800
Suonenjoki,,77600|77601|77899
Suonnankylä,,97920
Suonperä,,68310
Suontaka,,23880
Suontee,,77690
Suopelto,,19710
Suorsa,,97810
Suovanlahti,,44670
Susikas,,31230
Suttila,,32760
Suur-Miehikkälä,,49760
Suur-Saimaa,,54990
Suuraho,,79860
Suurikylä,,59810
Suurila,,21470
Suurimaa,,38860
Suurlahti,,52370
Suurpellinki,,7390
Suvanto,,98550
Svarvar,,66260
Sydänmaa,,61150
Sykäräinen,,69410
Synsiö,,51380
Syöte,,93280
Syri,,69420
Syrjäkoski,,19250
Sysmä,,19700|19701
Syväjärvi,,99740
Syvänniemi,,71570
Syvärinpää,,73230
Syväsmäki,,52520
Syyspohja,,56310
Taalintehdas,,25900|25901
Taapajärvi,,97430
Taatila,,21555
Taavetti,,54500|54501
Tahkomäki,,51260
Tahkovuori,,73310
Tähtelä,,10120
Tainionjoki,,95260
Tainus,,66350
Taipale,,73130
Taipalsaari,,54920|54921
Taipalus,,63370
Taivalkoski,,93400|93401
Taivalmaa,,61290
Taivassalo,,23310|23311
Takalo,,89660
Takkala,,43680
Takkusalmi,,93880
Taklax,,66280
Talluskylä,,71640
Talma,,4240
Talus,,85230
Talviainen,,35420
Tammela,,31300|31301
Tammelasaari,,31320
Tammiainen,,32450
Tammijärvi,,19910
Tamminiemi,,35930
Tammisaari,,10600|10601|10650|10651|10660
Tampere,,33002|33003|33007|33009|33100|33101|33180|33191|33200|33201|33210|33211|33230|33231|33240|33250|33251|33270|33271|33300|33310|33311|33330|33331|33340|33341|33400|33401|33410|33411|33420|33500|33501|33520|33521|33530|33531|33540|33541|33560|33561|33580|33581|33610|33611|33680|33700|33701|33710|33711|33720|33721|33730|33731|33800|33801|33820|33821|33840|33841|33850|33851|33900|33901|34999
Tampereen yliopisto,,33014
Tanhua,,99640
Tani,,54380
Tankavaara,,99695
Tannila,,91240
Tapio,,97280
Tapiola,,2010
Tapionniemi,,98350
Tapojärvi,,95940
Tarinaharju,,71880
Tarnala,,59610
Tarttila,,37770
Tarvaala,,43130
Tarvasjoki,,21450
Tarvola,,62610
Tast,,68420
Taulu,,41420
Tavastila,,49300
Tavastkenkä,,92910
Tavinsalmi,,71740
Teerijärvi,,68700|68701
Teerineva,,62820
Teeriranta,,93780
Teijo,,25570
Telakanava,,58610
Telamäki,,54840
Temmes,,91950
Tenhola,,10520
Tenkkula,,61480
Tennilä,,16630
Tennirova,,97615
Tepasto,,99150
Tepsa,,99280
Terälahti,,34260
Terttilä,,31490
Tervahauta,,38370
Tervajoki,,66440|66441
Tervakoski,,12400|12401
Tervalampi,,3220
Tervo,,72210|72211
Tervola,,95300|95301
Tesjoki,,7955
Teuro,,31250
Teuroinen,,47230
Teuva,,64700|64701
Tevaniemi,,39590
Tiainen,,97540
Tienmutka,,16560
Tiensuu,,81770
Tihilänkangas,,74980
Tihusniemi,,77580
Tihvonjärvi,,73420
Tiilää,,7580
Tiistenjoki,,62165
Tiitilänkylä,,72330
Tiituspohja,,41315
Tikkakoski,,41160|41161
Tikkala,,82350
Timola,,78480
Timovaara,,83865
Tirmo,,7360
Tirva,,46430
Tiukka,,64140
Tiuruniemi,,55330
Tiutinen,,48930
Tiviä,,59110
Tkk,,2015
Tohkala,,36340
Tohmajärvi,,82600|82601
Tohmajärvi As,,82610
Toholampi,,69300|69301
Toija,,25460|25461
Toijala,,37800|37801|37807
Toikkala,,46310
Toisvesi,,34970
Toivakka,,41660|41661
Toivala,,70900|70901
Töjby,,66295
Tokrajärvi,,81350
Tölby,,65460
Tolkkinen,,6750
Tolosenmäki,,82380
Tolpankangas,,85920
Tolva,,97925
Tonkopuro,,98730
Topeno,,12920
Torittu,,17710
Törmä,,95315
Törmämäki,,89110
Tornio,,95400|95401|95407|95420|95421|95430|95450
Torpinkylä,,7550
Torppa,,69720
Torro,,30980
Tortinmäki,,21340
Torvinen,,99540
Torvoila,,14690
Tossavanlahti,,72930
Totkiniemi,,59830
Totonvaara,,97145
Tottesund,,66650
Tottijärvi,,37310
Töysä,,63600|63601
Trolssi,,29910
Tuckur,,66670
Tuhkakylä,,88120
Tuiskula,,27730
Tulppo,,85730
Tunkkari,,69730
Tuohikotti,,46110
Tuohittu,,25160
Tuomala,,37930
Tuomikylä,,60720
Tuomioja,,92470
Tuomisaari,,38690
Tuopanjoki,,83985
Tuorila,,29790
Tuovila,,65540
Tuovilanlahti,,71775
Tupos,,91910
Tuppurinmäki,,79180
Turenki,,14200|14201
Turhala,,74860
Turkhauta,,12350
Turku,,20002|20003|20007|20100|20101|20110|20111|20120|20140|20141|20200|20201|20210|20211|20240|20241|20250|20251|20300|20301|20310|20311|20320|20321|20340|20350|20351|20360|20361|20380|20381|20400|20460|20500|20501|20510|20520|20521|20540|20541|20600|20601|20610|20611|20700|20701|20720|20740|20741|20750|20751|20800|20801|20810|20811|20840|20880|20881|20900|20901|20960|20990|21999
Turku-luostarinmäki,,20703
Tursa,,31860
Turtola,,95645
Turun linna,,20173
Turun Yliopisto,,20014
Tutjunniemi,,83160
Tuukkala,,52610
Tuulenkylä,,39910
Tuuliharju,,97450
Tuulos,,14820
Tuunajärvi,,38680
Tuupovaara,,82730|82731
Tuuri,,63610
Tuusjärvi,,71210
Tuusmäki,,58940
Tuusniemi,,71200|71201
Tuustaipale,,52740
Tuusula,,4300|4301|4310|4311|4320|4340|4360|4380
Tvärminne,,10850
Tynkä,,85140
Typpö,,85150
Tyrjänsaari,,81420
Tyrnävä,,91800|91801
Tyrövaara,,93540
Tyrväntö,,14620
Uimaharju,,81280|81281
Uimaniemi,,99760
Uimi,,54740
Ukkola,,81290
Ullava,,68370
Ulvila,,28400|28401
Unaja,,26910
Unarin-Luusua,,97370
Untamala,,61440
Untamo,,56620
Upinniemi,,2470|2471
Urajärvi,,17150
Urjala,,31760|31761
Urjala As,,31700
Urjalankylä,,31720
Uro,,54510
Uskali,,82170
Utajärvi,,91600|91601
Utö,,21740
Utsjoki,,99980|99981
Uttermossa,,64420
Utti,,45410|45411
Utula,,56330
Uukuniemi,,59730
Uurainen,,41230|41231
Uusi-Valamo,,79850
Uusi-Värtsilä,,82660
Uusikaarlepyy,,66900|66901
Uusikartano,,21390|21930
Uusikaupunki,,23003|23500|23501|23520|23530
Uusikylä,,16100|16101
Uusitalo,,3710
Uutela,,93150
Uva,,88420
Vaajakoski,,40800|40801
Vaajasalmi,,77910
Vääksy,,17201|17300|17301
Vääksy 2,,17200
Vaala,,91700|91701
Vaalajärvi,,99710
Vaalimaa,,49930
Vääräkoski,,63760
Vaaranniva,,89680
Vaaraslahti,,72710
Väärinmaja,,35750
Vaasa,,65001|65007|65100|65101|65120|65130|65140|65170|65200|65201|65210|65230|65231|65250|65280|65290|65300|65301|65320|65321|65350|65351|65370|65380|65381|66999
Väätäiskylä,,43430
Vaattojärvi,,95830
Vähä-Ollila,,31580
Vähäkyrö,,66500|66501
Vahanka,,43560
Vähikkälä,,12450
Vähimaa,,17440
Vahteristo,,19220
Vahto,,21310
Vainikkala,,54270
Väisälä,,77360
Vaivio,,83450
Väkevälä,,54440
Vakkola,,7510
Vakkuri,,62330
Väliaho,,86980
Välijoki,,54750
Valittula,,19770
Väliviirre,,69240
Valkama,,47440
Valkeakoski,,37600|37601|37607|37620|37630|37631|37640|37641|37650|37680
Valkeala,,45360|45361|45370|45371
Valkeamäki,,79190
Valkeisjärvi,,44770
Valkeiskylä,,74210
Valkkinen,,37420
Valko,,7910
Valkola,,41360
Valtimo,,75700|75701
Vammala,,38200|38201|38210|38211
Vampula,,32610|32611
Vanha-Ulvila,,28450|28451
Vanhakylä,,64810
Vanhala,,93590
Vanhalinna,,21410
Vanhamäki,,51130
Vänoxa,,25910
Vantaa,,1002|1003|1200|1201|1230|1231|1260|1261|1280|1300|1301|1350|1351|1360|1361|1370|1380|1390|1391|1400|1401|1420|1450|1451|1480|1490|1510|1511|1520|1530|1531|1600|1601|1610|1611|1620|1621|1630|1640|1641|1650|1651|1660|1661|1670|1671|1680|1690|1700|1710|1711|1720|1721|1730|1731|1740|1741|1750|1760|1770|6121
Vantaa 30/Yritysposti,,1305
Vanttauskoski,,97625
Vanttila,,31930
Varejoki,,95335
Varislahti,,83660
Varistaival,,79820
Varjakka,,90470
Varkaus,,78007|78200|78201|78210|78211|78250|78251|78300|78310|78400|78500|78610|78710|78850|78870|78900|79999
Varpaisjärvi,,73200|73201
Varpanen,,52810
Varpasalo,,82315
Varpasmaa,,71690
Värriö,,98820
Vartiala,,71150
Vartius,,88920
Vartsala,,25210
Värtsilä,,82655
Vasa,,65240
Vasankari,,85110
Vasarainen,,26740
Vasaraperä,,93680
Vasikka-Aho,,62540
Vaskio,,25260
Vaskivesi,,34710
Vaskuu,,34730
Vassor,,66590
Västanfjärd,,25830
Västerhankmo,,66550
Västerskog,,1120|1121
Vastila,,49290
Västilä,,35270
Vastinki,,43660
Västinniemi,,73470
Vatajankoski,,38920
Vatjusjärvi,,86680
Vaulammi,,31610
Väylänpää,,95730
Vedenoja,,66430
Vehkajärvi,,36880
Vehkajoki,,49630
Vehkataipale,,54960
Vehmaa,,23210
Vehmersalmi,,71310
Vehniä,,41180
Vehunkylä,,63950
Veikkaala,,66520
Veikkaus,,1009
Veikkola,,2880|2881
Vekaranjärvi,,46140|46141
Velaatta,,34270
Velkua,,21195
Venäjänkangas,,31650
Veneheitto,,92830
Venejärvenkylä,,95840
Veneranta,,41530
Venesjärvi,,38760
Veneskoski,,38750
Venetmäki,,77120
Venetpalo,,86790
Vepsänkylä,,91370
Verkkoranta,,29120
Verla,,47850
Vermuntila,,26930
Vesajärvi,,39290
Vesanka,,41940
Vesanto,,72300|72301
Vesijako,,17630
Vesikoski,,86870
Vesilahti,,37470
Vesiluoma,,62390
Vesivehmaa,,17130
Vestlax,,25820
Veteli,,69700|69701
Vianta,,71770
Viantie,,95225
Viekijärvi,,81860
Viekki,,81840
Vieremä,,74200
Vierumäki,,19100|19110|19111|19120
Viesimo,,82190
Vihanti,,86400|86401
Vihijärvi,,44260
Vihtari,,79940
Vihtasuo,,83915
Vihtavuori,,41330|41331
Vihteljärvi,,38720
Vihti,,3400|3401
Vihtijärvi,,3790
Viiala,,37830|37831
Viinijärvi,,83400
Viiri,,97620
Viitaila,,17410
Viitaniemi,,73710
Viitasaari,,44500|44501
Vikajärvi,,97510
Vikby,,65480
Viljakkala,,39310
Viljolahti,,79520
Villähde,,15440|15540|15541
Villala,,58350
Villamo,,64830
Villikkala,,16270
Vilmi,,95240
Vilppula,,35700|35701
Vimpeli,,62800|62801
Vinkkilä,,23200|23201
Vinni,,62870
Virenoja,,16310
Virkkala,,8700|8701|8720
Virmutjoki,,56210
Virolahti,,49900|49901
Virolahti Kk,,49950
Virrat,,34800|34801
Virtasalmi,,77330
Virttaa,,32560
Visuvesi,,34870
Vitsiälä,,52320
Vittakumpu,,99220
Viuhkola,,54630
Viuruniemi,,83620
Voikkaa,,45910|45911
Voikoski,,52920
Voiluoto,,26950
Voitoinen,,27740
Vojakkala,,95500
Voltti,,62310
Voolahti,,7450|7451
Vorna,,92610
Vöyri,,66600|66601
Vreta,,25710
Vtt,,2044
Vuohijärvi,,47900|47901
Vuohiniemi,,14430
Vuojalahti,,51440
Vuojärvi,,99530
Vuokatin Urheiluopisto,,88615
Vuokatti,,88610
Vuolenkoski,,19150
Vuolijoki,,88270
Vuolle,,61110
Vuonisjärvi,,81560
Vuonislahti,,81590
Vuontisjärvi,,99410
Vuorela,,70910|70911
Vuorenmaa,,51850
Vuorenmylly,,17210
Vuorentausta,,33430|33431
Vuori,,27860
Vuorilahti,,44590
Vuoriniemi,,58580
Vuoskoski,,43380
Vuostimo,,98360
Vuostimojärvi,,98370
Vuotso,,99690
Vuottolahti,,88210
Vuotunki,,93940
Ylä-Kintaus,,41925
Ylä-Koli,,83970
Ylä-Kolkki,,42830
Ylä-Luosta,,75680
Ylä-Vääri,,35740
Ylä-Valtimo,,75840
Ylämaa,,54410
Ylämylly,,80400|80401
Yläne,,21900|21901
Ylhäinen,,32430
Yli-Hella,,62110
Yli-Hosio,,95285
Yli-Ii,,91200
Yli-ii,,91201
Yli-Kannus,,69170
Yli-Kärppä,,95270
Yli-kitinen,,99680
Yli-Kollaja,,93170
Yli-Lesti,,69450
Yli-Muonio,,99310
Yli-Nampa,,97530
Yli-Olhava,,91150
Yli-Paakkola,,95375
Yli-Putto,,38650
Yli-Simo,,97720
Yli-Siurua,,93190
Yli-Ullava,,68380
Yli-Valli,,61730
Yli-Vieksi,,88730
Yli-Vuokki,,89840
Ylihärmä,,62375
Ylijärvi,,54460
Ylikiiminki,,91300
Ylikylä,,62175
Ylimaa,,64360
Ylinen,,34130
Ylipää,,86230
Yliskulma,,21430
Ylistaro,,61400|61401
Ylistaro As,,61410
Ylitornio,,95600|95601
Ylivesi,,52140
Ylivieska,,84007|84100|84101|84320|84330|84460|84540|84650|84770|84880|85999
Ylläsjärvi,,95980
Ylöjärvi,,33470|33471|33480|33481
Ylönkylä,,25610
Ylöpirtti,,31410
Ypäjä,,32100|32101
Ypäjä As,,32140
Yppäri,,86170
Ytteresse,,68810
Yttermark,,64220
Yttilä,,27750|27751
Yyteri,,28850
