name,districts,zipcodes,
OZAN,Sud-Est##District 2##District 3,zip1|zip2|zip3##no_zipcodes##zip1 district 3|zip2 district3,here is an example where for district 2 will not be added any zipcodes
CORMORANCHE-SUR-SAONE,Sud-Est##District 3,1290,
PLAGNE,Sud-Est##District 2,zip 4|zip 5,
TOSSIAT,Sud-Est,1250,
PARIS,District 4,,example for districts with no zipcodes
